{
	"name": "ARC-MUND-PUB-BULLETIN-IIB-98-ACTES-CONF-1908",
	"blobs":[[114,781,76,19],[131,776,39,3],[114,769,67,3],[26,713,83,21],[26,699,77,13],[112,675,84,53],[25,675,82,23],[25,603,187,51],[25,536,81,46],[113,535,84,47],[114,468,84,46],[26,468,83,46],[113,399,82,48],[25,399,81,48],[114,332,81,46],[26,332,84,46],[110,259,87,49],[25,259,84,49],[110,214,76,23],[143,210,12,3],[133,210,7,3],[121,210,8,3],[124,204,44,4],[145,199,15,3],[111,199,15,3],[135,195,19,7],[118,195,12,3],[104,152,66,9],[153,143,3,3],[142,143,8,3],[127,143,10,3],[134,136,26,3],[121,136,12,3],[146,130,15,3],[137,130,8,3],[116,130,15,3],[111,130,4,3],[104,126,12,3],[136,123,18,6],[129,118,7,3],[105,103,132,14],[16,72,70,8],[49,64,9,3],[40,64,6,3],[45,57,27,3],[32,57,12,3],[57,51,15,3],[48,51,8,3],[27,51,15,3],[22,51,4,3],[15,46,12,3],[47,44,18,5],[40,39,7,3],[17,22,126,16],[41,22,20,5],[30,22,10,5],[121,1542,58,7],[27,1539,180,51],[116,1485,77,33],[120,1479,69,5],[139,1475,20,3],[142,1471,11,3],[28,1471,76,28],[30,1415,75,35],[37,1409,54,5],[55,1405,18,3],[116,1401,76,49],[57,1401,10,3],[114,1332,76,44],[30,1332,77,48],[113,1264,76,47],[27,1264,79,47],[116,1195,80,48],[26,1195,80,48],[116,1125,77,49],[27,1125,79,49],[27,1078,77,25],[27,1069,76,5],[27,1062,72,3],[115,1041,76,62],[27,1040,76,21],[116,973,76,46],[27,971,80,48],[114,902,75,47],[27,901,78,49],[28,830,172,49],[114,800,74,9],[114,2381,78,19],[27,2381,79,19],[112,2338,77,22],[128,2334,11,3],[132,2329,23,3],[144,2320,15,3],[137,2320,4,3],[114,2320,11,3],[25,2313,76,27],[115,2258,77,34],[124,2253,49,4],[140,2248,18,3],[26,2245,81,25],[143,2243,10,3],[114,2192,78,29],[24,2179,81,44],[36,2174,42,3],[49,2168,16,3],[51,2163,11,3],[114,2162,80,29],[114,2083,79,53],[24,2083,79,58],[24,2007,184,54],[114,1926,79,60],[25,1926,84,60],[26,1850,82,55],[112,1849,81,55],[114,1770,79,58],[27,1768,80,60],[115,1692,79,54],[28,1691,78,54],[114,1611,78,59],[28,1611,79,59],[115,3150,85,46],[27,3150,82,46],[27,3099,78,30],[46,3092,4,5],[31,3092,12,3],[51,3089,30,8],[114,3080,80,49],[27,3011,168,48],[22,2986,3,3],[28,2937,194,53],[114,2887,78,28],[149,2879,22,4],[116,2876,32,7],[27,2867,78,12],[36,2861,3,3],[114,2798,84,49],[25,2798,83,49],[25,2729,82,48],[114,2727,84,50],[115,2659,82,47],[26,2659,83,47],[114,2590,82,48],[26,2590,87,48],[114,2540,80,29],[120,2535,16,3],[141,2532,23,6],[118,2522,61,6],[114,2449,84,31],[27,2449,81,48],[113,2400,81,28],[27,2400,80,28],[114,3948,84,51],[24,3948,84,52],[117,3877,82,50],[27,3877,86,50],[27,3803,83,53],[117,3802,82,54],[117,3730,89,51],[29,3730,84,51],[116,3672,111,37],[119,3663,81,7],[29,3657,90,9],[30,3626,82,10],[116,3580,82,56],[29,3580,84,41],[115,3511,83,47],[28,3511,83,48],[28,3430,194,60],[115,3361,83,48],[26,3361,85,48],[126,3337,3,3],[116,3286,80,50],[25,3285,83,51],[116,3238,78,26],[116,3231,4,3],[121,3226,52,8],[27,3216,76,13],[128,4765,40,5],[114,4746,85,18],[30,4746,170,50],[116,4696,81,29],[118,4686,62,5],[29,4640,76,10],[115,4633,112,18],[115,4595,80,15],[28,4594,85,44],[28,4542,82,32],[116,4526,84,48],[26,4467,212,39],[26,4454,80,12],[115,4453,80,14],[26,4382,196,50],[116,4306,111,54],[28,4306,82,54],[27,4236,185,49],[28,4164,184,50],[115,4094,108,49],[28,4094,81,49],[114,4035,110,39],[116,4028,59,5],[26,4024,82,47],[114,5554,82,45],[25,5553,83,45],[25,5514,84,17],[25,5495,85,15],[26,5491,79,3],[114,5473,87,58],[26,5472,81,18],[119,5422,83,28],[129,5417,52,4],[147,5376,3,3],[120,5375,26,4],[75,5361,8,16],[64,5361,7,16],[41,5361,21,16],[118,5329,78,44],[144,5327,11,3],[31,5327,81,34],[119,5291,10,15],[130,5290,46,16],[115,5283,76,6],[159,5269,10,10],[134,5268,24,11],[125,5268,6,11],[116,5260,75,7],[142,5259,13,3],[30,5258,83,47],[32,5212,168,25],[117,5208,23,3],[117,5193,81,14],[117,5187,77,5],[117,5175,80,11],[121,5169,50,5],[29,5164,78,56],[26,5091,185,50],[26,5056,74,14],[118,5044,99,26],[118,5025,77,18],[25,5025,75,30],[116,4955,112,49],[26,4955,79,43],[115,4888,80,46],[27,4888,81,46],[114,4817,81,50],[28,4817,80,50],[24,6374,83,6],[24,6328,180,54],[113,6261,88,46],[24,6261,84,46],[23,6192,174,48],[26,6165,8,3],[115,6163,84,7],[26,6159,76,3],[26,6148,79,9],[26,6144,66,3],[115,6106,83,59],[26,6106,82,37],[29,6040,173,45],[28,5972,186,47],[28,5915,83,15],[28,5905,80,7],[28,5896,25,3],[27,5885,190,66],[28,5884,78,11],[113,5830,107,33],[114,5823,59,5],[113,5751,80,21],[26,5750,85,44],[116,5700,92,31],[122,5696,49,3],[26,5689,78,12],[26,5621,85,47],[116,5620,86,48],[111,7184,80,16],[24,7184,78,16],[113,7109,82,53],[25,7109,82,53],[24,7084,79,3],[110,7083,8,5],[119,7080,18,5],[24,7075,75,4],[110,7025,97,57],[23,7025,81,49],[24,6965,76,30],[24,6957,71,4],[25,6934,164,70],[23,6934,79,20],[28,6874,80,18],[28,6869,75,3],[28,6864,74,3],[28,6855,76,3],[27,6837,180,75],[28,6836,78,18],[28,6760,173,55],[114,6728,95,10],[114,6690,83,37],[29,6690,84,49],[31,6626,75,3],[31,6618,81,7],[31,6614,72,3],[31,6606,168,63],[31,6605,76,6],[113,6537,85,47],[26,6537,84,47],[114,6469,84,47],[28,6468,83,47],[26,6404,85,21],[112,6403,84,44],[113,7995,74,5],[26,7995,77,5],[102,7992,3,3],[29,7921,193,54],[26,7921,83,50],[28,7877,79,9],[111,7872,83,28],[122,7868,56,3],[115,7860,58,3],[26,7854,80,22],[107,7784,82,49],[25,7783,79,50],[109,7736,84,26],[110,7732,78,3],[111,7723,70,6],[26,7650,75,38],[107,7634,75,50],[26,7634,67,16],[25,7602,72,10],[25,7591,80,10],[25,7582,72,6],[108,7572,72,40],[108,7542,78,29],[25,7542,77,35],[108,7490,78,30],[112,7478,60,6],[25,7386,184,56],[27,7358,80,7],[112,7353,90,12],[26,7346,75,7],[27,7340,73,3],[26,7327,76,10],[112,7314,99,41],[112,7287,79,22],[25,7287,79,38],[110,7257,78,9],[24,7241,79,25],[24,7235,73,3],[110,7232,83,24],[24,7225,78,7],[24,7220,74,4],[111,7217,77,17],[111,7200,82,19],[24,7200,77,13],[115,8745,80,55],[26,8744,83,56],[149,8720,3,3],[114,8670,84,48],[26,8670,83,48],[27,8588,193,61],[27,8588,81,25],[112,8544,80,23],[112,8537,85,4],[150,8528,15,5],[145,8528,4,3],[116,8528,28,5],[113,8488,90,3],[28,8482,80,9],[27,8454,83,27],[112,8434,80,50],[26,8434,83,16],[24,8375,82,38],[24,8370,76,3],[110,8356,81,57],[24,8356,76,12],[25,8286,83,48],[115,8285,79,50],[114,8216,83,48],[25,8216,85,48],[114,8144,82,51],[25,8144,83,51],[115,8094,78,29],[118,8088,73,3],[119,8080,46,5],[113,8000,83,21],[26,8000,85,47],[30,9592,83,8],[30,9588,79,3],[29,9575,82,10],[114,9574,82,26],[113,9506,84,47],[25,9506,83,47],[25,9435,84,50],[114,9434,86,51],[116,9381,106,32],[116,9375,79,3],[163,9369,8,3],[157,9369,4,3],[133,9369,17,3],[121,9369,8,3],[114,9287,77,9],[26,9287,85,47],[113,9216,86,50],[25,9216,83,50],[27,9178,79,16],[27,9173,77,3],[27,9158,78,12],[112,9157,79,38],[166,9156,3,3],[27,9150,73,3],[112,9122,82,36],[27,9121,82,28],[111,9071,83,29],[118,9066,68,3],[137,9061,18,3],[119,9061,11,3],[112,9061,4,3],[26,9051,81,37],[116,9026,41,4],[114,8999,78,26],[119,8994,69,3],[161,8987,12,3],[147,8987,13,3],[128,8987,17,3],[119,8987,7,3],[114,8987,4,3],[114,8907,83,46],[26,8907,84,47],[25,8881,75,6],[25,8872,78,8],[25,8859,76,12],[25,8825,82,32],[114,8824,115,63],[117,8800,76,3],[26,8800,74,2],[29,10397,7,3],[117,10387,75,13],[29,10387,72,13],[115,10358,7,3],[115,10314,78,52],[29,10313,81,53],[112,10258,82,34],[113,10253,87,3],[147,10249,15,3],[136,10249,9,3],[123,10249,12,3],[28,10241,81,30],[29,10171,168,48],[26,10096,188,54],[25,10096,83,34],[114,10049,82,26],[124,10043,57,3],[116,10035,59,5],[113,9950,83,43],[26,9950,84,50],[114,9899,86,30],[114,9893,85,4],[150,9887,15,3],[145,9887,4,3],[125,9887,15,3],[120,9887,4,3],[113,9846,110,7],[27,9834,82,19],[164,9831,7,3],[113,9830,84,11],[113,9795,82,37],[26,9795,79,34],[27,9761,82,13],[112,9724,109,50],[25,9724,86,36],[25,9653,84,49],[111,9651,84,51],[113,9613,80,17],[118,9608,59,4],[135,9604,11,3],[137,9600,64,3],[30,9600,82,30],[113,11189,79,11],[117,11181,70,4],[149,11177,13,3],[127,11177,15,3],[122,11177,4,3],[26,11165,81,27],[27,11137,76,7],[145,11130,27,6],[25,11100,82,31],[25,11095,82,3],[110,11090,83,52],[112,11078,78,14],[25,11076,76,14],[29,11037,82,18],[29,11025,79,11],[29,11008,83,14],[29,11003,77,3],[29,10985,80,16],[115,10984,79,70],[117,10915,82,49],[29,10915,81,49],[116,10868,81,26],[117,10863,80,3],[29,10846,81,34],[28,10777,83,44],[116,10776,108,49],[27,10727,79,27],[115,10723,82,32],[117,10721,15,4],[145,10720,7,3],[125,10715,56,3],[115,10706,63,7],[27,10697,80,25],[28,10672,9,4],[27,10658,77,18],[116,10647,5,3],[27,10630,5,3],[116,10624,79,52],[27,10624,78,33],[29,10600,21,3],[116,10585,10,3],[28,10581,78,18],[28,10571,77,7],[116,10540,107,62],[27,10540,83,30],[29,10487,77,3],[29,10460,192,59],[29,10460,83,24],[115,10400,78,39],[28,10400,78,39],[117,11986,82,14],[28,11984,80,16],[116,11916,103,48],[27,11916,87,48],[116,11847,82,48],[26,11847,84,48],[116,11774,82,52],[29,11774,82,51],[30,11745,81,7],[29,11704,81,38],[114,11699,79,54],[29,11692,80,6],[29,11687,27,3],[114,11684,78,17],[140,11682,11,3],[29,11681,78,5],[27,11651,80,9],[27,11645,75,3],[114,11600,85,60],[27,11600,83,43],[26,11564,80,15],[114,11524,81,54],[26,11524,85,37],[25,11487,80,16],[114,11453,85,50],[25,11453,83,33],[115,11384,84,48],[26,11384,84,47],[114,11334,83,29],[153,11327,9,3],[146,11327,5,3],[138,11327,7,3],[126,11327,8,3],[115,11235,83,40],[26,11235,82,51],[113,11200,80,14],[26,12734,83,50],[114,12733,82,51],[150,12710,3,3],[113,12658,84,50],[25,12658,84,50],[114,12586,82,51],[25,12586,82,51],[115,12517,87,48],[27,12517,80,48],[116,12444,84,52],[28,12443,83,53],[29,12388,84,33],[116,12383,85,39],[30,12371,77,10],[30,12365,79,3],[30,12359,76,5],[37,12355,56,3],[116,12352,80,33],[55,12351,11,3],[28,12303,80,28],[114,12273,81,57],[28,12273,80,24],[114,12201,84,51],[26,12201,83,51],[27,12172,80,8],[113,12126,81,54],[26,12126,84,44],[115,12055,82,50],[28,12055,81,50],[115,12000,81,34],[28,12000,86,33],[33,13039,61,5],[113,12944,72,22],[29,12944,67,46],[115,12892,68,31],[147,12886,10,3],[140,12886,5,3],[130,12886,7,3],[30,12875,80,13],[113,12805,81,49],[27,12805,79,49]],
	"pngs":[
		["pngs/txt/ARC-MUND-PUB-BULLETIN-IIB-98-ACTES-CONF-1908.00000.png","pngs/opencv/ARC-MUND-PUB-BULLETIN-IIB-98-ACTES-CONF-1908.00000.png"],
		["pngs/txt/ARC-MUND-PUB-BULLETIN-IIB-98-ACTES-CONF-1908.00001.png","pngs/opencv/ARC-MUND-PUB-BULLETIN-IIB-98-ACTES-CONF-1908.00001.png"],
		["pngs/txt/ARC-MUND-PUB-BULLETIN-IIB-98-ACTES-CONF-1908.00002.png","pngs/opencv/ARC-MUND-PUB-BULLETIN-IIB-98-ACTES-CONF-1908.00002.png"],
		["pngs/txt/ARC-MUND-PUB-BULLETIN-IIB-98-ACTES-CONF-1908.00003.png","pngs/opencv/ARC-MUND-PUB-BULLETIN-IIB-98-ACTES-CONF-1908.00003.png"],
		["pngs/txt/ARC-MUND-PUB-BULLETIN-IIB-98-ACTES-CONF-1908.00004.png","pngs/opencv/ARC-MUND-PUB-BULLETIN-IIB-98-ACTES-CONF-1908.00004.png"],
		["pngs/txt/ARC-MUND-PUB-BULLETIN-IIB-98-ACTES-CONF-1908.00005.png","pngs/opencv/ARC-MUND-PUB-BULLETIN-IIB-98-ACTES-CONF-1908.00005.png"],
		["pngs/txt/ARC-MUND-PUB-BULLETIN-IIB-98-ACTES-CONF-1908.00006.png","pngs/opencv/ARC-MUND-PUB-BULLETIN-IIB-98-ACTES-CONF-1908.00006.png"],
		["pngs/txt/ARC-MUND-PUB-BULLETIN-IIB-98-ACTES-CONF-1908.00007.png","pngs/opencv/ARC-MUND-PUB-BULLETIN-IIB-98-ACTES-CONF-1908.00007.png"],
		["pngs/txt/ARC-MUND-PUB-BULLETIN-IIB-98-ACTES-CONF-1908.00008.png","pngs/opencv/ARC-MUND-PUB-BULLETIN-IIB-98-ACTES-CONF-1908.00008.png"],
		["pngs/txt/ARC-MUND-PUB-BULLETIN-IIB-98-ACTES-CONF-1908.00009.png","pngs/opencv/ARC-MUND-PUB-BULLETIN-IIB-98-ACTES-CONF-1908.00009.png"],
		["pngs/txt/ARC-MUND-PUB-BULLETIN-IIB-98-ACTES-CONF-1908.00010.png","pngs/opencv/ARC-MUND-PUB-BULLETIN-IIB-98-ACTES-CONF-1908.00010.png"],
		["pngs/txt/ARC-MUND-PUB-BULLETIN-IIB-98-ACTES-CONF-1908.00011.png","pngs/opencv/ARC-MUND-PUB-BULLETIN-IIB-98-ACTES-CONF-1908.00011.png"],
		["pngs/txt/ARC-MUND-PUB-BULLETIN-IIB-98-ACTES-CONF-1908.00012.png","pngs/opencv/ARC-MUND-PUB-BULLETIN-IIB-98-ACTES-CONF-1908.00012.png"],
		["pngs/txt/ARC-MUND-PUB-BULLETIN-IIB-98-ACTES-CONF-1908.00013.png","pngs/opencv/ARC-MUND-PUB-BULLETIN-IIB-98-ACTES-CONF-1908.00013.png"],
		["pngs/txt/ARC-MUND-PUB-BULLETIN-IIB-98-ACTES-CONF-1908.00014.png","pngs/opencv/ARC-MUND-PUB-BULLETIN-IIB-98-ACTES-CONF-1908.00014.png"],
		["pngs/txt/ARC-MUND-PUB-BULLETIN-IIB-98-ACTES-CONF-1908.00015.png","pngs/opencv/ARC-MUND-PUB-BULLETIN-IIB-98-ACTES-CONF-1908.00015.png"],
		["pngs/txt/ARC-MUND-PUB-BULLETIN-IIB-98-ACTES-CONF-1908.00016.png","pngs/opencv/ARC-MUND-PUB-BULLETIN-IIB-98-ACTES-CONF-1908.00016.png"]
	]
}