{
	"name": "ARC-MUND-PUB-BULLETIN-IIB-69-ORGA-DOC-ECONOMIE-1905",
	"blobs":[[33,758,160,42],[33,688,177,52],[32,621,188,49],[34,558,193,45],[32,497,160,43],[111,432,98,47],[31,432,80,47],[30,392,185,23],[115,371,82,20],[30,369,84,36],[29,305,170,47],[30,240,174,47],[114,206,84,15],[114,192,117,13],[118,186,4,3],[123,185,44,5],[159,174,10,3],[115,174,13,3],[118,173,65,10],[123,146,95,8],[21,144,95,7],[26,125,28,5],[128,108,9,3],[142,106,12,5],[154,101,15,3],[136,101,4,3],[112,101,15,3],[142,95,19,9],[123,95,16,3],[116,95,3,3],[22,95,209,34],[18,68,24,6],[43,67,47,9],[16,54,68,8],[49,45,97,7],[48,38,13,3],[35,38,9,3],[30,38,4,3],[59,34,15,3],[50,34,8,3],[30,34,15,3],[25,34,4,3],[42,30,13,3],[19,30,16,3],[28,17,107,9],[30,1574,112,12],[31,1538,80,18],[31,1512,200,45],[31,1449,173,46],[31,1379,186,52],[33,1352,187,9],[33,1304,165,46],[33,1235,172,52],[32,1169,171,49],[32,1169,79,39],[31,1102,189,49],[32,1032,189,53],[32,964,188,51],[34,893,188,53],[33,823,194,53],[35,800,176,5],[68,1635,35,3]],
	"pngs":[
		["pngs/txt/ARC-MUND-PUB-BULLETIN-IIB-69-ORGA-DOC-ECONOMIE-1905.00000.png","pngs/opencv/ARC-MUND-PUB-BULLETIN-IIB-69-ORGA-DOC-ECONOMIE-1905.00000.png"],
		["pngs/txt/ARC-MUND-PUB-BULLETIN-IIB-69-ORGA-DOC-ECONOMIE-1905.00001.png","pngs/opencv/ARC-MUND-PUB-BULLETIN-IIB-69-ORGA-DOC-ECONOMIE-1905.00001.png"],
		["pngs/txt/ARC-MUND-PUB-BULLETIN-IIB-69-ORGA-DOC-ECONOMIE-1905.00002.png","pngs/opencv/ARC-MUND-PUB-BULLETIN-IIB-69-ORGA-DOC-ECONOMIE-1905.00002.png"]
	]
}