{
	"name": "ARC-MUND-PUB-UAI-CONGRES-ORGA-INT-1910",
	"blobs":[[116,776,87,22],[28,776,82,24],[29,694,177,64],[25,616,92,60],[115,613,91,64],[148,609,15,6],[28,599,89,9],[118,598,84,15],[27,525,177,55],[140,524,11,3],[55,523,9,3],[25,453,177,53],[52,453,10,3],[29,382,177,54],[25,309,180,56],[53,308,7,3],[25,236,175,54],[26,164,174,55],[25,90,180,53],[19,53,63,18],[19,48,105,4],[50,44,11,3],[34,44,10,3],[60,39,16,3],[37,39,16,3],[32,39,4,3],[19,39,9,3],[22,30,14,3],[38,26,40,10],[34,26,9,3],[72,17,15,3],[14,17,19,5],[29,800,87,25]],
	"pngs":[
		["pngs/txt/ARC-MUND-PUB-UAI-CONGRES-ORGA-INT-1910.00000.png","pngs/opencv/ARC-MUND-PUB-UAI-CONGRES-ORGA-INT-1910.00000.png"],
		["pngs/txt/ARC-MUND-PUB-UAI-CONGRES-ORGA-INT-1910.00001.png","pngs/opencv/ARC-MUND-PUB-UAI-CONGRES-ORGA-INT-1910.00001.png"]
	]
}