{
	"name": "ARC-MUND-PUB-PO-CONF-INT-BIBLIO-DOC-1908",
	"blobs":[[0,143,37,8],[0,0,171,94]],
	"pngs":[
		["pngs/txt/ARC-MUND-PUB-PO-CONF-INT-BIBLIO-DOC-1908.00000.png","pngs/opencv/ARC-MUND-PUB-PO-CONF-INT-BIBLIO-DOC-1908.00000.png"]
	]
}