{
	"name": "ARC-MUND-PUB-PO-TRAITE-DOC",
	"blobs":[[19,745,269,55],[0,740,7,3],[18,645,254,96],[0,639,7,3],[19,542,256,98],[0,537,7,3],[17,478,251,60],[17,473,7,3],[173,457,15,3],[160,457,10,3],[158,452,19,3],[206,444,5,3],[157,444,13,6],[17,444,252,36],[0,438,7,3],[17,423,241,16],[201,420,9,5],[46,356,12,3],[16,346,267,76],[167,345,6,3],[130,341,23,6],[171,336,15,7],[59,330,3,3],[120,326,140,16],[101,326,3,3],[53,326,12,3],[0,320,7,3],[158,296,15,3],[150,296,4,3],[135,296,8,3],[24,278,90,43],[0,268,7,3],[16,265,39,4],[83,263,31,6],[29,235,99,14],[131,223,91,43],[151,217,14,3],[80,214,27,4],[0,206,7,3],[17,203,39,4],[83,201,32,6],[157,199,22,6],[169,172,10,3],[146,172,9,3],[30,167,224,20],[161,166,14,3],[142,166,7,3],[133,166,4,3],[120,157,15,3],[164,155,4,3],[147,149,8,3],[81,146,28,4],[0,140,7,3],[156,137,37,4],[120,115,141,9],[167,106,10,3],[156,106,16,8],[144,106,9,3],[182,100,7,3],[159,100,8,3],[141,100,7,3],[132,100,4,3],[118,91,15,3],[162,89,4,3],[146,84,9,3],[191,76,11,3],[186,76,3,3],[173,76,9,3],[164,76,8,3],[159,76,3,3],[140,76,11,3],[126,76,11,3],[0,69,7,3],[40,67,7,3],[21,1550,268,50],[0,1543,7,3],[20,1508,267,36],[19,1457,270,53],[0,1451,7,3],[19,1352,266,100],[68,1348,17,6],[113,1347,3,3],[122,1345,114,5],[58,1345,13,3],[22,1345,4,3],[104,1342,7,3],[0,1340,7,3],[188,1314,15,3],[171,1314,12,3],[147,1314,18,3],[20,1272,5,3],[20,1245,267,96],[0,1240,7,3],[53,1162,11,3],[19,1162,5,3],[204,1140,4,3],[18,1140,253,101],[0,1134,7,3],[17,1069,265,66],[0,1064,7,3],[45,1062,8,3],[20,1045,45,15],[111,1039,10,3],[123,1038,13,5],[31,1038,10,3],[43,1034,88,10],[33,1033,6,3],[92,1027,17,3],[73,1027,10,3],[48,1027,13,3],[18,998,119,19],[26,989,9,3],[119,988,3,3],[105,988,12,3],[69,988,9,3],[81,986,13,3],[95,984,32,3],[44,984,92,15],[21,979,15,3],[98,978,12,3],[78,978,10,3],[53,978,13,3],[0,966,7,3],[17,890,257,77],[0,885,7,3],[18,815,283,71],[0,810,7,3],[19,800,247,11],[0,2396,7,3],[19,2289,257,108],[0,2284,7,3],[26,2245,3,3],[47,2220,12,3],[20,2216,250,69],[20,2194,68,3],[19,2166,257,52],[0,2161,7,3],[19,2069,276,93],[0,2064,7,3],[23,2044,68,9],[92,2041,25,3],[120,2023,5,3],[23,2021,3,3],[22,2009,3,4],[26,2007,90,36],[120,2006,138,59],[206,1997,4,3],[156,1997,27,3],[147,1997,8,3],[123,1997,5,3],[0,1991,7,3],[60,1986,11,3],[194,1983,3,3],[71,1980,24,4],[53,1976,17,4],[46,1971,37,4],[88,1952,17,4],[34,1950,35,4],[168,1949,35,5],[161,1949,5,3],[125,1949,77,43],[35,1946,32,3],[24,1946,9,3],[71,1945,35,6],[0,1928,7,3],[163,1926,11,3],[174,1922,10,3],[140,1908,6,6],[145,1888,9,3],[18,1879,137,49],[18,1824,260,60],[103,1824,4,3],[56,1824,13,3],[21,1824,4,3],[0,1819,7,3],[19,1817,34,3],[208,1744,4,3],[18,1744,270,75],[0,1737,7,3],[17,1673,263,65],[17,1669,139,3],[17,1633,247,42],[0,1628,7,3],[22,1626,31,3],[22,1600,264,28],[20,3196,276,4],[0,3191,7,3],[17,3101,281,91],[0,3096,7,3],[21,3011,295,86],[208,2998,4,3],[110,2998,3,3],[104,2998,5,3],[91,2998,5,3],[59,2998,13,3],[39,2998,5,3],[20,2998,7,3],[20,2997,264,16],[0,2992,7,3],[20,2906,287,87],[0,2901,7,3],[4,2851,6,3],[2,2843,9,3],[20,2792,263,110],[0,2786,7,3],[163,2747,4,3],[19,2746,274,41],[187,2743,21,5],[19,2736,248,9],[19,2724,268,14],[169,2723,3,3],[19,2695,269,30],[0,2689,7,3],[19,2588,255,102],[0,2582,7,3],[4,2548,5,3],[18,2511,262,72],[0,2506,7,3],[17,2451,271,56],[16,2401,284,52],[19,3976,259,24],[0,3970,7,3],[20,3896,259,75],[19,3859,275,39],[0,3854,7,3],[20,3755,272,100],[0,3750,7,3],[20,3705,27,3],[19,3679,270,72],[0,3673,7,3],[20,3596,268,78],[0,3591,7,3],[20,3539,267,53],[19,3503,267,38],[0,3498,7,3],[17,3405,268,94],[0,3398,7,5],[18,3329,266,71],[150,3316,10,3],[17,3299,275,32],[0,3293,7,3],[18,3200,269,94],[0,4797,7,3],[22,4783,265,15],[19,4710,279,75],[0,4704,7,3],[171,4643,61,3],[20,4618,272,87],[0,4612,7,3],[22,4603,259,10],[93,4600,24,5],[21,4539,268,63],[20,4500,264,41],[0,4497,7,3],[21,4415,275,83],[0,4410,7,3],[21,4383,256,28],[87,4382,5,3],[68,4381,9,3],[201,4378,16,5],[91,4375,23,5],[75,4374,10,3],[170,4369,31,7],[28,4368,13,3],[68,4364,19,6],[85,4363,6,3],[110,4362,4,3],[3,4358,3,3],[21,4355,241,9],[69,4346,201,11],[196,4342,19,6],[155,4291,12,3],[19,4291,272,53],[0,4285,7,3],[18,4192,276,94],[0,4186,7,3],[18,4088,272,99],[0,4084,7,3],[20,4055,282,30],[19,4000,276,57],[19,5577,44,3],[19,5546,273,54],[0,5541,7,3],[22,5450,275,92],[0,5445,7,3],[204,5398,10,3],[21,5365,283,81],[21,5357,201,10],[0,5352,7,3],[18,5263,279,90],[0,5258,7,3],[19,5229,275,30],[19,5171,263,60],[66,5169,14,4],[186,5164,32,7],[8,5159,3,3],[19,5154,289,12],[79,5148,33,8],[18,5134,271,16],[0,5129,7,3],[66,5127,71,3],[19,5127,33,3],[20,5121,148,3],[18,5021,273,108],[0,5015,7,3],[19,4971,268,45],[22,4952,62,3],[151,4951,11,5],[19,4950,268,23],[128,4949,6,3],[66,4948,6,3],[19,4914,273,36],[0,4908,7,3],[18,4890,251,19],[20,4882,267,10],[4,4877,5,3],[125,4834,4,3],[16,4802,272,82],[19,6394,269,6],[0,6389,7,3],[20,6368,15,3],[6,6345,4,4],[19,6310,269,80],[0,6305,7,3],[19,6211,270,95],[0,6206,7,3],[20,6129,262,78],[0,6124,7,3],[21,6012,251,113],[0,6006,7,3],[19,5929,262,78],[0,5924,7,3],[17,5811,271,114],[0,5806,7,3],[19,5794,15,3],[19,5718,277,89],[0,5713,7,3],[20,5637,273,77],[0,5632,7,3],[20,5600,268,33],[19,7190,257,10],[0,7186,7,3],[20,7112,271,78],[0,7107,7,3],[19,7038,273,70],[19,7036,14,3],[100,7034,11,6],[46,7033,4,3],[34,7032,8,3],[29,7031,4,3],[125,7025,26,8],[94,7022,6,3],[50,7021,15,6],[71,7019,17,4],[42,7018,4,3],[98,7017,4,3],[6,7013,5,3],[19,7000,270,19],[0,6995,7,3],[49,6901,11,3],[20,6900,264,96],[0,6895,7,3],[21,6794,262,102],[0,6789,7,3],[19,6724,281,66],[20,6701,275,25],[0,6696,7,3],[23,6687,246,10],[22,6601,268,88],[0,6595,7,3],[20,6584,13,3],[20,6486,271,110],[0,6481,7,3],[19,6400,272,82],[21,7961,256,39],[0,7957,7,3],[21,7858,276,100],[0,7853,7,3],[22,7775,274,79],[0,7770,7,3],[23,7747,100,3],[22,7687,273,84],[0,7682,7,3],[21,7609,262,74],[0,7603,7,3],[20,7528,277,76],[0,7522,7,3],[22,7508,35,3],[20,7412,269,111],[0,7406,7,3],[20,7395,254,12],[138,7392,4,3],[172,7376,22,6],[20,7375,278,22],[210,7374,9,3],[191,7372,16,4],[20,7354,99,3],[20,7328,273,46],[20,7286,275,44],[0,7281,7,3],[19,7200,265,82],[2,8783,3,3],[21,8759,271,41],[21,8720,267,41],[204,8718,8,4],[21,8707,261,13],[0,8702,7,3],[23,8676,89,3],[21,8615,279,88],[24,8615,5,3],[0,8610,7,3],[20,8516,269,95],[0,8511,7,3],[21,8443,276,69],[0,8438,7,3],[22,8352,276,87],[0,8347,7,3],[19,8275,276,73],[0,8270,7,3],[20,8176,275,95],[0,8170,7,3],[127,8164,98,7],[201,8160,19,6],[21,8156,86,3],[20,8069,272,93],[0,8065,7,3],[21,8000,264,66],[21,9518,266,82],[0,9513,7,3],[21,9445,269,69],[9,9441,5,3],[22,9438,278,9],[53,9435,16,5],[22,9418,249,19],[105,9417,3,3],[69,9415,16,4],[197,9414,11,3],[174,9412,14,4],[136,9408,24,6],[32,9405,13,5],[86,9401,30,6],[192,9400,7,3],[9,9395,3,3],[22,9379,284,23],[0,9374,7,3],[203,9350,18,4],[23,9294,253,81],[0,9289,7,3],[22,9205,267,85],[0,9200,7,3],[22,9116,268,85],[0,9111,7,3],[23,9023,5,3],[22,9021,269,91],[161,9019,11,4],[126,9014,30,7],[91,9013,6,3],[75,9010,15,5],[98,9006,16,6],[69,9004,8,4],[9,9000,3,3],[22,8988,282,18],[0,8982,7,3],[22,8904,283,79],[0,8899,7,3],[20,8815,260,85],[0,8810,7,3],[21,8800,277,11],[21,10319,264,81],[0,10313,7,3],[175,10251,59,3],[22,10223,274,91],[0,10218,7,3],[23,10144,267,75],[0,10140,7,3],[186,10079,15,3],[23,10069,210,72],[0,10064,7,3],[22,9967,264,98],[0,9962,7,3],[3,9921,6,3],[22,9876,281,87],[0,9871,7,3],[6,9854,7,4],[22,9793,272,79],[0,9788,7,3],[20,9698,267,91],[0,9693,7,3],[20,9609,272,85],[0,9604,7,3],[20,9600,235,5],[8,11198,4,2],[21,11176,278,24],[0,11171,7,3],[128,11093,11,3],[22,11092,258,80],[22,11069,259,25],[0,11064,7,3],[22,11055,271,10],[105,11053,9,3],[82,11052,20,5],[146,11049,15,5],[98,11048,8,3],[78,11047,6,3],[199,11046,5,3],[175,11043,18,5],[128,11040,19,5],[164,11039,9,3],[80,11036,15,5],[69,11035,9,3],[93,11032,22,5],[126,11028,13,6],[166,11024,17,6],[197,11021,15,5],[143,11017,25,6],[204,11016,3,3],[85,11015,9,3],[71,11012,9,5],[138,11011,5,3],[209,11008,11,4],[182,11007,15,6],[77,11005,10,4],[146,11003,19,4],[60,11002,8,3],[22,10998,19,6],[22,10994,45,3],[4,10994,3,3],[69,10991,211,9],[22,10919,268,74],[117,10918,5,3],[0,10914,7,3],[7,10895,5,3],[22,10818,284,97],[0,10812,7,3],[173,10795,67,3],[4,10795,4,3],[21,10703,267,110],[0,10698,7,3],[21,10607,268,92],[0,10602,7,3],[20,10559,142,3],[19,10505,269,98],[0,10497,8,5],[19,10416,274,83],[0,10411,7,3],[21,10400,236,12],[0,11998,7,2],[22,11917,278,82],[0,11912,7,3],[23,11910,37,3],[22,11832,269,81],[0,11827,7,3],[6,11775,5,3],[23,11761,33,3],[22,11750,270,78],[0,11745,7,3],[22,11731,273,15],[23,11715,261,18],[202,11711,17,6],[185,11710,4,3],[174,11708,7,4],[22,11706,7,3],[40,11704,21,6],[70,11702,12,4],[195,11701,5,3],[180,11700,6,3],[6,11695,5,3],[22,11692,255,10],[22,11678,257,16],[22,11617,269,63],[0,11612,7,3],[20,11519,272,94],[0,11514,7,3],[21,11470,20,3],[20,11436,275,79],[0,11431,7,4],[21,11422,234,10],[21,11346,272,78],[0,11341,7,3],[9,11339,3,3],[35,11334,9,3],[23,11332,224,9],[87,11327,27,7],[22,11323,15,6],[175,11322,7,3],[6,11318,3,3],[213,11315,9,3],[22,11306,264,18],[200,11304,11,4],[193,11303,5,3],[69,11302,12,3],[110,11301,4,3],[84,11297,15,6],[22,11293,30,6],[164,11291,11,4],[194,11290,4,3],[179,11289,4,3],[197,11284,26,7],[177,11283,4,3],[29,11282,8,3],[109,11281,5,3],[23,11280,4,3],[73,11279,3,3],[160,11278,5,3],[144,11277,4,3],[129,11272,32,7],[69,11271,4,3],[76,11270,4,3],[96,11267,13,5],[5,11261,4,3],[54,11204,14,4],[21,11203,270,66],[37,11200,19,5],[22,12795,245,5],[0,12788,7,3],[21,12721,276,68],[0,12716,7,3],[21,12619,280,98],[0,12614,7,3],[22,12585,29,3],[23,12546,18,3],[23,12542,36,3],[22,12519,275,96],[0,12514,7,3],[96,12415,9,3],[44,12415,16,6],[23,12415,17,3],[24,12411,5,3],[21,12410,268,105],[105,12410,5,3],[51,12410,27,3],[0,12405,7,3],[21,12308,269,98],[0,12303,7,3],[21,12268,274,36],[9,12262,4,3],[161,12206,12,3],[22,12206,276,64],[0,12201,7,3],[21,12098,282,104],[0,12093,7,3],[22,12002,275,92],[22,13551,276,49],[0,13546,7,3],[62,13465,7,3],[22,13464,275,83],[177,13462,20,4],[213,13461,11,3],[140,13460,13,3],[172,13459,4,3],[76,13456,14,5],[110,13455,6,3],[87,13453,17,4],[34,13451,12,4],[53,13450,13,3],[23,13448,13,4],[4,13440,9,3],[22,13438,276,12],[215,13436,5,3],[178,13436,11,3],[162,13436,14,3],[132,13436,5,3],[106,13436,5,3],[52,13436,29,3],[25,13436,5,3],[0,13430,7,3],[23,13355,277,76],[0,13350,7,3],[23,13343,61,3],[22,13340,260,11],[22,13323,262,19],[4,13316,5,3],[22,13313,249,12],[22,13257,284,58],[0,13252,7,3],[102,13179,10,3],[38,13179,10,3],[26,13176,9,6],[23,13170,268,83],[107,13170,5,3],[94,13170,3,3],[48,13170,47,12],[25,13170,5,3],[0,13165,7,3],[22,13094,278,72],[0,13090,7,3],[22,13017,273,74],[0,13012,7,3],[22,12888,279,125],[0,12883,7,3],[22,12800,279,84],[27,14393,11,3],[107,14385,5,3],[24,14385,247,15],[25,14385,5,3],[0,14380,7,3],[23,14362,254,19],[23,14319,277,45],[174,14272,11,3],[23,14271,276,50],[23,14271,149,5],[0,14267,7,3],[24,14171,273,97],[0,14166,7,3],[23,14078,270,89],[0,14072,7,3],[22,14012,269,61],[6,14008,5,3],[22,14005,225,9],[40,14001,21,6],[24,13997,18,6],[22,13949,263,50],[0,13945,3,3],[23,13938,253,13],[23,13930,230,10],[0,13925,7,4],[22,13829,9,3],[22,13827,268,99],[69,13825,13,4],[194,13820,27,7],[39,13816,29,6],[30,13815,4,3],[79,13813,8,4],[0,13808,3,3],[22,13803,271,12],[0,13798,7,3],[22,13717,261,82],[0,13711,7,3],[23,13676,268,36],[37,13671,32,7],[27,13670,7,3],[131,13666,15,6],[4,13660,5,3],[23,13624,281,46],[0,13619,7,3],[22,13600,270,20],[23,15181,249,19],[107,15181,5,3],[53,15181,29,3],[25,15181,5,3],[0,15176,7,3],[48,15095,18,3],[23,15094,271,83],[214,15090,5,3],[176,15090,11,3],[160,15090,14,3],[132,15090,5,3],[108,15090,5,3],[65,15090,18,3],[53,15090,11,3],[26,15090,5,3],[0,15085,7,3],[186,15061,24,3],[200,15036,5,3],[142,15036,18,3],[184,15024,33,3],[173,15022,3,3],[214,14992,5,3],[23,14992,276,94],[0,14988,7,3],[22,14900,275,89],[117,14897,3,3],[0,14896,7,3],[23,14825,273,72],[0,14820,7,3],[189,14808,3,3],[25,14772,269,49],[53,14770,18,4],[175,14769,5,3],[109,14764,9,4],[5,14760,3,3],[25,14756,271,15],[33,14752,22,6],[25,14717,260,37],[0,14709,10,5],[23,14644,278,66],[0,14638,7,3],[22,14544,271,95],[0,14538,7,3],[54,14498,36,3],[106,14460,5,3],[63,14460,18,3],[51,14460,11,3],[24,14460,5,3],[22,14459,263,80],[0,14452,8,5],[23,14400,266,54],[24,15983,267,17],[118,15979,3,3],[0,15978,7,3],[9,15976,6,3],[27,15975,37,3],[25,15945,258,33],[25,15936,279,11],[176,15934,13,4],[165,15932,10,4],[139,15931,7,3],[75,15927,12,4],[101,15926,17,7],[37,15925,5,3],[25,15924,6,3],[164,15923,12,3],[129,15921,16,4],[78,15918,17,5],[99,15917,10,3],[39,15912,16,7],[60,15911,11,6],[25,15908,12,5],[56,15907,7,3],[195,15902,29,7],[187,15901,4,3],[177,15900,4,3],[143,15898,4,3],[129,15895,3,3],[146,15894,29,8],[72,15893,7,3],[95,15890,15,5],[111,15889,8,3],[55,15887,9,4],[43,15885,4,3],[52,15884,4,3],[25,15883,15,6],[191,15881,16,4],[176,15879,12,4],[132,15874,33,7],[77,15870,23,6],[110,15869,11,3],[72,15868,8,6],[36,15866,7,3],[48,15865,6,3],[62,15864,9,6],[182,15861,15,5],[141,15860,12,3],[129,15859,10,3],[38,15858,8,3],[25,15857,12,3],[67,15856,4,3],[46,15854,13,4],[8,15850,3,3],[25,15845,282,11],[25,15791,265,56],[0,15786,7,3],[24,15707,261,80],[25,15678,261,33],[230,15674,3,3],[0,15673,7,3],[27,15665,57,3],[24,15581,271,93],[0,15575,7,3],[23,15484,272,92],[0,15479,7,3],[24,15408,277,72],[230,15406,3,3],[0,15403,7,3],[69,15400,184,4],[25,15396,25,6],[22,15395,5,3],[132,15391,5,3],[138,15390,3,3],[69,15389,17,8],[206,15388,22,3],[179,15386,5,3],[35,15383,14,7],[102,15380,14,5],[70,15379,26,5],[97,15378,8,3],[49,15375,19,5],[23,15373,15,4],[182,15371,27,4],[109,15370,5,3],[69,15367,6,5],[76,15365,24,6],[4,15359,4,3],[22,15275,275,92],[0,15270,7,3],[23,15200,267,71],[23,16778,271,22],[0,16772,7,3],[25,16764,269,9],[98,16694,13,3],[46,16694,4,3],[24,16694,16,3],[24,16690,269,76],[108,16690,5,3],[54,16690,29,3],[27,16690,5,3],[0,16682,12,5],[25,16634,10,3],[25,16631,266,53],[32,16626,23,7],[103,16624,18,4],[72,16623,4,3],[128,16621,4,3],[137,16620,18,5],[214,16619,7,3],[208,16618,4,3],[160,16615,13,5],[79,16610,28,7],[76,16609,5,3],[202,16607,6,4],[151,16606,11,3],[132,16605,8,3],[175,16604,12,3],[8,16599,5,3],[25,16555,273,51],[228,16549,5,3],[0,16546,8,5],[24,16541,91,3],[23,16467,277,81],[0,16461,7,3],[24,16376,275,86],[0,16369,7,3],[10,16291,5,3],[23,16289,274,81],[0,16282,7,3],[22,16202,271,81],[22,16189,268,15],[0,16183,7,3],[20,16092,37,3],[20,16081,281,103],[0,16075,7,3],[24,16000,253,76],[23,17572,269,28],[23,17539,266,35],[0,17534,7,3],[56,17502,12,3],[24,17456,280,79],[0,17451,7,3],[214,17356,5,3],[54,17356,11,3],[24,17356,276,96],[0,17351,7,3],[23,17333,261,19],[25,17329,15,6],[37,17325,17,6],[215,17324,7,3],[182,17323,13,3],[175,17322,6,3],[110,17321,6,3],[155,17319,5,3],[71,17318,24,5],[97,17316,13,4],[184,17315,9,3],[9,17310,5,3],[23,17224,276,93],[0,17217,7,3],[22,17127,39,3],[21,17116,273,102],[0,17110,7,3],[22,17071,268,40],[21,17020,83,3],[21,17002,281,71],[0,16995,7,3],[24,16907,268,89],[0,16900,7,3],[22,16838,269,63],[8,16834,6,3],[23,16830,233,10],[23,16823,260,9],[212,16821,11,3],[176,16820,11,5],[75,16815,31,7],[149,16814,15,3],[133,16812,14,4],[103,16810,16,4],[70,16809,8,3],[185,16806,30,5],[167,16805,10,3],[161,16804,5,3],[23,16800,273,6],[4,16800,5,2],[25,18329,281,71],[0,18324,7,4],[230,18255,3,3],[213,18241,5,3],[173,18241,10,3],[162,18241,10,3],[53,18241,11,3],[24,18241,257,84],[0,18235,7,3],[106,18141,5,3],[22,18141,272,95],[25,18141,5,3],[0,18135,7,3],[51,18044,11,3],[22,18044,273,92],[0,18038,7,3],[20,17951,274,88],[0,17946,7,3],[21,17883,271,64],[21,17879,98,3],[21,17847,257,38],[0,17842,7,3],[131,17788,8,3],[24,17787,12,3],[24,17785,275,58],[88,17782,21,5],[190,17781,6,3],[131,17779,7,3],[180,17777,6,3],[194,17775,5,3],[135,17774,25,9],[205,17773,8,3],[178,17772,3,3],[169,17771,4,3],[158,17770,10,3],[197,17769,11,3],[46,17766,23,5],[24,17765,13,3],[89,17762,12,5],[112,17761,6,3],[71,17760,5,3],[80,17758,11,4],[131,17757,5,3],[170,17756,7,3],[185,17751,21,7],[134,17747,19,6],[160,17746,9,6],[24,17744,23,4],[89,17740,26,6],[75,17737,10,5],[187,17736,4,3],[166,17734,4,3],[150,17733,12,5],[178,17732,13,3],[172,17731,4,3],[205,17727,19,6],[37,17722,33,7],[85,17720,4,3],[73,17719,7,5],[5,17711,3,3],[24,17706,284,15],[220,17702,4,3],[158,17701,32,7],[186,17699,13,4],[131,17687,4,3],[24,17686,251,15],[170,17677,8,3],[24,17676,270,12],[24,17673,134,3],[188,17670,24,8],[131,17668,12,3],[166,17665,4,3],[146,17664,24,8],[24,17628,268,38],[0,17623,7,3],[23,17600,267,24],[212,19188,5,3],[166,19187,11,3],[130,19187,5,3],[24,19186,245,14],[44,19186,19,3],[28,19186,5,3],[24,19186,3,3],[0,19181,7,3],[41,19161,28,12],[26,19085,274,97],[121,19082,5,3],[0,19080,7,3],[24,18984,280,97],[0,18978,7,3],[22,18876,265,103],[0,18871,7,3],[22,18791,274,81],[52,18785,15,3],[46,18785,4,3],[93,18780,8,3],[83,18780,5,3],[58,18780,13,3],[26,18780,14,3],[0,18770,6,3],[215,18768,5,3],[130,18768,137,28],[106,18768,5,3],[79,18768,10,3],[58,18768,17,3],[46,18768,10,3],[24,18768,5,3],[0,18763,7,3],[23,18719,269,45],[158,18718,5,3],[23,18710,248,10],[171,18709,7,3],[151,18707,15,4],[52,18704,13,5],[23,18703,10,5],[41,18702,14,3],[178,18699,12,5],[136,18697,15,4],[43,18693,26,6],[178,18692,5,3],[190,18690,12,4],[131,18687,5,3],[154,18686,22,6],[23,18683,21,5],[193,18679,33,6],[131,18675,128,6],[4,18675,3,3],[23,18671,88,7],[70,18667,24,6],[145,18665,8,4],[131,18664,3,3],[23,18652,270,14],[23,18623,272,31],[0,18618,7,3],[23,18529,275,90],[0,18523,7,3],[26,18494,275,30],[215,18493,7,3],[130,18489,41,3],[26,18489,103,3],[165,18472,5,3],[26,18434,277,61],[25,18421,266,15],[0,18415,7,3],[26,18400,275,16],[188,19973,13,3],[167,19973,14,3],[24,19960,266,40],[0,19954,7,3],[43,19934,15,3],[23,19934,18,3],[4,19878,4,3],[22,19860,270,95],[0,19855,7,3],[69,19841,200,15],[177,19839,18,4],[93,19834,22,7],[70,19831,24,7],[130,19829,15,4],[193,19826,30,5],[81,19823,4,3],[69,19822,3,3],[96,19821,13,7],[168,19819,8,4],[180,19816,11,4],[200,19814,26,7],[177,19813,5,3],[109,19808,7,3],[69,19807,36,8],[147,19803,25,6],[132,19801,18,4],[190,19799,12,4],[84,19796,14,4],[72,19795,9,6],[102,19792,12,5],[4,19788,4,3],[22,19773,263,21],[8,19767,5,3],[22,19698,277,77],[215,19693,5,3],[169,19693,11,3],[133,19693,5,3],[106,19693,5,3],[79,19693,10,3],[63,19693,13,3],[46,19693,14,3],[24,19693,5,3],[0,19690,9,6],[21,19605,280,86],[0,19598,7,3],[22,19536,263,63],[0,19531,7,3],[25,19525,251,7],[130,19520,16,4],[191,19519,29,8],[183,19518,4,3],[24,19514,89,3],[23,19439,266,81],[120,19439,3,3],[0,19437,7,3],[28,19435,112,3],[26,19429,44,3],[75,19426,190,11],[9,19422,3,3],[25,19379,266,49],[25,19359,273,22],[212,19358,10,3],[25,19345,113,3],[25,19332,147,3],[25,19322,15,3],[24,19301,265,59],[0,19295,7,3],[24,19200,272,96],[23,20729,267,71],[0,20723,7,3],[46,20719,65,5],[21,20643,260,80],[0,20637,7,3],[23,20618,263,20],[23,20614,105,3],[177,20548,69,3],[23,20512,276,109],[0,20507,7,3],[22,20423,258,85],[0,20418,7,3],[23,20309,253,110],[0,20303,7,3],[24,20284,74,3],[24,20218,264,86],[0,20213,7,3],[47,20110,14,3],[24,20109,267,105],[0,20104,7,3],[25,20099,37,6],[57,20098,4,3],[73,20096,15,4],[177,20095,6,3],[127,20092,21,5],[174,20091,6,3],[181,20088,18,5],[200,20086,20,6],[61,20085,12,3],[147,20078,27,9],[25,20073,21,7],[127,20070,12,5],[72,20069,9,3],[143,20068,18,6],[164,20066,12,3],[80,20065,16,5],[4,20060,3,3],[25,20050,268,17],[138,20049,8,3],[158,20048,5,3],[24,20000,272,50],[200,21598,6,2],[189,21596,7,4],[208,21595,14,3],[70,21593,12,4],[111,21592,5,3],[41,21589,13,5],[23,21588,14,3],[52,21585,18,5],[34,21584,10,3],[177,21579,8,3],[183,21578,44,8],[93,21575,19,5],[130,21574,4,3],[146,21570,33,6],[83,21567,13,5],[25,21565,7,4],[177,21564,6,3],[201,21563,5,3],[218,21562,5,3],[105,21560,12,4],[77,21554,31,8],[71,21553,10,3],[165,21550,14,3],[130,21548,31,7],[210,21546,10,3],[180,21542,21,8],[93,21541,12,3],[71,21537,21,6],[102,21536,14,6],[136,21535,13,3],[159,21534,6,3],[182,21531,23,5],[177,21530,4,3],[202,21527,22,5],[195,21526,5,3],[72,21523,18,5],[91,21521,17,4],[47,21517,15,6],[23,21513,19,6],[5,21508,3,3],[59,21472,8,3],[48,21472,9,3],[25,21472,22,3],[23,21428,295,87],[0,21422,7,3],[46,21405,67,8],[69,21386,26,5],[69,21380,23,3],[70,21376,21,3],[214,21357,5,3],[162,21357,26,3],[23,21356,248,67],[0,21350,7,3],[50,21347,54,3],[84,21340,7,3],[39,21338,15,3],[86,21333,4,3],[40,21333,12,3],[129,21327,133,24],[94,21323,3,3],[86,21323,5,3],[40,21322,31,3],[94,21316,3,3],[79,21309,5,3],[39,21306,18,3],[86,21295,6,3],[36,21294,37,9],[214,21237,5,3],[182,21237,12,3],[170,21237,10,3],[153,21237,14,3],[132,21237,5,3],[23,21237,255,92],[0,21232,7,3],[23,21151,262,82],[0,21146,7,3],[24,21104,272,43],[24,21093,270,13],[106,21091,11,4],[72,21090,12,3],[170,21089,4,3],[135,21088,13,3],[39,21087,5,3],[80,21085,14,4],[95,21084,9,3],[0,21080,3,3],[24,21073,285,13],[24,21065,270,10],[25,21061,130,3],[24,21031,250,36],[0,21026,7,3],[25,20954,266,73],[0,20947,7,3],[24,20847,275,101],[0,20841,7,3],[23,20800,250,42],[84,22397,32,3],[136,22394,95,6],[76,22393,4,3],[62,22393,10,3],[185,22388,9,3],[172,22388,8,3],[167,22388,4,3],[150,22388,15,3],[141,22388,7,3],[80,22387,9,3],[67,22387,8,3],[61,22387,4,3],[49,22387,11,3],[43,22387,4,3],[177,22382,4,3],[163,22382,10,3],[34,22381,22,3],[0,22376,7,3],[139,22369,67,5],[175,22364,28,4],[143,22364,30,4],[137,22321,81,35],[163,22316,10,3],[24,22310,103,67],[39,22310,7,3],[0,22303,7,3],[69,22301,94,3],[181,22297,36,3],[181,22292,42,3],[58,22288,13,3],[27,22288,30,4],[181,22286,8,3],[26,22286,154,18],[58,22282,44,3],[27,22282,15,3],[199,22276,24,3],[60,22276,10,3],[43,22276,14,4],[27,22276,13,3],[127,22275,45,11],[58,22270,13,3],[45,22270,11,4],[27,22270,17,3],[90,22262,10,3],[72,22262,15,7],[60,22262,10,6],[28,22262,17,3],[90,22256,9,5],[102,22255,14,5],[74,22255,12,3],[58,22255,15,6],[27,22255,29,4],[4,22253,6,4],[128,22249,39,8],[102,22249,17,5],[91,22249,8,3],[74,22249,13,3],[59,22249,14,5],[45,22249,11,4],[28,22249,16,3],[169,22248,9,3],[130,22242,14,3],[89,22242,11,3],[59,22242,28,3],[44,22242,12,3],[29,22242,14,3],[127,22241,119,34],[104,22241,12,6],[83,22237,19,3],[78,22237,4,3],[63,22237,12,3],[57,22237,5,3],[45,22237,3,3],[202,22236,8,3],[161,22236,40,7],[128,22236,18,4],[27,22236,15,4],[0,22227,7,3],[151,22215,41,3],[232,22206,3,3],[25,22164,141,64],[0,22161,7,3],[25,22096,288,66],[73,22095,7,3],[36,22091,20,6],[178,22089,7,3],[190,22088,28,5],[162,22087,10,3],[126,22085,6,3],[136,22084,9,5],[87,22083,4,3],[60,22082,11,3],[26,22081,4,3],[90,22079,10,3],[102,22078,20,5],[185,22077,4,3],[214,22076,4,3],[173,22075,7,3],[140,22073,14,4],[153,22070,19,5],[126,22068,15,4],[34,22067,16,3],[114,22066,4,3],[26,22065,7,3],[56,22063,7,4],[73,22062,8,3],[212,22061,7,3],[193,22060,5,3],[176,22059,6,3],[134,22058,4,3],[165,22057,9,3],[126,22053,10,3],[137,22052,19,7],[26,22046,31,8],[105,22043,12,3],[62,22042,26,6],[86,22039,22,5],[201,22036,18,5],[173,22033,4,3],[180,22031,24,7],[157,22030,4,3],[51,22026,21,6],[82,22024,25,7],[108,22022,11,4],[48,22021,4,3],[67,22020,4,3],[173,22019,3,3],[177,22018,9,3],[198,22013,15,7],[183,22012,10,5],[128,22010,11,4],[52,22009,10,3],[106,22007,12,4],[73,22006,6,3],[26,22005,8,3],[67,22004,4,3],[59,22003,6,3],[4,21998,3,3],[25,21965,294,40],[0,21960,7,3],[211,21884,5,3],[128,21884,4,3],[106,21884,5,3],[22,21884,275,77],[24,21884,5,3],[0,21879,7,3],[22,21855,271,25],[182,21854,8,3],[69,21850,210,6],[22,21845,28,7],[49,21842,19,5],[187,21840,10,4],[206,21839,8,3],[104,21836,11,5],[69,21833,19,5],[42,21832,4,3],[136,21830,9,4],[22,21828,17,4],[143,21826,12,4],[129,21825,4,3],[34,21823,10,4],[192,21817,31,8],[176,21816,11,3],[79,21814,12,4],[101,21812,14,4],[45,21810,25,4],[133,21807,3,3],[153,21806,25,6],[186,21805,7,3],[69,21800,12,7],[90,21799,13,7],[135,21798,17,3],[167,21796,4,3],[22,21794,12,6],[148,21790,28,6],[129,21789,7,3],[3,21784,3,3],[22,21731,291,60],[0,21727,7,3],[24,21644,270,84],[0,21637,7,3],[160,21621,17,4],[25,21620,252,18],[177,21618,8,3],[191,21613,32,9],[97,21612,4,3],[107,21611,12,3],[88,21608,11,5],[23,21606,18,6],[70,21604,23,6],[177,21603,17,3],[205,21600,5,2],[145,21600,16,5],[0,23151,7,2],[62,23149,8,3],[46,23147,5,3],[15,23147,9,4],[84,23129,12,4],[91,23076,3,3],[37,23068,5,4],[58,23066,4,3],[0,23065,7,3],[176,23062,6,3],[110,23061,5,3],[78,23061,29,3],[63,23061,7,8],[26,23061,30,3],[70,23056,49,3],[63,23056,5,3],[31,23056,17,3],[135,23053,98,10],[23,23048,30,7],[70,23044,18,6],[89,23042,26,6],[180,23039,24,5],[172,23038,7,3],[86,23033,4,3],[10,23029,3,3],[22,22985,230,55],[131,22953,116,71],[23,22953,104,31],[0,22947,7,3],[130,22926,104,22],[23,22923,103,24],[180,22921,5,3],[207,22920,13,5],[110,22916,6,6],[73,22916,34,5],[23,22859,105,10],[9,22859,4,3],[23,22858,221,62],[0,22853,7,3],[20,22840,110,14],[132,22839,5,3],[170,22828,5,8],[130,22828,109,26],[23,22828,101,8],[128,22766,109,71],[20,22765,106,61],[0,22760,7,3],[5,22740,7,3],[21,22702,218,59],[21,22691,110,10],[218,22686,5,15],[81,22682,10,3],[74,22682,5,3],[46,22682,14,3],[34,22682,7,3],[177,22680,56,5],[171,22680,4,6],[130,22680,79,24],[0,22675,7,3],[24,22587,107,89],[94,22582,14,3],[24,22574,99,11],[60,22565,14,3],[48,22565,7,3],[130,22561,101,48],[9,22556,5,3],[0,22554,7,3],[200,22546,14,9],[0,22541,4,3],[136,22519,86,36],[173,22512,21,3],[151,22512,20,3],[143,22512,7,3],[36,22507,93,31],[0,22501,7,3],[71,22495,41,7],[4,22495,3,3],[136,22492,91,6],[177,22490,22,4],[136,22484,94,5],[34,22481,101,11],[103,22479,5,3],[59,22473,39,10],[55,22472,7,3],[175,22470,10,3],[144,22468,12,6],[138,22466,8,4],[67,22465,9,3],[49,22464,7,3],[81,22461,9,5],[57,22460,12,5],[96,22459,8,3],[35,22455,17,6],[183,22451,28,6],[156,22448,13,5],[44,22446,14,6],[88,22441,24,7],[4,22436,3,3],[34,22400,205,43]],
	"pngs":[
		["pngs/txt/ARC-MUND-PUB-PO-TRAITE-DOC.00000.png","pngs/opencv/ARC-MUND-PUB-PO-TRAITE-DOC.00000.png"],
		["pngs/txt/ARC-MUND-PUB-PO-TRAITE-DOC.00001.png","pngs/opencv/ARC-MUND-PUB-PO-TRAITE-DOC.00001.png"],
		["pngs/txt/ARC-MUND-PUB-PO-TRAITE-DOC.00002.png","pngs/opencv/ARC-MUND-PUB-PO-TRAITE-DOC.00002.png"],
		["pngs/txt/ARC-MUND-PUB-PO-TRAITE-DOC.00003.png","pngs/opencv/ARC-MUND-PUB-PO-TRAITE-DOC.00003.png"],
		["pngs/txt/ARC-MUND-PUB-PO-TRAITE-DOC.00004.png","pngs/opencv/ARC-MUND-PUB-PO-TRAITE-DOC.00004.png"],
		["pngs/txt/ARC-MUND-PUB-PO-TRAITE-DOC.00005.png","pngs/opencv/ARC-MUND-PUB-PO-TRAITE-DOC.00005.png"],
		["pngs/txt/ARC-MUND-PUB-PO-TRAITE-DOC.00006.png","pngs/opencv/ARC-MUND-PUB-PO-TRAITE-DOC.00006.png"],
		["pngs/txt/ARC-MUND-PUB-PO-TRAITE-DOC.00007.png","pngs/opencv/ARC-MUND-PUB-PO-TRAITE-DOC.00007.png"],
		["pngs/txt/ARC-MUND-PUB-PO-TRAITE-DOC.00008.png","pngs/opencv/ARC-MUND-PUB-PO-TRAITE-DOC.00008.png"],
		["pngs/txt/ARC-MUND-PUB-PO-TRAITE-DOC.00009.png","pngs/opencv/ARC-MUND-PUB-PO-TRAITE-DOC.00009.png"],
		["pngs/txt/ARC-MUND-PUB-PO-TRAITE-DOC.00010.png","pngs/opencv/ARC-MUND-PUB-PO-TRAITE-DOC.00010.png"],
		["pngs/txt/ARC-MUND-PUB-PO-TRAITE-DOC.00011.png","pngs/opencv/ARC-MUND-PUB-PO-TRAITE-DOC.00011.png"],
		["pngs/txt/ARC-MUND-PUB-PO-TRAITE-DOC.00012.png","pngs/opencv/ARC-MUND-PUB-PO-TRAITE-DOC.00012.png"],
		["pngs/txt/ARC-MUND-PUB-PO-TRAITE-DOC.00013.png","pngs/opencv/ARC-MUND-PUB-PO-TRAITE-DOC.00013.png"],
		["pngs/txt/ARC-MUND-PUB-PO-TRAITE-DOC.00014.png","pngs/opencv/ARC-MUND-PUB-PO-TRAITE-DOC.00014.png"],
		["pngs/txt/ARC-MUND-PUB-PO-TRAITE-DOC.00015.png","pngs/opencv/ARC-MUND-PUB-PO-TRAITE-DOC.00015.png"],
		["pngs/txt/ARC-MUND-PUB-PO-TRAITE-DOC.00016.png","pngs/opencv/ARC-MUND-PUB-PO-TRAITE-DOC.00016.png"],
		["pngs/txt/ARC-MUND-PUB-PO-TRAITE-DOC.00017.png","pngs/opencv/ARC-MUND-PUB-PO-TRAITE-DOC.00017.png"],
		["pngs/txt/ARC-MUND-PUB-PO-TRAITE-DOC.00018.png","pngs/opencv/ARC-MUND-PUB-PO-TRAITE-DOC.00018.png"],
		["pngs/txt/ARC-MUND-PUB-PO-TRAITE-DOC.00019.png","pngs/opencv/ARC-MUND-PUB-PO-TRAITE-DOC.00019.png"],
		["pngs/txt/ARC-MUND-PUB-PO-TRAITE-DOC.00020.png","pngs/opencv/ARC-MUND-PUB-PO-TRAITE-DOC.00020.png"],
		["pngs/txt/ARC-MUND-PUB-PO-TRAITE-DOC.00021.png","pngs/opencv/ARC-MUND-PUB-PO-TRAITE-DOC.00021.png"],
		["pngs/txt/ARC-MUND-PUB-PO-TRAITE-DOC.00022.png","pngs/opencv/ARC-MUND-PUB-PO-TRAITE-DOC.00022.png"],
		["pngs/txt/ARC-MUND-PUB-PO-TRAITE-DOC.00023.png","pngs/opencv/ARC-MUND-PUB-PO-TRAITE-DOC.00023.png"],
		["pngs/txt/ARC-MUND-PUB-PO-TRAITE-DOC.00024.png","pngs/opencv/ARC-MUND-PUB-PO-TRAITE-DOC.00024.png"],
		["pngs/txt/ARC-MUND-PUB-PO-TRAITE-DOC.00025.png","pngs/opencv/ARC-MUND-PUB-PO-TRAITE-DOC.00025.png"],
		["pngs/txt/ARC-MUND-PUB-PO-TRAITE-DOC.00026.png","pngs/opencv/ARC-MUND-PUB-PO-TRAITE-DOC.00026.png"],
		["pngs/txt/ARC-MUND-PUB-PO-TRAITE-DOC.00027.png","pngs/opencv/ARC-MUND-PUB-PO-TRAITE-DOC.00027.png"],
		["pngs/txt/ARC-MUND-PUB-PO-TRAITE-DOC.00028.png","pngs/opencv/ARC-MUND-PUB-PO-TRAITE-DOC.00028.png"]
	]
}