{
	"name": "ARC-MUND-PUB-IIB-9",
	"blobs":[[23,780,77,20],[14,728,79,45],[21,677,81,44],[15,624,80,46],[22,573,82,43],[16,522,81,43],[22,465,79,49],[16,414,81,43],[76,406,4,3],[22,364,81,43],[16,329,79,27],[33,321,14,3],[17,202,72,16],[34,197,20,3],[19,96,8,3],[28,95,38,6],[21,72,27,3],[15,61,25,3],[78,52,3,3],[20,49,47,6],[28,45,4,3],[15,26,3,3],[21,15,68,26],[92,1585,4,3],[41,1497,8,3],[3,1491,4,4],[16,1471,78,12],[16,1450,83,20],[2,1425,6,5],[22,1416,81,26],[2,1414,5,4],[80,1409,3,3],[27,1406,29,5],[27,1392,61,7],[39,1388,33,3],[0,1377,78,3],[92,1376,3,3],[2,1364,3,3],[93,1346,3,3],[3,1323,3,3],[15,1314,82,53],[23,1264,78,45],[0,1254,16,3],[92,1248,5,8],[93,1243,3,3],[93,1224,4,3],[3,1222,3,6],[93,1218,4,5],[14,1201,81,47],[92,1192,3,3],[23,1148,82,45],[10,1135,3,3],[92,1133,4,7],[40,1125,8,4],[59,1121,3,3],[94,1120,3,3],[2,1117,7,5],[93,1115,3,3],[9,1110,4,5],[26,1105,31,19],[78,1104,5,4],[90,1103,7,8],[12,1102,10,4],[33,1101,44,3],[42,1096,3,3],[83,1088,3,3],[93,1087,3,3],[19,1077,63,10],[1,1073,3,3],[92,1072,5,11],[65,1071,3,3],[76,1070,3,3],[1,1069,3,3],[4,1060,4,5],[2,1052,5,7],[2,1041,5,8],[4,1032,3,3],[23,1013,80,57],[94,1002,3,3],[69,1001,14,3],[0,1001,16,4],[69,989,3,3],[92,971,3,7],[92,943,3,3],[14,941,82,50],[8,934,3,3],[23,887,83,48],[91,876,5,4],[42,875,7,3],[92,832,3,3],[14,832,82,41],[36,800,55,25],[18,2377,81,23],[19,2377,4,3],[48,2361,8,3],[4,2360,8,10],[5,2356,3,3],[26,2331,4,5],[86,2320,3,4],[26,2319,79,43],[25,2319,4,3],[23,2315,29,3],[3,2283,3,5],[18,2263,94,45],[4,2234,4,9],[26,2213,89,43],[21,2203,5,3],[3,2175,3,13],[18,2159,92,47],[24,2128,93,24],[27,2107,69,20],[3,2080,3,3],[18,2064,4,3],[18,2056,4,5],[18,2052,97,48],[18,2052,5,3],[23,2004,92,40],[70,1994,3,3],[21,1979,5,5],[21,1962,5,3],[16,1950,93,46],[3,1940,3,3],[2,1907,5,4],[29,1906,5,6],[1,1900,5,5],[26,1894,94,50],[15,1844,93,43],[50,1843,3,3],[46,1843,3,3],[20,1772,72,57],[0,1760,6,4],[48,1728,3,3],[17,1715,49,16],[36,1707,9,3],[2,1685,6,5],[92,1640,4,7],[3,1634,3,4],[40,1610,12,3],[25,1610,7,3],[92,1608,6,5],[93,1600,4,2],[20,3163,66,37],[5,3143,3,3],[5,3134,3,3],[30,3101,61,56],[1,3091,4,3],[3,3057,3,4],[21,3025,88,54],[92,3019,4,3],[36,3018,3,3],[2,3017,5,4],[31,3012,6,4],[25,3004,71,14],[2,2996,4,5],[28,2974,64,28],[2,2955,4,4],[19,2926,4,3],[16,2916,98,50],[2,2877,3,3],[28,2862,96,46],[70,2851,3,3],[57,2848,9,3],[18,2807,91,46],[2,2769,4,7],[25,2756,92,43],[1,2746,4,3],[93,2743,3,3],[92,2735,3,4],[92,2728,4,6],[92,2713,3,4],[92,2702,3,3],[92,2695,3,5],[18,2692,71,45],[25,2645,65,40],[93,2633,4,5],[93,2621,3,3],[22,2618,5,7],[92,2596,3,8],[18,2586,4,3],[59,2580,9,3],[44,2580,8,3],[16,2580,98,45],[3,2558,5,4],[25,2535,77,38],[13,2526,3,3],[18,2487,81,40],[4,2475,4,3],[3,2467,4,6],[26,2437,91,43],[26,2437,4,3],[48,2431,22,5],[23,2431,20,5],[18,2400,62,24],[81,3991,4,3],[15,3960,67,40],[24,3902,72,52],[15,3845,72,51],[24,3814,67,24],[4,3814,4,6],[4,3805,3,6],[4,3793,4,4],[24,3785,70,36],[1,3781,3,3],[1,3774,7,6],[1,3765,6,7],[24,3763,63,26],[0,3753,3,3],[92,3738,3,3],[92,3733,3,3],[92,3726,3,3],[91,3689,9,24],[16,3688,71,54],[5,3652,3,3],[5,3625,3,6],[23,3604,71,76],[0,3593,3,3],[92,3577,3,4],[92,3573,3,3],[92,3557,4,13],[93,3553,3,3],[92,3547,3,3],[93,3541,3,4],[93,3531,3,5],[17,3531,70,51],[93,3520,3,5],[49,3515,8,6],[23,3479,76,19],[1,3458,3,3],[24,3411,23,3],[93,3408,3,5],[92,3390,3,5],[92,3385,3,4],[92,3381,4,3],[49,3375,8,3],[2,3369,6,17],[2,3359,6,8],[62,3347,10,5],[2,3346,4,3],[25,3341,5,14],[1,3336,3,3],[28,3329,90,25],[2,3329,4,4],[22,3318,5,3],[19,3279,87,43],[1,3271,5,3],[2,3251,4,3],[31,3223,36,49],[26,3200,36,17],[34,4501,5,3],[63,4500,3,3],[5,4500,3,3],[42,4498,11,8],[87,4496,3,3],[57,4496,4,4],[75,4495,8,4],[4,4478,5,3],[4,4410,3,3],[70,4398,3,3],[91,4388,4,8],[92,4364,3,3],[92,4359,3,3],[15,4346,72,47],[89,4338,7,14],[3,4319,4,3],[27,4281,68,58],[16,4222,69,52],[23,4164,67,51],[16,4104,69,53],[44,4095,4,3],[35,4095,8,3],[17,4095,3,3],[24,4094,5,3],[23,4031,66,52],[41,4020,9,4],[15,4000,70,22]],
	"pngs":[
		["pngs/txt/ARC-MUND-PUB-IIB-9.00000.png","pngs/opencv/ARC-MUND-PUB-IIB-9.00000.png"],
		["pngs/txt/ARC-MUND-PUB-IIB-9.00001.png","pngs/opencv/ARC-MUND-PUB-IIB-9.00001.png"],
		["pngs/txt/ARC-MUND-PUB-IIB-9.00002.png","pngs/opencv/ARC-MUND-PUB-IIB-9.00002.png"],
		["pngs/txt/ARC-MUND-PUB-IIB-9.00003.png","pngs/opencv/ARC-MUND-PUB-IIB-9.00003.png"],
		["pngs/txt/ARC-MUND-PUB-IIB-9.00004.png","pngs/opencv/ARC-MUND-PUB-IIB-9.00004.png"],
		["pngs/txt/ARC-MUND-PUB-IIB-9.00005.png","pngs/opencv/ARC-MUND-PUB-IIB-9.00005.png"]
	]
}