{
	"name": "ARC-MUND-PUB-IIB-38",
	"blobs":[[41,798,3,2],[31,750,70,41],[15,714,74,29],[18,709,40,4],[15,706,12,3],[4,694,6,3],[31,636,75,50],[17,585,76,44],[63,582,6,3],[17,465,59,23],[26,362,46,6],[39,336,11,3],[27,336,6,3],[33,328,14,3],[16,319,24,3],[40,314,5,3],[26,222,4,3],[24,213,47,7],[37,191,11,3],[26,191,6,3],[32,184,14,3],[46,173,4,4],[39,171,4,3],[15,1592,67,8],[36,1571,87,14],[61,1563,3,3],[96,1558,5,3],[82,1554,5,3],[35,1535,68,10],[14,1486,78,42],[22,1462,4,3],[32,1440,75,39],[14,1385,72,48],[33,1339,70,39],[14,1290,74,42],[32,1241,46,42],[15,1194,74,40],[4,1191,4,4],[21,1155,3,3],[33,1147,71,41],[74,1137,8,3],[14,1091,75,40],[31,1044,76,40],[14,996,74,41],[34,947,65,42],[19,897,46,42],[24,874,5,4],[33,847,67,42],[14,800,73,40],[53,2371,21,3],[1,2356,3,3],[0,2341,5,5],[14,2323,70,22],[36,2304,67,11],[61,2298,3,3],[32,2289,79,6],[35,2268,68,13],[14,2231,69,30],[82,2115,4,3],[13,2095,71,36],[34,2044,71,44],[13,1998,74,39],[34,1952,75,39],[72,1939,3,3],[8,1912,3,3],[14,1893,70,41],[33,1845,71,41],[14,1791,71,47],[33,1746,70,38],[14,1707,71,32],[15,1703,8,3],[33,1642,78,39],[1,1620,3,3],[14,1600,75,35],[70,3191,6,3],[62,3174,8,3],[55,3170,7,3],[14,3169,53,31],[40,3168,4,3],[37,3130,50,30],[37,3115,42,14],[13,3105,3,3],[49,3072,7,3],[13,3056,43,45],[37,3011,68,38],[14,2966,42,38],[36,2934,46,25],[36,2912,66,21],[73,2907,38,3],[13,2889,67,17],[13,2876,61,12],[13,2864,65,11],[88,2854,7,3],[36,2828,62,23],[32,2825,3,3],[36,2821,61,6],[39,2806,50,14],[14,2779,55,20],[73,2769,4,3],[17,2767,32,11],[40,2766,4,3],[35,2732,67,27],[36,2717,64,15],[15,2705,63,5],[15,2688,42,13],[8,2681,3,3],[15,2676,55,11],[15,2664,73,11],[35,2625,70,32],[38,2616,52,8],[64,2595,3,3],[14,2572,24,37],[41,2571,4,3],[73,2561,3,3],[36,2540,68,23],[64,2536,25,3],[39,2536,24,3],[35,2521,67,14],[14,2485,85,28],[21,2479,45,4],[30,2475,21,3],[58,3798,67,7],[45,3798,8,4],[1,3788,4,3],[35,3705,5,3],[57,3677,66,8],[39,3677,12,8],[124,3675,2,3],[1,3669,4,3],[54,3586,4,3],[57,3578,61,7],[44,3578,12,4],[14,3480,72,7],[32,3477,8,3],[37,3434,66,18],[52,3424,18,3],[21,3385,58,41],[37,3339,71,39],[13,3321,8,7],[50,3301,4,3],[14,3298,72,31],[14,3287,30,10],[55,3274,3,3],[37,3257,53,15],[36,3242,60,14],[37,3230,27,10],[79,3216,4,4],[54,3208,18,3],[17,3200,26,10]],
	"pngs":[
		["pngs/txt/ARC-MUND-PUB-IIB-38.00000.png","pngs/opencv/ARC-MUND-PUB-IIB-38.00000.png"],
		["pngs/txt/ARC-MUND-PUB-IIB-38.00001.png","pngs/opencv/ARC-MUND-PUB-IIB-38.00001.png"],
		["pngs/txt/ARC-MUND-PUB-IIB-38.00002.png","pngs/opencv/ARC-MUND-PUB-IIB-38.00002.png"],
		["pngs/txt/ARC-MUND-PUB-IIB-38.00003.png","pngs/opencv/ARC-MUND-PUB-IIB-38.00003.png"],
		["pngs/txt/ARC-MUND-PUB-IIB-38.00004.png","pngs/opencv/ARC-MUND-PUB-IIB-38.00004.png"]
	]
}