{
	"name": "ARC-MUND-PUB-UAI-CONGRES-OFFICE-INT-TRAVAIL-1910",
	"blobs":[[109,408,78,29],[25,407,76,45],[109,344,79,42],[25,344,76,42],[110,282,78,42],[24,282,84,42],[110,221,75,40],[23,219,75,42],[24,156,77,42],[111,154,77,44],[110,92,78,41],[24,91,78,42],[20,55,76,13],[26,48,46,5],[20,40,61,6],[24,27,54,10],[35,27,9,3],[80,19,5,3],[70,19,7,3],[15,19,19,6]],
	"pngs":[
		["pngs/txt/ARC-MUND-PUB-UAI-CONGRES-OFFICE-INT-TRAVAIL-1910.00000.png","pngs/opencv/ARC-MUND-PUB-UAI-CONGRES-OFFICE-INT-TRAVAIL-1910.00000.png"]
	]
}