{
	"name": "ARC-MUND-PUB-BULLETIN-IIB-103-CONF-INT-BIBLIO-DOC-1908",
	"blobs":[[27,781,72,19],[116,728,76,34],[125,720,49,7],[143,714,10,3],[26,714,81,23],[26,658,79,37],[39,653,42,3],[62,649,5,3],[52,649,7,3],[117,645,80,50],[54,644,10,3],[102,636,3,3],[26,582,79,44],[114,581,80,42],[25,511,170,50],[113,444,79,47],[25,442,82,49],[27,377,80,45],[114,376,81,46],[113,311,79,45],[25,311,80,45],[27,244,79,45],[114,242,78,46],[112,177,78,45],[26,177,79,44],[114,125,95,29],[128,120,38,3],[120,113,48,4],[21,70,56,10],[37,60,38,3],[56,51,15,3],[24,51,14,3],[47,49,8,5],[17,45,15,3],[28,40,41,8],[79,19,8,6],[19,19,121,18],[27,800,74,9]],
	"pngs":[
		["pngs/txt/ARC-MUND-PUB-BULLETIN-IIB-103-CONF-INT-BIBLIO-DOC-1908.00000.png","pngs/opencv/ARC-MUND-PUB-BULLETIN-IIB-103-CONF-INT-BIBLIO-DOC-1908.00000.png"],
		["pngs/txt/ARC-MUND-PUB-BULLETIN-IIB-103-CONF-INT-BIBLIO-DOC-1908.00001.png","pngs/opencv/ARC-MUND-PUB-BULLETIN-IIB-103-CONF-INT-BIBLIO-DOC-1908.00001.png"]
	]
}