{
	"name": "ARC-MUND-PUB-PO-OBLIGATIONS-PORTEURS",
	"blobs":[[0,0,171,99]],
	"pngs":[
		["pngs/txt/ARC-MUND-PUB-PO-OBLIGATIONS-PORTEURS.00000.png","pngs/opencv/ARC-MUND-PUB-PO-OBLIGATIONS-PORTEURS.00000.png"]
	]
}