



















                E p r e u v e s                                        FASC.     21.


                       1910-05-3.




                                    CONGRÈS          MONDIAL

                                                  DES

                         ASSOCIATIONS             INTERNATIONALES


                                       B R U X E L L E S ,  9-11  M A I  1910





                     L'Association         internationale       pour    la  pro-

                         tection    légale   des   travailleurs     et  l'Office
                         international       du   travail.




                           Origines,  organisation  et  développements,

                                       méthodes   et  résultats.




                        Nous  entendons  par  protection  ouvrière  toute  action  de  l'Etat,
                     des  communes   et  de  corporations,  qui  tend  à  garantir  aux
                     salariés  des  chances plus  fortes  de  développement  de leurs  capa-
                     cités  individuelles,  au  triple  point  de  vue  de  la  justice,  de
                     l'hygiène  et  de la  sécurité  économique.  Elle forme ainsi le point
                     de  départ  de la participation progressive  des  masses  travailleuses
                     à  la  productivité  croissante  du  système  industriel ;  elle  prépare
                     non  seulement  les  conditions  qui  les  mettent  en  état  d'appré-
                     cier  les  créations  de  la  pensée  et  de  l'art,  mais  elle  augmente
                     aussi  leur  responsabilité  en  qualité  de  citoyens,  de  parents,
                     d'époux,  de  producteurs.  La  protection  forme  ainsi  la  pierre

























                                                   —  2  —
                         angulaire  de  la réforme  sociale  en  général.  En  effet,  si  tous  les           rition  de  l'apprentissage  de  la  fabrique,  son  remplacement  par
                         producteurs  et  tous  les  consommateurs  travaillaient à une  har-                  l'enfant  ouvrier non  qualifié  rendit  cette  première  loi  illusoire.
                         monie  aussi  complète  que  possible  de  tous  les  intérêts,  aucun                   C'est  dans  ces  conditions  que  le  propriétaire  de  l'établisse-
                         souci  ne  leur  serait  plus  cher  que  celui de  conserver  la  capacité           ment  modèle  de  New-Lanark,  Robert  Owen,  proclama  la  néces-
                         productive  humaine.                                                                  sité  de  la  protection  nationale  des  travailleurs.  I l  exposa  ses
                           Mais  dans  aucun  pays cette  harmonie  ne  s'est établie jusqu'ici                idées  dans  une  réunion  des  fabricants  de  coton  en  1815. Elles
                         sans l'intervention  des  pouvoirs  publics.  Partout,  des  mesures                  aboutissaient  à  la  demande d'une  loi  de  protection  des  enfants
                         spéciales  concernant  le  régime  du  travail  dans  les  mines,  dans               et  des  adultes;  limitation  de  l'âge  d'admission  des  enfants;
                         les  usines,  les  ateliers,  les  bureaux,  les entreprises  de  transport,          limitation  à  douze  heures  du  travail  des  adultes;  minimum
                         sont  devenues  nécessaires  depuis  plus  d'un  siècle.  Partout,  ces               d'instruction  primaire  obligatoire pour  tous  les  enfants,  ensei-
                         mesures  de  protection  ont  suivi  de  près  l'essor  du  machinisme                gnement   ménager  pour  les  jeunes  filles  comme  condition  de
                         industriel  et  des  moyens  de  transport.                                           leur  admission  dans  une  fabrique.
                           Les  premières  tentatives  de  protection légale  nationale  eurent                   Owen  demande,  en outre,  de l'Etat  l'institution  d'un  système
                         presque  immédiatement  leur  répercussion  dans  le  domaine                         national  d'éducation  des  caractères,  l'exécution  des  travaux
                         international.                                                                        publics,  pendant  les  périodes  de  crise  dans  l'industrie  coton-
                           Leur  histoire  et  l'évolution  de  leurs  influences  réciproques                 niére;  la  présentation  de  la  part  des  fabricants  de  rapports  tri-
                         prouvera  que  la  protection  internationale  n'a  jamais  été  que  la              mestriels  sur  le  nombre  des  ouvriers,  sur  les salaires et  les  sans-
                         conséquence  naturelle  de  l'intervention nationale  en  matière  de                 travail ;  la limitation  des  licences  de  vendre  des  boissons.
                                                                                                                      ER
                         travail.                                                                                 Le  1  janvier  1816  Owen  inaugurait  l'école  gardienne  et  la
                                                                                                               Maison  du  peuple  de  sa  fabrique.  I l  prononça  à  cette  occasion
                                                                                                                                       i
                                 I .  —  LES  PREMIERS  RÉFORMISTES  (1816-1848).                              un  discours  dans  lequel l déclara  à  ses  ouvriers  qu'il  fera  de  la
                                                                                                               propagande   en  faveur  d'une  loi  semblable.  Et  après  avoir
                                                                                                                                                                          i
                           C'est  en  Angleterre  que  l'idée  de  la  protection  ouvrière,                   énuméré  toutes  les  mesures  de  protection qu'il  revendiquait, l
                         dans  l'acceptation  moderne  du  terme,  s'est  manifestée  pour  la                 ajoute  que  les  bienfaits  d'une  loi protectrice  ne  doivent  pas  être
                         première  fois.  En  1802,  ce  pays  introduisait,  en  effet,  la  pre-             limités  à  un  seul  pays.
                         mière  loi  protectrice  des  ouvriers  au  nom  de  la  morale  et  de                  En  effet,  six  mois  plus  tard,  le  14  juin  1816,  M.  George
                         l'hygiène  publiques.  Elle  imposait  des  mesures  spéciales  qui                   Âugustus  Lee,  de  Manchester,  déclara  à la  Commission  qui étu-
                         concernaient  tout  d'abord  la  protection  des  enfants  contre  le                 diait  l'effet  d'une  loi  semblable,  que  l'émigration  des  capitaux
                         surmenage,  l'ignorance  et  la dégénération  menaçante  : journée                    et  des  ouvriers  en  serait  la  conséquence  inéluctable.  Ces  argu-
                         maxima   de  travail  de  douze  heures  pour  les  apprentis  de                     ments  menaçant  le  projet  de  loi,  une  action  internationale
                         fabrique,  interdiction du  travail  de  nuit,  instruction obligatoire               semblait  s'imposer.  En  1818,  Owen  [se rendit  sur  le  continent
                         des  enfants  jusqu'à  un  certain âge.                                               pour  préparer  ainsi  l'adoption  de  la loi britannique  de  protec-
                                                                                                                                              i
                            Malheureusement  les  premières mesures de protection ouvrière                     tion  de l'enfance,  pour  laquelle l avait  tant  travaillé.
                         en  Grand-Bretagne  n'eurent  qu'une  existence  éphémère;  elles                        Owen  fit  la  connaissance  de  de  Sismondi,  chez  .M m e  de  Staël,
                         étaient condamnées  d'avance  à  une  mort  naturelle,  car  la  dispa-               par  l'intermédiaire  de  l'homme  d'État  genevois  Charles  Pictet























                                                                                                                                          —   5  —

                         de  Rpchemont,  qui  fui l'envoyé  plénipotentiaire  de la Suisse  aux                 père, l fut  un  grand  filateur,  établi  dans  le Steintal,  en  Alsace.
                                                                                                                     i
                         Congrès  de  Vienne  et  de  Paris.  Owen  réussit  à convertir de  Sis-                 La  révolution  de juillet  (1830)  lui démontra  la  nécessité  de
                         mondi  et  ses  idées,  et  celui-ci  fut  le  premier  à  critiquer dans              l'intervention  de  l'État  dans  les  questions  ouvrières,  et  il  s'in-
                         ses  nouveaux  principes  de  l'économie  politique,  la  prolétarisa-                 spira  de  la loi  anglaise  de  1833  sur  les  fabriques  pour  faire  des
                          tion  croissante  provoquée  par  la  révolution  industrielle.                       démarches  en  faveur  de  l'introduction  d'une  loi  analogue  en
                            Après  avoir  visité  les  grands  éducateurs  de l'époque,  Oberlin,               France.
                         à  Steinbuch  (Alsace),  Fellenberg,  à  Hofwill,  et  Pestalozzi,  à                    Enhardi  par  la loi prussienne  de  1839  sur  les  fabriques,  i l
                         Yverdon  (Suisse),  sur  l'activité  desquels  il  exerça  une  grande                 adressa  en  1840  une  lettre  ouverte  aux  Gouvernements  français,
                         influence,  Owen  fit  une  propagande  active  pour  introduire la                    suisse  et  à  l'Union  douanière  allemande  pour  obtenir  une
                          protection  ouvrière  sur  le  continent.                                             entende  des  Étals  en  matière  de  protection  des jeunes  ouvriers.
                            En  juillet  1818,  à  la  séance  de  la  Société  helvétique  des                   En  France,  l'influence  de  ses  démarches  se  manifesta  peu  à
                                                       i
                         sciences  naturelles  à  Lausane, l expose  les  inconvénients  et  les                peu,  et  le rapporteur  de  la loi française  de  1841, le baron  Dupin,
                         dangers  du  système  manufacturier.  Puis,  en  date  du  20  sep-                    mentionne  la collaboration  de  Le  Grand.
                         tembre  de  la  même  année,  il  adresse  de  Francfort-sur-Mein  un                     Mais  cette loi prolectrice  des  jeunes  ouvriers  resta  pour  ainsi
                         mémoire   à  tous  les  Gouvernements,  dans  lequel  i l  expose  les                 dire  inappliquée,  car  les  industriels  l'éludèrent  en  introduisant
                         mesures  à  introduire dans  tous  les  pays  pour  protéger  la  classe               des  relais  pendant  la  journée  légale  de  travail.  C'est  alors  que
                         ouvrière  contre  l'ignorance,  la  fraude  et  la  violence. Au  mois                 Le  Grand  reconnut  la  nécessité  de  la  prescription  légale  de  la
                         d'octobre,  il  adressa  un  second  mémoire  aux  Délégués  de  la                    journée  maxima  de  travail  pour  les  adultes  comme  pour  les
                                                                                                                                                              l
                         Sainte-Alliance,  réunis  en  congrès  à Aix-la-Cbapelle.  11 prie  le                 jeunes  ouvriers,  afin  de  prévenir  l'évasion  de  la oi.
                         congrès  de  désigner  une  commission  chargée  d'examiner  les                          Mais  on  craignait  le  profit  que  des  concurrents  étrangers
                         mesures  de  protection qu'il  a introduites  dans ses  établissements                 pouvaient  tirer  de journées  de  travail  plus longues.  Ce sont  donc
                         de  New-Lanark.                                                                        les  mêmes  objections  qu'Adolphe  Blanqui  avait  déjà  avancées
                            Frédéric  Guillaume I I de  Prusse  lui fit exprimer  son  appro-                   en  1839  et  qu'il  formula  comme  suit  :
                                               I
                         bation,  mais  le  spiritus  rector  de  la  Sainte-Alliance,  Frédéric                   «  Un  seul  moyen  existe  de  l'accomplir (la  journée  de  travail
                                                                                                                                     e
                         von  Gentz,  s'opposa  aux  intentions  du  réformateur  social.                       normale  et  uniforme) n  évitant  ses  suites désastreuses;  ce  serait
                            Toutefois,  des  bonimes  comme  Lord  Sbaftesbury  et  Oastler,                    de  la  faire  adopter  en  même  temps  par  tous  les  peuples
                         examinèrent  les  réformes  entreprises  par  Owen à New-Lanark.                       industriels  exposés  à  faire  concurrence  au  dehors.  Mais  le
                         Us  furent  convaincus  de  la  nécessité  de  la  protection  ouvrière                voudra-t-on?  Mais  le  pourra-t-on?  Pourquoi  pas? On  a bien  fait
                         nationale,  et  les  progrès  que  ce  mouvement  fit  en  Angleterre                  jusqu'ici  des  traités  de  puissance  à  puissance  pour  s'engager  à
                         réveilla,  sur  le continent,  l'idée  de  la  protection  ouvrière  natio-            tuer  des  hommes,  pourquoi  n'en  ferait-on  pas  aujourd'hui  pour
                         nale  et  internationale,  dont  Daniel  le  Grand,  le disciple du pas-               leur  conserver  la  vie  et  la  leur  rendre  plus  douce.  »  (Cours
                         teur  Oberlin,  de  Steinbach,  et  de  Schleiermacher,  de  Berlin,  fut              d'économie  industrielle,  2  e  édition,  recueilli  et  annoté  par
                         désormais  l'infatigable champion.                                                     M.  Ad. Biaise,  1838-39,  pp.  111-120.)
                            C'était  le  fils  du  conseiller  d'État  bâlois  Luc Le Grand,  direc-               Cette  idée  de  la  stipulation  de  traités  internationaux  fut
                         teur  de  la  République  helvétique  après  1798,  et  comme  son                     confirmée  par  le  célèbre  VUlermé  dans  son  tableau  de  l'état























                                                   -  6  —

                        physique  et moral des ouvriers employés  dans les  manufactures                          Une  scission  surgit  dans  cette  ligue en 1836,  et les ouvriers-
                        de  coton,  de laine et de soie,  ouvrage  qu'il  avait  entrepris  par                artisans  qui  en faisaient  partie  fondèrent  la « Ligue des Justes »
                        ordre  de  l'Académie  des  sciences  morales  et  politiques  (1840,                  qui  subit  l'influence de Lamennais.  Impliquée  dans la révolte de
                        p.  93),  et  par  Alban  de  Villeneuve,  l'auteur  d'une  économie                   la  « Ligue  des Saisons »,  ses  membres  émigrèrent  à  Londres;
                        politique  chrétienne,  en  décembre  1841, au cours  des  délibéra-                   ils  y  fondèrent  des associations  ouvrières  qui admettaient  aussi
                        tion  de la Chambre  sur la loi de 1841.                                               des  ouvriers étrangers  et  devinrent  ainsi  des associations  inter-
                           Le 31 décembre  1847,  Le Grand adressa son premier  « Appel                        nationales,  qui adoptèrent  pour devise  sur leurs  cartes  d'admis-
                        respectueux  aux Puissances », en faveur  d'une  législation  inter-                   sion,  imprimées  en  vingt  langues'différentes,  les  paroles  :
                        nationale  prescrivant  la journée  máxima  de douze  heures  et la                     «  Tous  les hommes  sont  frères  ».
                        suppression  du travail  de nuit  des  femmes,  et l ajoutait  que si                     Mais  cette  devise  fut  bientôt  remplacée  par  cette  autre  :
                                                                    i
                        ses  propositions  n'étaient  pas  acceptées,  le  socialisme  révolu-                  «  Prolétaires  de tous  les pays,  unissez-vous  », qui  renferme la
                        tionnaire  ferait son  apparition.                                                     confession  de foi de Marx  et d'Engels,  proclamant  que vis-à-vis
                          Deux  mois  plus  tard,  pendant  la révolution  de  février  1848,                  d'une  bourgeoisie  nationaliste,  les idées  de solidarité  et de paix
                        paraissait  le « Manifeste communiste  » de Marx  et  Engels.                           universelles ne peuvent être  réalisées  que par la seule  classe qui
                          Le  2 mars  1848,  le Gouvernement  provisoire  décidait  que  la                     est  forcée  de  chercher  son  gagne  pain  sans  considération  de
                        journée  normale  de travail  sera  limitée  à dix heures à Paris  et à                 frontières,  la classe des  prolétaires.
                        onze  heures  en province.                                                                Le  «  Manifeste  communiste  »,  qui  a  été  discuté  pendant
                          Cette loi fut supprimée  le 13 août  de la même  année,  après la                     dix  jours au Congrès  de la « Ligue des Justes », en 1847,  est le
                        révolution  de juin, et parmi les motifs  invoqués en faveur de cette                   développement  de cet  internationalisme  nouveau  basé  sur la
                        révocation  figure  « l'impossibilité  de conclure  des  traités  inter-                philosophie  du matérialisme  historique.
                        nationaux ».                                                                              Les  années  1848 à  1863, années  de  réaction  politique,  de
                          Ainsi,  les  tentatives  de Le Grand  paraissent  subir un échec                      guerres  et  de  stagnation  sociale,  d'une  part,  de  spéculation  et
                        définitif,  en France  du moins.                                                        d'affairisme,  de l'autre,  furent  peu favorables  au  développement
                          Son  dernier  espoir,  l'Exposition  de  18oo,  ne lui  apporta                       de  la  législation  ouvrière  nationale,  et  complètement  stériles
                        aucun  résultat  appréciable,  et l  mourut  le  10  mai 1859,  sans                    pour  toute  espèce  d'idée  internationale
                                                     i
                        avoir vu la réalisation  de son  œuvre  se dessiner.                                      Toutefois,  sous  la  poussée  de  l'impérialisme  français  des
                                                                                                                ouvriers  de  France  demandèrent,  en  1863, d'être  délégués  à
                                                                                                                Londres,  pour  manifester  avec leurs  confrères  anglais  en faveur
                               I L  —  LE  SOCIALISME  INTERNATIONAL  (1848-1871).
                                                                                                                de  la dernière  révolution  polonaise.
                           La  révolution  sociale,  prédite  par  le  pacifique  réformiste                      i  es  svndicats  ouvriers  anglais  remercièrent  leurs  confrères
                        Le  Grand,  reprend  l'idée  de  l'internationalisme,  mais  d'une                      à  Paris  dans la même  année. Ils insistèrent  à cette  occasion sur
                        façon  bien  différente.                                                                la  nécessité  de fonder  une union internationale  pour  empêcher
                          11 faut  se rappeler  que  cette  fois-ci  l'appel  émane  d'un  groupe               l'immigration   d'ouvtiers étrangers  provoquée  par les  capita-
                        de  réfugiés  allemands  qui avaient  fondé  à  Paris,  déjà  en  1834,                 listes anglais pour briser la force de résistance  des Trades-Uniohs
                        une  société  secrète  : la « Ligue  des Bannis ».                                      et  abaisser les  salaires.























                                                    -  8  —                                                                              —   9  —

                            La  réponse  à  cette  adresse,  rédigée  par  les  trades-unionistes              de  l'Internationale  s'élargit  par  l'accession  de  l'Italie,  de
                          Odger  Applegarth  et  le  Prof ' 1  Beesly,  fut  la  désignation  d'une            l'Espagne,  des  Etats-Unis  et  de  l'Autriche.
                         délégation  française  et  la  convocation d'un  congres  qui  tint  ses                 La  Commune  empêcha  de  tenir  le congrès  de  1870, qui avait
                          assises  le  28  septembre  1804  à  Saint  Martins  Hall,  à                        été  convoqué  à  Paris.
                          Londres.                                                                                Le  Congrès  de  La  Haye  (1872)  marqua la fin de l'Association
                            25  Anglais,  1 0 Allemands, 9 Français,  9 Italiens,  2  Polonais,                ouvrière,  grâce  aux  conflits  qui surgirent  entre  les  partisans  de
                          2  Suisses  en  formaient  le  comité.  Ce  dernier  constitua  désor-               la  méthode  allemande  et  anglaise  d'une  part  et  la  tactique  des
                          mais  le  noyau  de  l'Association  internationale  ouvrière  et                     Latins  et  des  Slaves libertaires de  l'autre.
                          déclara  vouloir  entreprendre  par  des  congrès  ultérieurs  la
                          propagande  pour  l'émancipation  de  la  classe  ouvrière  dans  tous                         I I I .  —  L'INITIATIVE  OFFICIELLE  (1871-1897).
                          les  pays.
                            Elle  fondait  ses  expériences  sur  le  double  fait  que  la  victoire             Toutefois  l'idée  d'une  action  internationale  en  faveur  des
                          de  la  loi de  10  beures  en  Angleterre  signifiait  la  faillite  de             réformes  sociales  ne  tarda  pas  à  être  ressuscitée.  La  Commune
                          l'économie  ortbodoxe bourgeoise,  et  que  le mouvement  coopéra-                   a v a i t  liiii  siisir  aux  économistes  et  aux  hommes  d'Etat  éclairés
                          tif avait démontré  la possibilité d'une organisation  indépendante                  tous  les  dangers  du  laissez  faire.
                          des  ouvriers,  bien  que  l'évolution  plus  rapide  du  capitalisme  \                En  1871, le  Prince  de  Bismark  déclarait  qu'il  était  urgent
                          mettait  des  termes  et  concluait  à  la  lutte  des  organisations                d'entrer  en pourparlers  avec l'Autriche  pour  réaliser  les  réformes
                          ouvrières  contre  la  politique  agressive  et  nationaliste  d e la                sociales  d'un  effort  commun.  Ces  tentatives  échouèrent.
                          bourgeoisie.                                                                            La  même    année,  l'économiste  et  professeur  allemand,
                            Les  congrès  suivants  de  l'Internationale ouvrière  eurent  pour                M.  Adolphe  Wagner,  dans  un  discours  qu'il  prononça  à Essen
                          mission  de  discuter  tous  les  détails  de  ce  programme.  Le  pre-              sur  les  questions  sociales,  préconisa  des  négociations  interna-
                          mier  congrès,  celui  de  Genève  en  1800, proclama  la  réduction                 tionales  en  faveur  de  la protection  légale  des  travailleurs.
                          internationale  des  beures  de  travail  comme  première  étape  de                    En  1875,  le  théologien  Henri  J.  W.  Thiersch  ressuscitait
                          l'émancipation  ouvrière  et  la  suffisance  de  la  journée  de  travail            dans  son  livre  Sur  l'État  chrétien,  les  appels  respectueux  de
                          de  8  heures.  I l déclara  en outre  que  le  travail  d e  nuit  ne doit  être     Le  Grand,  et  demandait  à  l'Empereur  Guillaume  I  e  r  de  con-
                          toléré  que  par  exception,  et l condamna  le  travail  des  femmes                 voquer  une  conférence  internationale  aux  fins  de  discuter  les
                                                     i
                          et  des  enfants.
                                                                                                                mesures  à  prendre  en  vue  de  la  protection  légale  des  travail-
                            Les  délégués  anglais  proposèrent  l'organisation  de  grèves                     leurs.
                          immenses,  et,  en  effet,  celles  qui  éclatèrent  en  1809, en Suisse,               Les  arguments  de  Wagner  surtout  parurent  très  précieux  à
                          à  Gand,  à Iserlohn  et  au  Creusot,  en  1870, furent  attribuées  à               un  homme  d'Etat  suisse,  M.  le  colonel  Emile  Frey,  qui  pro-
                          l'influence  de l'Internationale.                                                     clama  la  nécessité  de  la  protection  internationale  en  1870, en
                            Le  congrès  de  Lausanne,  en  1807.  adhéra  au  programme                        sa  qualité  de  président  du  Conseil  national,  dans  l'espoir  de
                          établi  par  le  congrès  précédent,  et  décida  l'adhésion  à la  Ligue             désarmer  ainsi  l'apposition qui  se  préparait  contre  la loi suisse
                          internationale  de  la  Paix  et  de la  Liberté.
                                                                                                                sur  les  fabriques,  qui fut  promulguée  en 1877.
                            Au  Congrès  de  Bruxelles  (1808)  et  de  Bâle  (1809)  le  cercle                  En  1880, le  Conseil  fédéral  suisse  s'adressa  aux  Puissances






















                                                    —   10 —                                                                            —  1 1  —

                          pour  en  obtenir  une  action  diplomatique,  mais  ses  démarches                    Les  seuls délégués  suisses,  allemands  et  un  peu  les  délégués
                          restèrent  sans  résultat.                                                          autrichiens  se  montrèrent  sincèrement  partisans  d'une  légère
                             Les  congrès  ouvrier  suisse  à  Zurich,  et  ouvrier  français  à              amélioration  internationale  ne  pouvant  pas  donner  de  résultats
                           Paris,  en  1883,  demandèrent  l'intervention des  Gouvernements                  positifs.
                          en  matière  de  protection légale  des  travailleurs. La même  année,                 En  1891, un  code industriel est  promulgué  en Allemagne, la
                          des  discours  favorables  à  l'interventionnisme  national  furent                 France  introduit  une  loi  protectrice  des  femmes  en  1892,  et  la
                          prononcés  au  Parlement  français,  de  même  au  Parlement  alle-                 Grande-Bretagne  un amendement   en  faveur  des  enfants.
                          mand,  en  1886.                                                                       En  1895,  le  mouvement  en  faveur  de  la  journée  de  10 heures
                                                                                                                                                     i
                             En  1886,  la  campagne  des  fabricants  suisses contre  la  loi  sur           se  manifeste  de  nouveau  en  Suisse,  mais l n'obtient aucun  résul-
                          les  fabriques  devient  de  plus  en  agitée.  La  fête  centrale  de  la           tat,  parce  qu'on  lui oppose l'argument  de  la  concurrence  inter-
                          Société  du  Grùtli,  qui  a  eut  lieu  la  même  année  à  Granges,               nationale.  Sur  ces  entrefaites,  le  Conseil fédéral  suisse tente  une
                          réagit  contre  l'agitation des  industriels  suisses et vota les  reven-           nouvelle  action diplomatique;  les  Puissances  ne  lui  répondent
                          dications  suivantes  : journée  de  10  heures;  fixation  à  15  ans  de           qu'en  1897  et  le  résultat  de  ses  démarches  est  nul.  Sur  deux
                          la  limite  d'âge  de  l'admission  de  mineurs  dans  les  fabriques  ;             points  surtout  l'initiative  officielle  avait  échoué,  i l lui  manquait
                          luttes  contre  les  poisons  industriels;  création  d'un  OHice inter-             l'unité  de  vues  parmi  les  hommes  d'Etat  et  la  documentation
                          national  du  travail.  Les  socialistes  et  les  catholiques  suisses             internationale.  Rien  de  plus  facile,  dans  ces  circonstances,  que
                          s'unirent  pour  réaliser  ce  programme.  En  1887  est  fondé  le                 de déjouer  les  intentions  les  plus  généreuses.
                          Secrétariat  ouvrier suisse,  et  le  D  Decurtins  adresse  au  Conseil
                                                          r
                          fédéral  suisse son  mémoire  sur  la  protection  ouvrière  interna-               IV.  —  L'ORGANISATION  INTERNATIONALE  DES  PARTIS  ET  LES  PAVS FAVO-
                          tionale.                                                                               RARI.ES  A  LA  PROTECTION  OUVRIÈRE.  AGE  DES  TRAITÉS  DU  TRAVAIL
                             Malgré  l'échec  de  1880,  le  Conseil  fédéral  suisse  prend  de                 (190i  et  1906).
                          nouveau  en  1889  l'initiative  d'une  conférence  internationale
                          ayant  pour  programme    l'élaboration  d'un  code  industriel                        A  la  suite  de  l'issue  peu  encourageante  des  démarches  diplo-
                          commun,   et  qui  devait  avoir  lieu  dans  les  premiers  jours  de               matiques  de  1896,  la  Fédération  ouvrière  suisse  convoqua  le
                          mai  1890.  à  Berne.                                                                Congrès  de  Zurich  pour  le  mois  d'août.  Cette  imposante
                                                                                 I
                             Le  3  février  1890  parurent  deux  rescrits  de  Guillaume I qui               assemblée,  dans  laquelle,  sous  la  présidence  de  M.  Henri
                          convoquait  une  conférence  internationale  pour  la  protection                    Scherrer,  l'union  de  tous  les partis  se  dessina  pour  obtenir  une
                          ouvrière,  à  Berlin.                                                                protection  ouvrière  plus  large,  fut  suivie  un  mois  plus  tard
                             Peu  avant  cette  conférence,  Léon  X I I I  et  Guillaume  I I                 (30  septembre  1907)  d'un  congrès  d'économistes  tenu  à
                          échangèrent  des  congratulations  à  propos  de  la  législation                   Bruxelles,  qui  décida  de  fonder  une  association  et  un  office
                          internationale  du  travail.  L'encyclique de  conditione  opificum  a               internationaux  privés.
                          confirmé,  sur  ce  point,  l'attitude prise  par  le  pape.                           Un  comité  belge  composé  de  MM. Mahain, Brants  et  le  duc
                            Le  congrès  de  Berlin  s'occupa  de la  réglementation  du  travail              d'Ursel  fut  chargé  de  l'élaboration  des  statuts  de  cette  associa-
                          dans  les  mines,  du  travail  du  dimanche,  du  travail  des  enfants,            tion.  Peu  après  se  formèrent  des  comités  allemands  (sous la
                          des  jeunes  ouvriers et  des  femmes.                                               présidence  de  M. de Berlepsch),  autrichiens  (sous la  présidence























                                                    —   12  —
                                                                                                                                        —   1 3  -
                          de  M. de  Philippovich)  en  1899,  français  (sous  la  présidence  de               Sa  troisième  source,  qui  est  née  de  l'idée  chrétienne  de  la
                          M.  Cauwès)  en  1900.
                                                                                                              fraternité  humaine,  c'est  la  conception  socialiste  de  la  solidarité
                             Du  25  au  29 juillet  1900  eut  lieu  le  Congrès  de  Paris,  sous           universelle  de  la classe  ouvrière  contre  les guerres  commerciales
                          la  présidence  de  M. Millerand  Ce  Congrès  adopta  les  statuts  de
                                                                                                              des  classes dirigeantes.  Son  objet  est  de  lier  les  nations  par  des
                          l'Association  internationale  présentés  par  le  Comité  belge.  Puis
                                                                                                              traités  et  d'assurer  la  paix.
                          il  désigna  la  Suisse  comme  siège  de  l'Oilice  international du                  La  quatrième  source  doit  son  origine  à  la  lutte  moderne
                          travail.  M.  Henri  Scherrer  de  St.  Gall  fut  nommé  président,                contre  l'avilissement  de  la  race par  les  poisons  industriels  et  des
                          M.  Etienne  Bauer,  de  Bàle,  secrétaire  général  de l'Association                influences  semblables.  Elle  a pour  objectif  d'assurer  le  minimum
                          et  directeur  de  l'Oilice.  Ce  dernier  inaugura  son  activité  le               d'hygiène  nationale,  d'orienter  et de stimuler l'esprit d'invention
                           I ' e  mai  1910.
                                                                                                               vers  le  progrès  hygiénique.
                             I l  convient  de  mentionner  aussi  que  les  congrès  interna-                   Comme   on  le  voit,  les  tendances  en  apparence  les  plus  con-
                          tionaux  d'hygiène  et  de  démographie  et,  en  général,  les  méde-
                                                                                                               ti adictoires  convergent,  dans le  domaine  international,  vers  le
                          cins  éclairés,  ont  beaucoup  contribué  à  l'entente  internationale
                                                                                                               même   but,  et  se  proposent  de  faire  participer  les  classes
                          désirable  au  double  point  de  vue  de  la  santé  publique  et  de  la           ouvrières  aux  manifestations  caractéristiques  de  la  civilisation  et
                          conservation  de  la  force  productrice  de  la  classe  ouvrière.                  de  répandre  ses  bienfaits  d'une  façon  plus  rapide.
                             Le  mouvement   international  en  faveur  des  traités  ouvriers                   Car  la conservation  et  l'économie  des  énergies  humaines  sont
                          a  donc  trouvé,  après  tant  de  difficultés,  des  partisans  et  des             la condition  préliminaire  indispensable,  qu'il  s'agisse  de  l'édifi-
                          amis  dans  tous  les  rangs,  sauf  parmi  les  ebampions  de  plus  en             cation,  par  l'action collective, d'un  système  social  plus  compli-
                          plus rares  de  l'économie  politique  orthodoxe.                                    qué  et  mieux réglé  que  le nôtre,  ou  simplement  de  la  satisfac-
                             Ce  résultat  correspond  complètement  aux  idées  cl  aux                       tion  des  exigences  croissantes  de  la vie  moderne.
                          influences  auxquelles  le  mouvement  doit  son  origine.  Ce  furent
                          d'abord  les réformistes,  de  Owenà  Le Grand, qui le  préconisaient
                          comme   solution  à  opposer  à  l'argument  de  la  concurrence
                          internationale.  Par  la réduction  des  heures  de  travail,  ils  enten-
                          daient  rétablir  le  milieu  familial  —  et  ceci  constitue  le  côté
                          conservateur  de  leurs  réformes  —  et  de  faire  pénétrer  l'éduca-
                          tion  et  les  idées  d'association  et  d'organisation  dans  les  masses
                          ouvrières.
                             La  seconde  source  à laquelle  l'Association  internationale  doit
                          son  origine est  d'essence syndicaliste.  Son but  principal  était  de
                          combattre  l'immigration  du  travail  mal  rétribué,  favorisée  par
                          des  capitalistes,  et  de  relever  universellement  les  conditions du
                          travail.  Elle  vise  à assurer  un  minimum  de  revenus  et  de  travail
                          aux  nations  avancées  en  cherchant  à  étendre  les  mêmes condi-
                          tions  aux  autres  nations.

