























                                             N
                                              D
                                                I
                                           O
                             C  O  N  G  R  È  S  M O N D I A L L
                             C O N G R È S
                                         M
                                                 A
              A S S O C I A T I O N S  I N T E R N A T I O N A L E S  N°5    2
                                                                      N°52
                        Deuxième  session  :  GAND-BRUXELLES,  15-18  juin  1913
                  Organisé  par l'Union  des  Associations  Internationales
                         Office  central  : Bruxelles,  3bis, rue  de  la  Régence
                                                                        1913.0 6
                                                                        1913.06
                     du
                         Congrès.
                                                   préliminaires
              Actes
                                      Documents
                                   —
              Acte s  d u  Congrès .  —  Document s  préliminaires. .
                      L'Internationalisation        dans   le  domaine
                                   des   Mathématiques
                                              P A R
                                    M.  C A R L O  B O U R L E T
                     Professeur au  Conservatoire  National  des  Arts  et  Métiers,  à  Paris


                                               [5i]




                            I .  —  O R G A N I S M E S  I N T E R N A T I O N A U X

                    Les  organismes   internationaux  actuellement  existant  en
                  Mathématiques  sont  les  suivants  :
                    1"  Congrès  internationaux.  —  Ces  Congrès  ont  lieu  tous  les
                  quatre  ans.  Celui  de  1908  ( I V  8  Congrès)  eut  lieu  à  Rome,
                  celui  de  1912  ( V  e  Congrès)  s'est  tenu  à  Cambridge  (Angleterre)
                  et  le  prochain  Congrès,  en  1916,  doit  avoir  lieu  à  Stockholm.
                    L'organisation  de  ces  Congrès  est  faite  par  un  Comité  local
                  désigné  par  le  Congrès  précédent,  sous  le  contrôle  d'un  Comité
                  international  comprenant  cinquante-trois  membres.  Les  actes  de
                  chaque  Congrès  sont  publiés  par  les  soins  du  Comité  d'organi-
                  sation  local.


                    2°  Commission  internationale  de  l'Enseignement  mathématique.
                  —  Le  I V  e  Congrès  des  Mathématiciens  à  Rome,  en  1908,  dans
                  sa  séance  du  11  avril,  a  adopté  la  résolution  suivante  :
                    « Le  Congrès  ayant  reconnu  l'importance d'un  examen  comparé
                  c  des  méthodes  et  des  plans  d'études  de  l'enseignement  mathé-
























                                                                                                                                    —   3  —
                    c< matique  dans  les  écoles  secondaires  des  différentes  nations,
                    «  confie  à  M M .  Klein,  Greenhill  et  Fehr  le  mandat  de  constituer           par  la  Maison  Gauthier-Villars,  à  Paris.  Chacune  de  ces  fiches
                    (c  une  Commission  internationale  qui  étudiera  ces  questions  et                 porte  une  moyenne  d'environ  dix  notices  bibliographiques,  de
                    «  présentera  un rapport d'ensemble  au  prochain  Congrès.  »                        telle  sorte  qu'on  peut  évaluer  à  environ  20,000  le  nombre  de  ces
                      La  Commission  est  formée  par  des  délégués  nationaux.  On                      notices.
                    distingue  entre  les  pays  participants  qui  sont  ceux  qui  ont  été                      I I .  —  P U B L I C A T I O N S  I N T E R N A T I O N A L E S
                    représentés  à  au  moins  deux  Congrès  internationaux  des  Mathé-
                    maticiens,  et  les  pays  associés  qui  ne  remplissent  pas  les  condi-              Nous  donnons  en  annexe  (2)  la  liste  des  publications  mathéma-
                    tions  précédentes.  Les  divers  pays  participants  sont  représentés                tiques  actuellement  existantes,  rangées  par  pays  d'édition.
                    à  la  Commission  chacun  par  un,  deux  ou  trois  délégués^  ayant                   Nous  avons  donné  ici  cette  liste  complète  parce  qu'il  est  très
                     droit  de  vote.  Les  pays  associés  peuvent  avoir  des  délégués                  dilticile  d'en  extraire  un  certain  nombre  de  journaux  que  l'on
                    n'ayant  que  voix  consultative,  mais  non  deliberative  ( i ) .                    pourrait  considérer  comme  internationaux à  l'exclusion  des  autres.
                       L a  Commission  a  déjà  eu  trois  sessions  :  en  août  1910  à  Bru-           En  effet,  à  l'exception  des  journaux  nationaux  d'enseignement
                                                                                                                           catégories
                                                                                                                                     spéciales
                                                                                                           s'adressant
                                                                                                                     à
                                                                                                                       des
                                                                                                                                              d'étudiants,
                    xelles,  en  septembre  1911  à  Milan  et  en  août  1912  à  Cambridge              naux  mathématiques  actuels  acceptent  des  articles  de tous  les  jour-
                                                                                                                                                           provenances
                     (Angleterre),  pendant  le  Congrès  des  Mathématiciens.                             diverses.
                       Quoique  actuellement  le  nombre  des  Rapports  déjà  publiés
                                                                                                                                                       y
                                                                                                                                                         sont
                                                                                                                                                             acceptées,
                                                                                                                            qui
                     dépasse  280,  répartis  en  plus  de  150  fascicules  ou  volumes,                  on Toutefois,  en  ce que  concerne  les  langues  qui publiés  en  France
                                                                                                              peut
                                                                                                                                 1°
                                                                                                                                    tous
                                                                                                                                            journaux
                                                                                                                                         les
                                                                                                                                :
                                                                                                                   observer
                     représentant  un  ensemble  de  plus  de  9,000 pages  in-8°,  la  Com-              n'acceptent  que  le  français,  ou  du  moins,  si  en ait  ils  admettent
                                                                                                                                                      f
                     missionn'a  cependant  pas  encore terminé  son  oeuvre  et  a  demandé              en  principe d'autres  langues,  en  pratique l n'y  paraît  jamais  que
                                                                                                                                                 i
                     au  Congrès  des  Mathématiciens  de  Cambridge  de  proroger  ses                   des  articles  en  français;  2  la  même  exclusivité  se  rencontre  assez
                                                                                                                                  0
                     pouvoirs  jusqu'en  1916,  au  Congrès  de  Stockholm.  Entretemps,                   fréquemment  dans  les  journaux  en  langue  anglaise,  qui  sont
                     la  Commission  tiendra  une  nouvelle  réunion  à  Pâques  1914,  à                 rédigés  en  anglais;  toutefois  certains  journaux  américains  insè-
                     Paris.
                                                                                                          rent  assez volontiers  des  articles  en  d'autres  langues;  3 0  les  autres
                                                                                                          publications  mathématiques  acceptent  en  général  des  articles
                       3°  Commission  permanente  du  Répertoire  bibliographique  des
                     Sciences  mathématiques.  —  Du  16  au  19 uillet  1889  s'était  tenu              dans  la  langue  du  pays  et,  en  outre,  dans  l'une  quelconque  des
                                                           j
                     à  Paris  un  Congrès  international de  Bibliographie  des  Sciences                quatre  langues  officielles  des  Congrès  des  Mathématiciens,  qui
                     mathématiques,  sous  la  présidence  de  M .  Henri  Poincaré,  qui                 t.ont  l'allemand,  l'anglais,  le  français  et  l'italien.
                     décida  la  publication d'un  Répertoire  bibliographique dont  nous
                     parlerons  plus  loin.                                                                                  I I I .  _  U N I F I C A T I O N
                     '  Pour  veiller  à  cette  publication, l  a  été  institué  une  Commis-
                                                     i
                     sion  permanente  qui  avait  pour  président  M .  Henri  Poincaré  et                Depuis  très  longtemps,  les  Mathématiciens  se  plaignent  des
                     pour  secrétaire  au  15  février  1893  M .  Maurice  d'Ocagne.  Depuis,            GJtticultés  croissantes  qui  résultent  de  la  diversité  des  termino-
                     cette  Commission  a  été  très  irrégulièrement  renouvelée  et  nous               logies  nationales  et  de  la  difficulté  de  les  faire  correspondre,
                     r'avons  pas  eu  connaissance  que  M .  Henri  Poincaré  ait  été  rem-            internationalement.  D'autre  part,  pour  faciliter  la  lecture  des
                     placé  comme  président.  D'autre  part,  la  Commission  permanente                 mémoires,  i l  y  a  grand  intérêt  à  ce  que  les  notations  employées
                     recevait  du  Ministère  de  l'Instruction  publique  de  France  (Com-              scient  les  mêmes.  Jusqu'ici,  rien  n'avait  été  fait  dans  ce  sens;
                                                                                                               i
                     mission  des  Travaux  historiques  et  scientifiques)  une  subvention              mais l vient  de  se  fonder  récemment  un  Comité  qui  s'est  assigné
                     annuelle  de  1,200  francs,  qui  a  été  supprimée  l'année  dernière.             le  but  de  résoudre  ia  question  au  moins  sur  un  point  parti-
                     Tusqu'ici,  la  Commission  a  publié  un total  de  2,000 fiches,  éditées          culier,  c'est  le  Comité  (l'Organisation  pour  l'unification  de  la
                                                                                                          terminologie  dans  la  théorie  du  potentiel  et  de  l'élasticité,  dont
                                                                                                          le  secrétaire  est  M .  Arthur  Korn,  Schluterstrasse,  25,  Charlot-
                     (1)  Voir note  en  annexe.                                                          tenburg.  Ce  Comité  a  actuellement  envoyé  une  première  circu-























                                                -  4  —                                                                              -  5  —
                    iaire  dans  laquelle  i l  pose  aux  mathématiciens  et  aux  physiciens             cu'il  n'est  pas  possible  de  faire  correspondre  entre  elles  les
                    la  question  suivante  :  «  Quelles  sont  les  notions  et  les  nota-              notations  de  ces  deux  classifications.
                    tions  sur  lesquelles  l'unification  doit  porter  ? »  En  1914,  une                 En  ce  qui  concerne  la  publication régulière  de  renseignements
                    seconde  circulaire  questionnera  sur  les  termes  et  notations  à                  riDiiographiques  sur  les  mathématiques,  i l  n'y  a  lieu  de  citer
                    adopter;  en  1916,  le  Comité  provoquera  une  discussion  sur  le                  qu'une  seule  publication,  d'ailleurs  très  complète,  qui  est  la
                    sujet  au  Congrès  international  des  Mathématiciens;  en  1917,  i l                Revue  semestrielle  des  publications  mathématiques,  rédigée  sous
                    sera  rendu  compte  des  résultats  de  la  discussion;  en  1920,  au                les  auspices  de  la  Société  mathématique  d'Amsterdam,  par
                     V I I  e  Congrès  des  Mathématiciens,  aura  lieu  un  vote  définitif,             M M .  H .  de  Vries,  D.  J.  Korteweg,  J.  C.  Kluyver,  W .  Kapteyn
                     dont  les  résultats  seront  publiés  en  1921.                                      et  P.  H .  Schoute,  et  éditée  simultanément  par  Delsman  et  Nol-
                                                                                                           thenius  (Amsterdam),  Gauthier-Villars  (Paris),  B.-G.  Teubner
                                     I V .  —  D O C U M E N T A T I O N                                   (Leipzig)  et  Williams et  Nordgate  (Londres  et  Edimbourg).
                       I l  n'existe  pas  de  Bibliothèque  internationale  des  Mathéma-
                     tiques.  Toutefois,  dans  tous  les  grands  pays  on  trouve,  dans                            V .  —  L A N G A G E  E T  T E R M I N O L O G I E
                    les  bibliothèques  des  Universités  les  plus  importantes,  des  biblio-              La  terminologie  des  Mathématiques  est  encore  actuellement
                    thèques  nationales  très  complètes.                                                  peu  unifiée,  soit  nationalement,  soit internationalement.
                       La  bibliographie  des  Mathématiques  a  été  entreprise  par  la                    D'une  part,  nationalement,  on  constate  souvent  un  manque
                    Commission  permanente  du  Répertoire,  dont  nous  avons  parlé                      absolu  de  régularité  dans  le  choix  des  mots  désignant  une  série
                    plus  haut.  La  Commission  a  d'abord  publié  un  Index  du  Réper-                 d'êtres  mathématiques  de  même  nature.  Ainsi,  en  français,  on
                    toire  bibliographique  des  Sciences  mathématiques,  qui  classe  les                dit  :  triangle,  quadrilatère,  pentagone,  où  le  premier  nom
                     :viatnematiques  en  trois  grandes  divisions  :  Analyse  mathéma-                  compte  les  angles  et  les  nomme  par  une  terminologie  latine,  où
                    tique,  Géométrie,  Mathématiques  appliquées.  Chacune  de  ces                       le  second  compte  les  côtés,  avec  une  terminologie  latine,  et  où
                     divisions  est  partagée  en  classes  indiquées  d'un  bout  à  l'autre              le  troisième  compte  les  angles  avec  une  terminologie  grecque.
                     par  les  grandes  lettres  de  l'alphabet,  A,  B,  etc.,  jusqu'à  X .              Des  essais  fréquents,  mais  qui  malheureusement  n'ont  encore
                     Chaque  classe  est  elle-même  partagée  en  sous-classes  indiquées                 aucune  sanction  régulière,  ont  été  faits  pour  régulariser  ces
                    nar  des  chiffres  arabes  et  enfin  chaque  sous-classe  peut  elle-même           expressions.  Ainsi,  lorsque  l'on  considère  les  figures  polygonales
                    être  partagée  en  paragraphes  indiqués  par  les  petites  lettres  de             comme   formées  d'angles,  on  emploie  les  expressions  triangle,
                     l'alphabet.  Au  besoin,  on  subdivise  encore  ces  paragraphes  au                quadrangle,  pentagone,  etc.  Lorsqu'au  contraire  on  considère  ces
                    moyen  de  lettres  grecques.  Ainsi,  par  exemple,  G2ba  marque,                   figures  comme  un  ensemble  de  segments  rectilignes,  on  emploiera
                    dans  les  fonctions  hyperelliptiques,  abéliennes  et  fuchsiennes,                 les  termes  trilatere,  quadrilatère,  pentalatère,  etc.,  qui  sont  déjà
                     la  sous-classe  de  la  généralisation  des  intégrales  abéliennes,  le            plus  réguliers,  quoique  encore  assez  discordants.  I l  arrive  égale-
                    paragraphe  des  intégrales  doubles  abéliennes,  avec  le  sous-                    ment  qu'une  même  notion,  soit  parce  qu'elle  a  été  introduite
                    paragraphe  de  l'extension  du  théorème  d'Abel.  Depuis  la  fon-                  simultanément  par  des  auteurs  indépendants,  soit  parce  que
                     dation  du  Répertoire,  un  assez  grand  nombre  de  publications                  divers  mathématiciens  les  envisagent  soiis  des  jours un  peu  diffé-
                    périodiques  mathématiques  ont  pris  l'habitude  d'indiquer  en                     rents,  reçoit  cinq  ou  six  noms.  Par  exemple,  les  expressions  fran-
                     tête  de  chaque  mémoire,  dans  un  encadrement  rectangulaire,  la                çaises  :  fonction  synectique  (Cauchy),  holomorphe  (Briot  et
                    nctation  de  la  classification  bibliographique ci-dessus.  Les  fiches             Bouquet),  olotrope  (Méray),  régulière  (Weierstrasse),  dévelop-
                     pub^ees  par  la  Maison  Gauthier-Villars,  d'après  les  travaux                   pable  (Darboux),-etc.,  etc.,  désignent,  à  des  nuances  près,  les
                     de  la  Commission  permanente  du  Répertoire,  sont  également                     mêmes   fonctions  et  i l  est  certain  qu'il  pourrait  y  avoir  grand
                     classées  suivant  la  même  méthode.  I l  faut  observer  ici  que  cette          intérêt  à  réduire  au  minimum  possible  le  nombre  de  ces  adjectifs.
                     classification  particulière  aux  Mathématiciens  ne  cadre  malheu-                Nous  avons  déjà  indiqué  plus  haut  comment  s'est  constitué  un
                     resement  pas  avec  la  classification  bibliographique  décimale  et               Comité  destiné  à  étudier  cette  question  au  point  de  vue  du  poten-
                                                                                                          tiel  et  de  l'élasticité.






















                                              _   6  —
                                                                                                                                     -  7  ~
                      D'autre  part,  internationalement,  la  correspondance  entre  les                 et  Cie).  Une  vingtaine  d'ouvrages  en  esperanto  sur  les  Mathé-
                    expressions  en  diverses  langues  n'est  pas  absolument  parfaite,                  matiques  ont  déjà  paru,  parmi  lesquels  nous  citerons  les  plus
                    et  i l  y  a  lieu  évidemment  de  chercher  à  l'établir  autant  qu'il             importants  :  La  Kontinuo;  de  Edward  V .  Untington,  traduit
                    est  possible  dans  l'état  de  chaque  branche  de  la  science.  I l  faut,         par  Raoul  Bricard (Gauthier-Villars, Paris),  Analitika  Geometrio
                    en  effet,  observer  qu'un tel  travail  ne  pourra jamais  être  définitif,         absoluta,  de  Cyrillo  Vörös,  écrit  directement  en  esperanto-  (trois
                    car  telle  expression,  qui pouvait  paraître  suffisante  à  une  époque            volumes,  Ludoviko  Kokai,  Budapest),  La  Geometrio  de  Folietoj,
                    donnée  de  la  science,  ou  bien  devient  caduque  parce  qu'elle  est              de  René  de  Saussure  (Albert  Kundig,  Genève),  etc.
                    trop  générale  et  qu'il  faut  la  dédoubler  en  plusieurs,  ou  bien                 I l  est  d'ailleurs  à  noter  que  le  nombre  des  Mathématiciens  qui
                    prend  un  sens  beaucoup  plus  restreint  à  cause  des  nécessités                  se  sont  déclarés  partisans  de  l'emploi de  la  langue  internationale
                    créées  par  les  théories  nouvelles.  I l  est  donc  évident  que  la
                                                                                                                                                       l'adoption
                                                                                                                                     et
                                                                                                                     est
                                                                                                                                             l'idée
                    création  d'un  Bureau  International,  chargé  non  seulement  d'épu-                 esperanto langue considérable fait  que  progrès de constants  dans d'une
                                                                                                           pareille
                                                                                                                          auxiliaire
                                                                                                                                        des
                                                                                                                                                                    les
                    rer  les  terminologies  nationales  et  d'établir  entre  elles  une  corres-         milieux  des  Mathématiciens.
                    pondance  internationale, mais  encore  de  veiller  au  maintien  de
                    cette  correspondance  internationale  et  d'effectuer  les  modifica-                         I .  —  COMMISSION   I N T E R N A T I O N A L E
                    tions  nécessitées  par  les  progrès  de  la  science,  est  absolument                      D E  L ' E N S E I G N E M E N T  MATHÉMATIQUE
                    nécessaire.
                                                                                                             Le  Comité  international  est  ainsi  composé  :  Président  :  M  Félix
                      Nous  avons  déjà,  à  propos  de  la  bibliographie,  parlé  plus                   Klein,  professeur  à  l'Université  de  Göttingen;  Vice-Présidents  :  Sir
                    haut  de  la  classification  officielle  adoptée  par  les  mathémati-                George  Greenhill  (Londres)  et  M.  Dav.  Eug.  Smith  (New-York);
                    ciens  et  employée  dans  les  publications  de  leur  Répertoire.  Nous              Secrétaire  :  M.  H .  Fehr,  professeur  à  l'Université  de  Genève.
                    ne  reviendrons  sur  ce  sujet  que  pour  observer  que  le  Bureau                    Délégués  des  pays  participants  :  Allemagne  :  M M .  F.  Klein  (Göt-
                    international  dont  nous  parlons  plus  haut  pourrait  également  être              tingen),  P.  Staeckel  (Carlsruhe),  P.  Treutlein  (Carlsruhe);  Autriche  :
                                                                                                                                                                  M.
                                                                                                                                                                ;
                                                                                                                E.
                                                                                                           MM.
                                                                                                                                                                     J.
                    chargé  de  cette  question,  et,  si  possible,  de  la  mise  au  point              Xeuberg  Czuber,  ; W .  Wirtinger,  R.  Suppantschitsch  ;  Belgique ;  Espagne:
                                                                                                                   (Liège)
                                                                                                                                       P.
                                                                                                                                         Heegaard
                                                                                                                                    M.
                                                                                                                          Danemark:
                                                                                                                                                  (Copenhague)
                    de  cette  classification,  de  façon  à  la  mettre  en  accord  avec  la             M.  Z.  G.  de  Galdeano  (Saragosse)  ;  Etats-Unis  :  M M . Dav.  Eug.  Smith
                    classification  décimale.                                                              (New-York),  W.  Osgood  (Cambridge,  Mass.),  J.  \V.  A.  Young  (Chi-
                      D'après  les  règlements  dès  Congrès  internationaux  des  Mathé-                  cago) :  France  :  M M . A.  de  Saint  Germain,  C.  A.  Laisant  et  C.  Bourlet
                    maticiens,  quatre  langues  sont  admises,  à  l'exclusion  des  autres,              (Paris);  Grèce:  M.  C.  Stéphanos  (Athènes);  Hollande:  M.  J.  Cardinaal
                    dans  ces  réunions  et  dans  les  publications  subséquentes;  ce  sont,             (Delft);  Hongrie:  M M .  M.  Beke,  C.  Radoz,  Ratz  (Budapest);  Iles
                                                                                                                                                                     C.
                                                                                                                            George
                    comme  nous  l'avons  déjà  dit  :  l'allemand,  l'anglais,  le  français              Britanniques Italie :  Sir  M M .  G.  Greenhill,  Prof.  E.  W . Fr. Hobson,  Mr. (Bo-
                                                                                                                                                           Enriques
                                                                                                           Godfrey;
                                                                                                                                               (Rome),
                                                                                                                                    Castelnuovo
                                                                                                                         :
                    et  l'italien.                                                                         logne),  G.  Scorza  (Palerme)  ;  Japon:  M.  R.  Fujisawa  (Tokio);  Nor-
                      L'usage  d'une  langue  internationale  n'a  pas  encore  pénétré                    vège:  M.  Alfsen  (Christiania) ;  Portugal:  M.  Gomes  Teixeira  (Porto) ;
                    profondément  dans  les  milieux  scientifiques  mathématiques.  I l                   Roumanie:  M.  G.  Tzitzeica  (Bucarest)  ;  Russie:  M M .  N .  v.  Sonin,  Koja-
                    faut  cependant  noter  ici  que,  de  tous  les  essais  tentés  dans  ce             lovic,  K.  W.  Yogt  (Saint-Pétersbourg);  Suède  :  M.  H .  v.  Koch  (Stock-
                                                                                                                  Suisse:
                    sens,  un  seul  a  déjà  reçu  un  commencement  d'application.  C'est                holm); (Berne).  M M .  H.  Fehr  (Genève),  C.  F.  Geiser  (Zurich),  J.  H .
                                                                                                           Graf
                    l'emploi  de  la  langue  internationale auxiliaire espéranto.  U n  cer-
                                                                                                                                                                   sup-
                                                                                                                                                           (Sidney);
                                                                                                                                                M.
                                                                                                                         pays
                                                                                                                     des
                                                                                                             Délégués
                                                                                                                             associés
                                                                                                                                      Australie:
                    tain  nombre  de  publications  mathématiques,  telles  que  les  Nou-                 pléant  en  Europe:  Prof.  Bragg  : (Leeds)  ;  Canada: Carslaw Bovey  (Londres);
                                                                                                                                                     M.
                    velles  Annales  de  Mathématiques,  la  Revista  de  Ciencids,  de                    Colonie  du  Cap:  M.  Hough  (Capetown)  ;  Mexique:  M.  Valentin  Gama
                    Lima  (Pérou),  L'Enseignemetit  mathématique  (Genève)  acceptent                     (Tacuyaba)  ;  Serbie:  M.  Michel  Petrovitch  (Belgrade).
                    des  articles  en  espéranto.  La  terminologie  mathématique  dans
                    cette  langue  a  été  complètement  arrêtée  et  publiée  dans  la  Male-               II.  —  L I S T E  D E S  P U B L I C A T I O N S  MATHÉMATIQUES
                    matika  Terminaro  kaj  Krestomatio,  de  Raoul  Bricard  (Hachette                                            A L L E M A G N E
                    et  Cie),  et  depuis  confirmée  dans  les  divers  dictionnaires  tech-                Abhandlungen  der  Akademie  der  Wissenschaften  su  München.
                    niques  et  scientifiques  de  l'espéranto,  en  particulier  dans  le                   Abhandlungen  der  Königlichen  Akademie  der  Wissenschaften  su
                    Dictionnaire  Encyclopédique  de  M .  Charles  .Verax  (Hachette                      Berlin.  Comptes  rendus  publiés  par  l'Académie  des  sciences  de  Berlin






















                                              —  8  —                                                                               —  9  —              1

                    et  formant  annuellement  un  volume  de  prix  variable.  Berlin  N.-W.  7,         Publication  annuelle  de  la  Société  physico-médicale  d'Erlangen  (Alle-
                    Universitätsstrasse,  S.                                                              magne).
                      Archiv  der  Mathematik  und  Physik.  Revue  trimestrielle,  Abonn. :                Zeitschrift  für  Mathematik  und  Physik.  Revue  trimestrielle.  Ab. :
                    12  marks.  Ed.:  B.-G.  Teubner,  à  Leipzig.                                        20  marks.  Ed.  :  B.-G.  Teubner,  à  Leipzig.
                      Berichte  über  die  Verhandlungen  der  Königlichen  Sächsischen  Gesell-            Zeitschrift  für  mathematischen  und  naturwissenschaftlichen  Unter-
                    schaft  der  Wissenschaften  in  Leidig.  Publication  gr.  in-8°,  paraissant        richt.  Revue  paraissant  huit  fois  par  an.  Abonnement:  12  marks.  Ed.:
                    par  cahiers  valant  généralement  1  fr.  25.  Ed.  : B.-G.  Teubner;  à  Leipzig.  B.-G.  Teubner,  à  Leipzig.
                      Bibliotheca  Mathematica.  Revue  trimestrielle  relative  à  l'histoire  des
                    Sciences  mathématiques.  Ab.:  20 marks.  Ed.:  B.-G.  Teubner,  à  Leipzig.                                  A M E R I Q U E
                      Göttinger  Abhandhingen.
                      Göttinger  Nachrichten.                                                               Actes  de  la  Société  scientifique  du  Chili.  Santiago.
                      Göttingische  Gelehrte  Anzeigen.  Publication  mensuelle  de  la  Société            American  Journal  of  Mathematics.  Publié  sous  les  auspices  de  la
                    royale  des  sciences  de  Göttingue.  Ab.  :  24  marks.  Ed.  :  Weidmann           Johns  Hopkins  University.  Publication  trimestrielle.  Prix  de  l'abonne-
                    (Berlin).                                                                             ment:  25  francs.
                      Jahresbericht  der  Deutschen  Mathematikcr-Vereinigung.  Un  fascicule               Anales  de  la  Sociedad  Científica  Argentina.  Publication  paraissant
                    gr.  in-8  l  tous  les  mois,  abonnement  annuel  :  11  marks  pour  les  membres  tous  les  mois  à  Buenos-Ayres.  Prix  de  l'abonnement  annuel  :  25  francs.
                    de  l'Association,  14  marks  pour  les  non-membres.  Ed.  :  Teubner,  à             Anales  de  la  Universidad  Nacional  de  Buenos-Ayres.  Publication
                    Leipzig.                                                                              annuelle  paraissant  à  Buenos-Ayres.  Ed.  :  Martin  Biedina.  Le  prix  du
                      Jahresberichte  des  Vereins  für  Naturwissenschaft  zu  Braunschwcig.             volume  est  variable.
                    Un  volume  in-8°  tous  les  deux  ans,  le  prix  des  volumes  est  variable         Annals  of  Mathematics.  Publication  trimestrielle faite  sous  la  direction
                    et  de  3  marks  en  moyenne.  Ed.  : Fr.  Vieweg  und  Sohn,  Brunswick.            de  la  Harward  University  de  Cambridge,  Mass.  (U.  S.  A.).  Ab.  annuel:
                      Journal  für  reine  und  angewandte  Mathematik  (Journal  de  Crelle).             10  francs.
                    Publication  mensuelle.  Ab.  annuel:  15  francs.  Ed.:  Reimer,  à  Berlin.           Boletín  de  la  Academia  Nacional  de  Ciencias  de  Cordoba.  Editeur
                     Mathematische  Annalen.  Revue  trimestrielle.  Ab.  :  20  marks.  Ed. :            à  Buenos-Ayres : Coni  H°*.
                    B.-G.  Metzler,  Stuttgart.                                                             Bulletin  of  the  American  Mathematical  Society.  Bulletin  mensuel,
                     Mitteilungen  der  mathematischen  Gesellschaft  in  Hamburg.  Publica-              format  gr.  in-S°.  Ab.  :  5 dollars.  Réduction  de  1  dollar  pour  les  membres
                    tion  annuelle,  le  prix  de  chaque  tome  est  variable  suivant  son  impor-      de  la  Société.
                    tance.  Se  trouve  à  Hambourg  et  chez  B.-G.  Teubner,  à  Leipzig.                 Bulletin  of  the  Buffalo  Society  of  Natural  Sciences.
                     Nova  Acta  der  Ksi.  Leof.  Car.  Deutschen  Akademie  der  Natur-                   Journal  de  l'Institut  Franklin.  Publié  à  Philadelphie.  Le  journal
                    forscher.  Halle.                                                                     paraît  tous  les  mois,  un  volume  gr.  in-8°  par  an.  Abonnement  annuel :
                     Schriften  der  Physikalisch-Oekonomischen  Gesellschaft  zu  Königsberg.            5  dollars.
                    Publication  annuelle  in-4  0  de  200  pages  environ.  Ed.  :  Koch,  à  Königs-     La  Ingeniería.  Organe  officiel  du  «  Centro  Nacional  de  Ingenieros  ».
                    berg  (Prusse).                                                                       Publié  cinq  fois  par  an  à  Buenos-Ayres.  Abonnement  annuel:  37  fr.  50.
                     Sitzungsberichte  der  Akademie  der  Wissenschaften  zu  München.  Publi-             Mathematical  Magazine.
                    cation  paraissant  de  trois  à  six  fois  dans  l'année  et  donnant  un  ou  deux   Mathematical  Review.
                    volumes.  L'abonnement  est  de  4  M.  60  pour  l'Allemagne  et  l'Autriche.          Monthly  Weather  Review.  Publication  faite  à  Washington  par  l e ,
                     Sitzungsberichte  der  Gesellschaft  zur  Beförderung  der  gesammtcn                Weather  Bureau.  Un  volume  in-4  0  d'environ  douze  fascicules  de  50  pages
                    Naturwissenschaften  zu  Marburg.  Publication .gr.  in-8°,  paraissant  de           tous  les  ans.  Abonnement  annuel  :  10  francs.
                    huit  à  douze  fois  par  an.  Ces  comptes  rendus  sont  envoyés  aux  membres       Notes  et  mémoires  de  la  Société  scientifique  du  Chili.  Santiago.
                    de  la  Société  et  échangés  avec  les  autres  publications  scientifiques.  I l  n'y  Proceedings  of  the  American  Academy  of  Arts  and  Sciences.
                    a  pas  d'abonnements  proprement  dits.                                                Proceedings  of  the  American  Association  for  thé  Advancement  of
                                                                                                          Science.  Publication  dirigée  par  le' secrétaire  de  l'Association.  Un  volume
                     Sitzungsberichte  der  Königlichen  Akademie  der  Wissenschaften  su
                    Berlin.  Comptes  rendus  des  séances  de  l'Académie  des  Sciences  de             in-8°  annuellement  publié  à  Easton  (Pa).  Prix  du  volume:  1  dollar  5.
                    Berlin,  paraissant  une  semaine  après  chaque  séance.  Prix  de  l'abonne-          Proceedings  of  the  American  philosophical  Society.  Publication  faite
                    ment  annuel:  12  marks.                                                             à  Philadelphie  sous  la  direction du  secrétaire  de  la  Société  philosophique
                                                                                                          américaine.  Paraît  en  cahiers  in-8°,  à  époques  irrégulières.  Abonnement
                     Sitzungsberichte  der  Naturwissenschaftlichen  Gesellschaft  Isis  in
                    Dresden.                                                                              annuel  :  15  francs.             /
                                                                                                            Proceedings  of  the  California  Academy  of  Sciences.
                     Sitzimgsberichte  der  fhysikalisch-medicinischen  Societät  zu  Erlangen.
                                                                                                            Proceedings  of  the  Indiana  Academy  of  Sciences.























                                               —  10  —                                                                             —  I I  —
                      Revista  de  Ciencias.  Publication  mensuelle.  Lima  (Pérou).                       Rozpravy  Ceskè  Akademie  (Mémoires  de  l'Académie  impériale
                      Revista  Politecnica.  Organe  officiel  de  l'Association  «  La  Linea            tchèque).
                    Recta  ».  Paraît  bimensuellement.  Ab.  annuel :  6  fr.  50.                         Sitzungsberichte  der  Kaiserlichen  Akademie  der  Wissenschaften  in
                      Revista  Tecnica.  Publication  paraissant  cinq  fois  par  an  à  Buenos-         Wien.  Comptes  rendus  des  séances  de  l'Académie  des  Sciences  de
                    Ayres.  Ab.  annuel:  35  francs.                                                     Vienne,  rédigés  par  le  secrétaire,  dix  livraisons  gr.  in-8°  tous  les  ans.
                      The  American  Mathematical  Monthly.  Ab.  annuel:  10  francs.  Drury             Ed.  :  G.  Gérold's  Sohn,  à  Vienne.
                    College.  Springfield,  Mo.  (U.  S.  A.).                                              Vèslnik  Ceskè  Akademie.  Bulletin  de  l'Académie  impériale  tchèque,
                      The  Monist.  A  quartely  Magazine.                                                publié  à  Prague.  Par  an:  six  numéros  format  gr.  in-8°.  Abonnement:
                    '  Transactions  of  the  American  Mathematical  Society.  Publication  tri-         12  francs.
                    mestrielle,  New-York,  501  West  116  Th.  Street.  Prix  de  l'abonnement:           V'estnik  Kralovské  Ceské  Spolècnosti  Nauk  (Sitzungsberichte  der
                    5  dollars.  Réduction  de  1  dollar  25  pour  les  membres  de  la  Société.       k.  böhmischen  Gesellschaft  der  Wissenschaften.
                      Transactions  of  the  American  Philosophical  Society.  Publication  faite
                    à  Philadelphie  sous  l'a  direction  du  secrétaire  de  la  Société  philoso-                               B E L G I Q U E
                    phique  américaine.  Paraît  en  cahiers  in-4  0  à  époques  irrégulières.  Abon-     Annales  de  la  Société  scientifique  de  Bruxelles.  Publication  trimes-
                    nement  annuel :  25  frarics.                                                        trielle.  Prix  de  l'abonnement:  20  francs.  Secrétariat  de  la  Société  scien-
                      Transactions  of  the  New-York  Academy  of  Sciences:                             tifique,  11,  rue  des  Récollets,  Louvain  (Belgique).
                      Transactions  of  the  Saint-Louis  Academy  of  Sciences.                            Bulletin  de  la  classe  des  Sciences  de  VAcadémie  royale  de  Belgique.
                      Transactions  of  the  Texas  Academy  of  Sciences.                                Publication  de  l'Académie.  Parait'mensuellement  par  cahiers  gr.  in-8°.
                      Transactions  of  the  Wisconsin  Academy  of  Sciences.  Comptes  rendus           Ed.:  Hayez,  112,  rue  de  Louvain,  Bruxelles  (Belgique).
                    de  l'Académie  des  Sciences  du  Wisconsin.  U n  fascicule  in-4  0  par  an,        Mathesis.  Abonnement  annuel  :  g  francs.  Dépositaire  à  Paris  :
                    un  volume  tous  les  deux  ans.  Prix  du  volume:  2  dollars.                     Gauthier-Villars,  55,  quai  des  Grands  Augustins.
                      Verhandlungen  der  deutschen  wissenschaftlichen  Vereinigung.                       Revue  des  Questions  Scientifiques.  Publication  de  la  Société  Scien-
                    Santiago.                                                                             tifique  de  Bruxelles.  Publication  trimestrielle.  Prix  de  l'abonnement
                                                ASIE                                                      20  francs.  Secrétariat  de  la  Société  Scientifique,  u ,  rue  des  Récollets,
                                                                                                          Louvain  (Belgique).
                      College  of  Science  Journal.  Tokyo  (Japon).
                      Tokyo  Sugaku-Butsurigaku  Kwai  Kiji  (Journal  de  la  Société  physico-                                  D A N E M A R K
                    mathématique  de  Tokyo).
                                                                                                            Bulletin  de  VAcadémie  royale  de  Danemark.  Publication faite  à  Copen-
                                       A U T R I C H E - H O N G R I E                                    hague  par  l'Académie  royale.  Six  fascicules  in-8°  par  an.  Ab.  annuel :
                                                                                                          6  kr.
                      Bulletin  international  de  V Académie  de  Cracovie.                                Mémoires  de  VAcadémie  royale  de  Danemark.  Publication  faite  à
                      Bulletin  international  de  VAcadémie  de  Prague.                                 Copenhague  par  l'Académie.  Les  fascicules  sont  du  format  in-4 , 0  parais-
                      Casopis  pro  pèstovàni  mathematiky  a  fysiky  (Journal  de  mathéma-             sant  irrégulièrement,  et  sont  vendus  à  des  prix  variables.
                    tiques  et  de  physique).  Publication  petit  in-8°,  paraissant  cinq  fois          A'yt  Tidsskrift  for  Malematik.  Ed.  :  L.  Jorgensens  à  Copenhague.
                    par  an,  sous  les  auspices  de  la  Société  mathématique  tchèque  à  Prague.
                    Abonnement  annuel:  10  k.                                                                                    ESPAGNE
                      Denkschriften  der  Kaiserlichen  Akademie  der  Wissenschaften  in  Wien.
                    Mémoires  publiés  par  l'Académie  des  Sciences  de  Vienne,  sous  le  con-          El  Progreso  matemático.  Revue  de  mathématiques  pures  et  appli-
                    trôle  du  secrétaire  de  l'Académie,  un  volume  annuel  de  prix  variable.       quées.  Galdeano,  à  Saragosse  (Espagne).  Ab.  annuel:  12  francs.
                    Ed.  :  C.  Gérold's  Sohn,  à  Vienne.                                                 Revista  trimestral  de  matemáticas.  Revue  publiée  par  D.  José  Rius
                      Iahresbericht  der  Akademie  der  Wissenschaften  su  Prag.                         y  Casas.
                      Mathematische  und  tiaturwissenschaftliche  Berichte  aus  Ungarn.                                           FRANCE
                      Mitteilungen  der  Sevcenko-Gesellschaft  der  Wissenschaften  in  Lem-
                    berg.  Publication  de  la"  Société  scientifique  de  Sevcenko  à  Léopol             Annales  de  la  Faculté  des  Sciences  de  Marseille.  Publication  annuelle
                     (Lemberg),  26,  rue  de  Carnecki.  Deux  fascicules  in-8°  par  an,  dont          format  in-4 . 0  Editeurs:  Masson  à  Paris;  Ruat,  libraire,  54,  rue  de
                    le  prix  est  de  2  fr.  50.                                                         Paradis,  à  Marseille.  Prix  du  fascicule  annuel:  15  francs.
                      Monatshefte  für  Mathematik  und  Physik.  Ed. :  Eisenstein  et  Cie,               Annales  de  la  Faculté  des  Sciences  de  l'Université  de  Toulouse.
                    Vienne.                                                                                Publication  du  Conseil  de  la  Faculté  des  Sciences  de  Toulouse.  Quatre
                                                                                                           fascicules  par  an  formant  un  volume  d'environ  480  pages.  Editeurs:























                                              —  12  —                                                                              —  13  ~
                    Gauthier-Villars  à  Paris;  Edouard  Privat  à  Toulouse.  Abonnements:                                  ILES  B R I T A N N I Q U E S
                    Paris,  25  francs;  province,  2S  francs.
                     Annales  scientifiques  de  l'Ecole  Normale  supérieure.  Publication  men-           Messenger  of  Mathematics.
                    suelle,  format  in-4 . 0  Prix  de  l'abonnement:  Paris,  30  francs;  union          Philosophical  Magazine.
                    postale,  35  francs.  Ed. :  Gauthier-Villars,  55,  quai  des  Grands  Augus-         Philosophical  Transactions.  Publication  de  la  Société  royale  de  Lon-
                    tins,  Paris.                                                                          dres.  Les  volumes  paraissent  tous  les  six  mois;  leur  prix  est  variable.
                     Bulletin  Astronomique.  Publié  par  l'Observatoire  de  Paris.  Publica-             Proceedings  of  the  Cambridge  Philosophical  Society.  Publication  de
                    tion  mensuelle,  gr.  in-8°.  Prix  de  l'abonnement:  Paris,  16  francs;  dépar-    la  Société  philosophique  de  Cambridge.  Trois  fascicules  environ  tous
                   tements  et  union  postale:  18  francs;  autres  pays:  20  francs.  Editeurs:        les  ans.  Prix  du  fascicule  in-8°:  2  shellings.
                    Gauthier-Villars,  55,  quai  des  Grands  Augustins,  Paris.                           Proceedings  of  the  London  Mathematical  Society.  Comptes  rendus
                                                                                                                                                              variables.
                                                                                                           de
                                                                                                                                          de
                                                                                                                        La
                                                                                                                                   le
                                                                                                                                     prix
                                                                                                              la
                                                                                                                 Société.
                     Bulletin  de  la  Société  astronomique  de  France.  Publication  mensuelle.         Trente-trois  volumes date  et publiés.  Ed. : la T. publication  sont Tarrington
                                                                                                                                                          8g,
                                                                                                                                                 Hodgson,
                                                                                                                             sont
                    Abonnements  pour  tous  pays:  10  francs.  Ed.:  Gauthier-Villars,  55,  quai        Street  (Londres).
                    des  Grands  Augustins,  Paris.                                                         Proceedings  of  the  Mathematical  Society  of  Edinburgh.
                     Bulletin  des  Sciences  mathématiques.  Publication  annuelle,  format                Proceedings  of  the  Royal  Society.  Publication  de  la  Société  Royale  de
                   gr.  in-8°.  Prix  de  l'abonnement  annuel:  Paris,  18  francs;  départements         Londres.
                   et  union  postale:  20  francs;  autres  pays:  24  francs.  Editeur:  Gauthier-        Proceedings  of  the  Royal  Irish  Academy.  Dublin.
                   Villars,  55,  quai  des  Grands  Augustins,  Paris.                                      Proceedings  of  the  Royal  Society  of  Edinburgh.
                     Bulletin  de  la  Société  mathématique  de  France.  Publication  trimes-             'The  Mathematical  Gazette.  Publication  paraissant  tous  les  deux  mois.
                   trielle  publiée  par  les  secrétaires.  Ed. :  Gauthier-Villars,  55,  quai  des      Prix  du  numéro:  1  shelling.  Ed.:  G.  Bell,  à  Londres.
                   Grands  Augustins,  Paris.                                                                The  O.uartely  Journal  of  pure  and  applied  mathematics.
                     Comptes  rendus  de  l'Académie  des  Sciences  de  Paris.  Publiés  par  les          Transactions  of  the  Cambridge  philosophical  Society.  Publication
                   secrétaires  perpétuels.  Publication  hebdomadaire,  format  gr.  in-4 . 0  Prix       de  la  Société  philosophique  de  Cambridge.  Les  fascicules  sont  d'un
                   de  l'abonnement:  Paris,  20  francs;  départements  et  Algérie,  30  francs;         format  in-4 , 0  ils  paraissent  irrégulièrement  et  leur prix  est  de  7  shellings.
                   union  postale:  34  francs;  autres  pays:  65  francs.                                  Transactions  of  the  Royal  Irish  Academy.  Dublin.
                     L'Education  mathématique,  paraissant  le  i  e r  et  le  15  de  chaque  mois.       Transactions  of  the  Royal  Society  of  Edinburgh.
                   Abonnement  annuel  :  France,  5  francs;  étranger,  6  francs.  Editeur:
                   Nony,  boulevard  Saint-Germain,  Paris.                                                                          I T A L I E
                     L'Intermédiaire  des  Mathématiciens.  Publication  mensuelle.  Abonne-                 Atti  dell'  Academia  delle  Scienze  fisiche  e  matematiche  di  Napoli.
                   ments:  Paris,  7  francs;  départements  et  union  postale,  8 fr.  50. Editeur:        Atti  della  Reale  Academia  dei  Lincei.  Publication  de  l'Académie  royale
                   Gauthier-Villars,  55,  quai  des  Grands  Augustins,  Paris.                           à  Rome,  paraissant  irrégulièrement,  en  volumes  à  prix  variables.
                     Journal  de  l'Ecole  Polytechnique.  Publié  par  le  Conseil  d'instruction
                                                                                                             Atti
                                                                                                                 della
                                                                                                                      R.
                   de  cet  établissement.  Publication • paraissant  par  cahiers  annuels  de            dique  irrégulière, Academia  delle  Scienze  di  Torino.  Publication  pério-
                                                                                                                                  actuellement
                                                                                                                           donnant
                                                                                                                                                        in-8°.
                                                                                                                                                 volume
                                                                                                                                              un
                   prix  variables.  Editeur:  Gauthier-Villars,  55,  quai  des  Grands  Augus-             Atti  dell'  Academia  gioenia  di  Scienze  naturali  in  Catania.  Publication
                   tins,  Paris.
                                                                                                           mensuelle.  Prix  de  l'abonnement:  15  francs.
                     Journal  de  Mathématiques  élémentaires.  Ab.  annuel:  France,  5  francs;            Atti  deli"  Academia  Ponteficia  de  Nuovi  Lincei.
                   étranger,  6  francs.  Ed. :  Nony,  boulevard  Saint-Germain,  Paris.                    Alti  del  R.  Istituto  veneto  di  Sciente,  lettere  ed  arti.  Publication
                     Journal  de^ Mathématiques  pures  et  appliquées  (Journal  de  Liou-                de  l'Institut  vénitien  des  sciences,  lettres  et  arts.  La  périodicité  est
                   ville).  Publication  trimestrielle,  format  gr,  in-4 . 0  Abonnements  :  Paris,     irrégulière,  un  volume  in-8°  tous  les  ans.
                   "30  francs;  départements  et  union  postale,  35  francs;  autres  pays,               Annali  di  Matematica  pura  ed  applicata.  Abonnement:  16  francs.  Edi-
                   40  francs.  Editeur:  Gauthier-Villars,  55,  quai  des  Grands  Augustins,            teur:  C.  Reberchini,  à  Milan.
                   Paris.                                                                                    Bollelino  di  Bibliografia  e  Storia  delle  Scienze  matematiche.  Abonne-
                     Nouvelles  Annales  de  Mathématiques.  Publication  mensuelle  in-S°.                ment  annuel:  7  fr.  50.  Editeur:  C.  Clausen,  à  Turin.
                   Abonnements:  Paris,  15  francs;  départements  et  union  postale,  17  francs;         Comptes  rendus  de  VAcadémie  des  Sciences  physiques  et  mathéma-
                   autres  pays,  20  francs.  Ed. :  Gauthier-Villars,  55,  quai  des  Grands            tiques  de  Naples.  Publication mensuelle.  Prix  de  l'abonnement:  S  francs.
                   Augustins,  Paris.                                                                        Giornale  di  Matematiche.  Publication  mensuelle.  Abonn.  annuel:
                     Revue  de  mathématiques  spéciales.  Ab.  annuel :  France,  8  francs •             20  francs.  Ed.  à  Paris:  Gauthier-Villars,  55,  quai  des  Grands  Augustins.
                   étranger:  g  francs.  Editeur:  Nony,  boulevard  Saint-Germain,  Paris.                 //  Pitagora.  Journal  de  mathématiques  à  l'usage  des  écoles  secon-
                                                                                                           daires.  Ab.  annuel:  2 fr.  60.  Editeur:  D.  Vena,  à  Palerme.























                                               —  14  —                                                                              —  15  ~

                      Le  Matematiche  pure  ed  applicate.  Abonnement  annuel:  12  francs.               Nieuw  Archief  voor  Wiskunde.  Schoute  (Groningue),  annuellement
                    Editeur:  S.  Lapi,  à  Castello.                                                      deux  livraisons.  Le  volume  de  4  livraisons:  12  fr.  50.
                      Memorie  delia  R.  Academia  delle  Scienze  dell'  Istituto  di  Bologna.           Procecdings  of  the  Section  of  Sciences  (Koninklijke  Akadcmic  van
                      Periodico  di  Matematica,  pour  l'enseignement  secondaire.  Organe  de            Wetenschappen).  Publication  de  l'Académie  des  Sciences  d'Amsterdam,
                    l'Association  «  Mathesis  ».  Ab.  annuel :  g  francs.  Ed. :  R.  Giusti,  à       paraissant  tous  les  mois,  à  l'exception  de  juillet  et  août.  Ab.  annuel :
                    Livourne.                                                                              9  francs.
                     Rendiconti  del  Circolo  matematico  di  Palermo,  paraissant  tous  les              Revue  semestrielle  des  publications  mathématiques.  Rédigée  sous  les
                    deux  mois.  Ab.  annuel:  15  francs,  au  Cercle  mathématique  de  Palerme,         auspices  de  la  Société  mathématique  d'Amsterdam,  annuellement  deux
                    30,  via  Ruggiero  Settimo,  Palerme  (Italie).                                       livraisons:  8 fr.  50.  Ed.:  Delsman  et  Nolthenius  (Amsterdam),  Gauthier-
                      Rendiconti  della  Reale  Academia  dei  Lincei.  Publication  in-S°,  parais-       Villars  (Paris),  B.-G.  Teubner  (Leipzig), Williams et  Norgate  (Londres
                    sant  deux  fois  par  mois.  Ab.  annuel :  20  francs.  Ed.  :  L.  Salvinci,  à     et  Edimbourg).
                    Rome.                                                                                    Supplément  o{> de  u  Vriend  der  Wiskunde  ».  Recueil  publié  tous  les
                     Rendiconti  del  Reale  Istituto  Lombardo  di  Scienze  e  lettere.                  deux  mois  à  Culembourg.  Abonnement  annuel:  5  fr.  10.
                      Rendiconti  delie  Sessioni  della  R.  Accademia  delle  Scienze  dell'               V erhandelingen  der  Koninklijke  Akademie  van  W etenschappen.  Mé-
                    Istituto  di  Bologna.                                                                 moires  de  l'Académie  des  Sciences  d'Amsterdam,  paraissant  irréguliè-
                     Revue  de  mathématiques.  Revue  mensuelle,  format  gr.  in-4 . 0  rédigée          rement  et  à  des  prix  différents.
                    avec  les  symboles  de  la  Logique  mathématique.  Prix  de  l'ab.  annuel             Verhandelingen  uitgegeven  door  Teyler's  Twecde  Genootschap  te
                    pour  l'union  postale:  11  francs.  Ed.:  Bocca  frères  et  Clausen,  à  Turin.     Haarlem.  Publication  à  période  et  prix  irréguliers.
                                                                                                             Verhandelingen  van  het  Bataajscli  Genootschap  der  proefondervinde-
                                             NORVEGE
                                                                                                           lijkc  wijsbegeertc  te  Rotterdam.  Publication  irrégulière  et  à  prix
                     Archiv  for  M athematik  og  Aaturvidenskab.                                         différents.
                     t' orhandlinger  i  Vìdenskabs-Selskabets  i  Christiana.  Procès-verbaux               Verslagcn  der  Vergadcring  van  de  Wis-  en  Naluuurkundige  Afdee-
                    de  l'Académie  des  Sciences  et  des  Lettres  de  Christiana.  Publication          ling  der  Koninklijke  Akademie  van  Wetenschappen.  Publication  de
                    annuelle  gr.  in-8°,  prix  variable.  Prix  de  la  série  1858-1900:  247  kr.  70  l'Académie  des  Sciences  d'Amsterdam,  paraissant  tous  les  mois,  à  -l'ex-
                    ou  344  f-r.  03.                                                                     ception  de  juillet  et  août.  Abonnement  annuel :  9  francs.
                     Skrifter  adgione  af  Videnskabs-Selskabets  i  Christiania.  Mémoires  de             Wiskundige  Opgaven  met  de  oplossingen  door  de  leden  van  het  Wis.-
                    1 Académie  des  Sciences  et  des  Lettres  de  Christiania.  Publication             kundig  Genootschap  (Utrecht).  Annuellement  deux  ou  trois  livraisons.
                    annuelle,  gr.  in-8°.  I l  n'y  a  pas  de  service  d'abonnement.  Prix  total      Le  volume  de  six  livraisons:  12  fr.  50.
                    pour  l'intervalle  1894-igoo:  132  kr.  50 ou  182  fr.  63.                                                  PORTUGAL
                                                                                                             Journal  de  Sciencias  mathematicas  e  astronómicas.  Imprimerie  de
                                             PAYS-BAS
                                                                                                           l'I'niversité,  à  Coïmbre  (Portugal).
                     Archief  voor  de  Verzekerings-W  etenschappen  aanverwante  vakkcn.
                    Publicaoion  faite  à  La  Haye.  Environ  quatre  livraisons  par  an.  Le                                      RUSSIE
                   volume  de  six  livraisons:  13  francs.                                                 Acta  Societatis  Scicntiarum  Fennicœ.  Publication  de  la  Société  des
                     Archives  des.  Sciences  exactes  et  naturelles.  Publication  faite  à  La         Sciences  de  Finlande,  à  Helsingfors.  Publication  annuelle,  format  in-4 . 0
                   Haye  par  la  Société  des  Sciences  de  Haarlem,  à  intervalles  irréguliers          Bulletin  de  VAcadémie  des  Sciences  de  Saint-Pétersbourg.  Publication
                   et  en  livraisons  de  6  à  12  feuilles.  Un  volume  de  30  feuilles:  12  fr.  50.  dirigée  par  le  secrétaire  perpétuel  de  l'Académie,  paraissant  tous  les
                     Archives  du  Musée  Teyler.  Publication  irrégulière  donnant  généra-              mois,  sauf  juillet  et  août,  en  cahiers  de  format  in-4 . 0  Prix  du  cahier:
                   lement  deux  livraisons  chaque  année.  Les  deux  livraisons:  2  fr.  50.            1  rouble.  Abonnement  annuel:  10  roubles.  L'Académie  édite  elle-même
                     Bekroonde  Verhandelingen  uitgegeven  door  het  Provincial  Utrcchtsch               son  Bulletin.
                   Genootschap  voor  Kunsten  en  Wetenschappen.  Publication  à  période  et               Bulletin  de  la  Société  mathématique  de  Kharkoff.
                   à  prix  irréguliers.  ,                                                                  Bulletin  de  la  Société  physico-mathématique  de  Kasan  (Kasan).  Publi-
                     De  Vriend  der  Wiskunde  (Tiidschrift  voor  alien  die  Examen  in  dat            cation  trimestrielle.  Prix  de  l'abonnement:  8  francs.
                   vak  moeten  afleggen).  Recueil  publié  tous  les  deux  mois  à  Culembourg.           Bulletin  de  l'Université  de  Kief.
                   Abonnement  annuel:  5  fr.  10.                                                          Mémoires  de  VAcadémie  des  Sciences  de  Saint-Pétersbourg.  Mémoires
                     Handelinr/en  van  het  Nederlandsch  Natuur-  en  Gcneeskundig  Congres.              séparés,  de  même  format  que  le  Bulletin  de  l'Académie,  paraissant  à
                     Natimrkundigc  Verhandelingen  van  de  Hollandschc  Maatschappij  der                 intervalles  irréguliers  et  à  prix  différents.  Ces  mémoires  sont  édités
                   \Vetenschappen  te  Haarlem.  Publication  à  périodes  et  à  prix  irréguliers.        par  l'Académie  elle-même,  sous  le  contrôle  du  secrétaire  perpétuel.























                                              -  i6  —

                     Mémoires  de  V Université  impériale  de  la  Nouvelle  Russie,  à  Odessa.
                     Ofversigt  af  Fiuska  Vetenskaps-Societetens  F  orliandlingar.  Comptes
                    rendus  de  la  Société  des  Sciences  de  Finlande  à  Helsingfors.  Publica-
                    tion  annuelle,  format  in-8°.
                     Prace  matematyczno  -  fisyesne.  Publication  annuelle.  Varsovie,
                    117,  Marszalkowska.  Le  prix  du  volume  annuel  varie  de  2  à  3  roubles.
                     Recueil  de  la  Société  mathématique  de  Moscou.  Ce  recueil  paraît  à
                    des  dates  irrégulières.  Le  volume  se  compose  de  4  fascicules.  Abonne-
                    ment  pour  un  volume:  14  francs.
                    —Wiadomosis  matematyesne,  Varsovie,  paraissant  de  quatre  à  siz  fois
                    par  an.  Prix  de  l'abonnement  :  3  roubles  60.
                                              SUEDE
                      Acta  Mathematica.  Ed.:  Beijer,  à  Stockholm.
                     Bihang  tili  Kongl.  Svenska  V etenskaps-Akademicns  Handlingar.
                      Göteborgs  Kungl.  V etenskaps  och  Vitterhelssalhallcs  Handlingar.
                    Publication  donnant  annuellement  un  volume  in-8°.  I l  n'y  a  pas
                    d'abonnements  proprement  dits.  Les  volumes  sont  d'un  prix  variable.
                     Nova  Acta  regide  Societatis  Scientiarum  Upsalicnsis.
                      Ofversigt  af  Kongl.  Svenska  V etenskaps-Akademiens  F  orliandlingar.

                                              SUISSE
                      Archives  des  Sciences  physiques  et  naturelles  de  Genève,  donnant
                    100  à  120  pages  par  mois  et  2  volumes  par  an.  Ed.  :  Eggiimann,  à
                    Genève.  Ab. :  25  francs.
                      Bulletin  de  la  Société  Vaudoise  des  Sciences  naturelles.  Bulletin
                    dirigé  par  le  Comité  de  la  Société.  Chaque  année  4  fascicules  in-S°.
                    Abonnement  annuel:  8  francs.  Ed.:  F.  Ronge,  à  Lausanne.
                      Mémoires  de  la  Société  de  physique  de  Genève.
                     L'Enseignement  mathématique.  Revue  internationale,  paraissant  tous
                    les  deux  mois.  Abonnement  annuel:  France  et  Suisse,  12  francs;  autres
                    pays,  15  francs.  Editeur:  Georg  et  Cie,  à  Genève.
                     Mittheilungen  der  naturforschenden  Gesellschaft  in  Bern.

