












                              Irrsti tu t International de   Bibliog aphie    .
                          PUBLICATION No 25           INDICE BIBLIOGRAPHIQUE [025.4]




                           CLASSIFICATION             BIBLIOGBAPIDijUE



                                            DECIMALE
                                                  -.,q:..-


                               TABLES GENERALES REFONDUES
                                        etablies en  vue de la publication du

                             Repertoire Bibl-iographique          Universel



                                       .EDITION     FRANyAISE
                                             publi88 avec Ie concours du
                                   BUREAU BIBLIOGRAPHIQUE DE PARIS



                                    :F"ASCICULE               N° 10
                                         Tables de la division  [616]

                                .pATHOLOGIE INTERNE






                                                                              ...







                                   INSTITUT INTERNATIONAL DE BIBLIOGRAPHIE
                             BRU?ELLES, I,  rue du Musee •  PARIS, 44,  rue de Rennes
                                           ZURICH, 3g, Eidmattstrasse.
                                          .
                                                   1902













                                                 TABLES GENERALES DE LA
                                      CLASSIFICATION BIBLIOGRAPHIQUB            DECIMALE
                                       PUBLICATION NO 25 DE L'INSTIT.UT INTERNATIONAL DE BIBLIOGRAPHIE
                                     L'Edition ffancaise, diveloppie et rifQndue,  des TABLES GENERALES de
                                                                                l'Institut Interna­
                                    la Classification bibliograjhique dicimqle,  a He preparee par
                                    tional de Bibliographie,  avec le concours d'un grand nombre de collabora­
                                    teurs et plus specialement  du Bureau bibliographique  de Paris. Cette
                                    edition reunira les diverses editions fragmentaires publiees jusqu'a  ce jour;
                                    elle paraitra par fascicules successifs. Afin de ne pas  entraver la bonne
                                    marche de l'impression,  l'ordre suivi dans la publication  sera celui dans a
                                    lequel  les manuscrits prepares  par  les collaborateurs parviendront
                                    l'Institut .
                                      QuaneL la collection sera complete,
                                     .                            il sera facile de faire relier les fasci-
                                    cules en un volume, dans l'ordre methodique des matieres et conformement
                                    au tableau d'arrangement qui  sera publie  ulterieurement. Pour faciliter
                                    cet arrangement,  les tables n'ont pas recu  de pagination continue, rnais les
                                    introductions et les index alphabetiques  ont ete imprrmes  sur papier  teinte  ,
                                      On peut  des a present  souscrire a I'edition complete,  au prix  de 20 fr.,
                                    ·port com pris.                           de l'Institut Interna­
                                      L'ouvrage cornplet porte  le nO 25 des publications
                                    tional de Bibliographie;  en outre, les divers fascicules, sont numerotes
                                    separement.  Les souscripteurs  rerievront sepa.rernent  les divers fascicules
                                    au moment de leur publication.
                                                      ONT PARU A CE JOUR:
                                    Fascuule w I-Introduction {!Clli1'ale  aa» Tables de la Classification  decimale
                                      et Resume des  Regles  de la Classification  decimale,
                                    Fascicule no 2  -  Table des Subdivisions communes.
                                    Fascicule nO 3  -  Tables de la divi?ion [53] Sciences physiques (Mecanique
                                      raiionnelle ei  Physique).
                                    Fascicule no  4.  -  Table de la division [77]  Sciences Photog1'aphiq2tes.
                                    Fascicule nO 5  -  Table de la division [621.3]  Electriciti industrielle.
                                    Fascicule nO 6  -  Table de la division [629.r1  Industries de  la Locomotion
                                      (Locomotion par  terre ei par eau, aerostaiion).
                                    Fascicule nO 7  -  Table de la division [79] Sports (Tourisme, Cyclisme,
                                      A utomobiiisme),
                                     Fascicule nO 8 _:_ Table de la division [34j'Droit.
                                     Fascicule nO  9  -  Table de la division [6r5] Thb'apeutique.
                                     Fascicule n° IO  -  Table de la division [6r6] Pathologie  interne.

                                                    BULLETIN ET ANNUAIRE
                                     DE L'INSTITUT INTERNATIONAL DE BIBLIOGRAPHIE

                                       BULLETIN DE L'INSTITUT INTERNATIONAL· DE BIBLIOGRAPHIE: lComptes  rendus
                                     des travaux de l'Institut; etudes documentees et informations relatives a
                                     la Bibliographie; analyses d'ouvrages bibliographiques ; renseignements
                                     speciaux  sur  tout  ce qui  concerne I'organisation  internationale de la
                                     Bibliographie scientifique et la formation du Repertoire bibliographique
                                     universel.] Parait en six fascicules in-S? (0.25 X 0.16), br., par  an. Les
                                                                                     Prix: Union
                                     abonnements sont faits pour  un an,  a partir  du ler janvier.
                                     postale  : fr. IS (en cours de puis 1895).  Distribue gratuitement  aux membres
                                     de l'Institut. Il a He publie eg alement divers tires a part  d'articles imp or­
                                     tants parus dans ce Bulletin et qui figurent  dans 1a collection des publica-
                                                           -
                                     tions de l'Institut.
                                       ANNUAIRE  DE L'INSTIT·UT INTERNATIONAL  DE BIBLIOGRAPHIE, pourI'annee
                                     1899.- Bruxelles,  au siege de l'Institut, 1899, grand  in-8° (0.25 X 0.16), br.,
                                                                                  .
                                     106 p. (Extrait du Bulletin de l'Institut 1899, p. 73.)  Prix:  I franc.












                          Institut International de      Bibliographie
                     PUBLICATION N' 25            INDICE BIBLIOGRAPHIQUE [025.4]





                      CLASSIFICATION              BIBLIOGRAPHI?UE


                                        DECIMALE

                                              -.?.-


                           TABLES GENERALES REFONDUES
                                     etablies en  vue de la publication du
                          Repertoire Bibliographique          Universel




                                    EDITION      FRANQAISE
                                         publiee avec, Ie concours du
                               BUREAU BIBLIOGRAPHIQUE      DE  PARIS


                                F"ASCICULE                 N° 10
                                      Tables de la division  [616]

                             PATIIOLOGIE INTERNE















                                INSTITUT INTERNATIONAL DE BIBLIOGRAPHIE
                          BRUXELLES,  I,  rue du Musee  ,  PARIS, 44,  rue de Rennes
                                        ZU RICH, 39,  Eidmattstrasse.
                                                1902










                      "




                      ,
                      If







                       ,





























                             ,  '




















                                                          .... '.-,_.: ..





                    '.













                                    PATHOLOGIE INTERNE                616 (033)




                  6r,6     Pathologie interne,

                       DIVISIONS GENll:RALES DE LA PATHOLOGIE INTERNE
           j
                             616. (0)  Generalttes et ouvrages g eneraux.
                             616.0  Pathologie interne en general.  Su bd iviaions  communes.
                             616 I  Maladies du ayeterne circulatoire.
                             616.2  Maladies de l'appareil respiratoire.
                             616.3  Maladies du syeteme digestif.
                             616,4'  Maladies du systerne lyrnphatique.
                             616.5  Maladies de la peau. Dermatologie.
                             616.6  Maladies du systerne genito-ur inaire,
                             616.7  Maladies des organes locomoteurs.
                             616.8  Maladies du ayeteme  nerveux. Neurologic.
                             616·9  Maladies generales et infections.


           \                 Generalites. Ouvrages generaux.
                   6r6  (0)
                                 L'a pathologie interne et toutes ses divisions peuvent etre combinees avec
                                  les subdivisions de genernlites. de forme,  de lieu et de temps,  don t  on
           "
                                   a reproduit ici quelques nombres seulement.  ? Voir les tables speciules
                                  des subdivisions communes.] Ex.;
                                                                                              II
                        (or r)  Definition.
                       (012)  Classification des maladies.
                       (or3)  Valeur.  Importance.' Utilite.  Usage.  Place  et  rang.
                                Defense. Eloges.
                       (OI4)  Langage. Tenninologie.
                       (<;>2)  Traites g eneraux. Ex. :
                                 6[6.022(02} Traite de bacterjologie.
                       (02r)  Grands  traites  de pathologic  interne  et de pathologie
                                generale. Classement par langues.
                                  Langue anglaise.
                           = 2
                                   •
                           = 3           allemaude.
                                         Irancaise.
                           =4
                           =5            italienne.
                       (022)  Moyens traites.
                       (023)  Manuels  et  aides-memoires.  Rudiments.  Petits  traites.
                                Traites populaires et de vulgarisation.
                       (024)  Traites de patholog ieinterne clinique. Lecons cliniques.
                       (029)  Autres traites.
                       (03)  Encyclopedies et dictionnaires. Ex.:
                                 6[6.? (03) Encyclopedic des maladies nerveuses.
                       (03r)  Grandes encyclopedies. Grands dictionnaires.
                       (033)  Petites encyclopedies. Petits dictionnaires.













                               616 (05)          PATHOLOGIE INTERNE


                                  616 (05)  Periodiques (J ournaux, revues, etc.).
                                              {3).a 19)  Classement par pays d'apres la table des subdivisions de lieu.
                                                 (4)  Europe.
                                                 (43)  Allemagne.
                                                 (44)  France, etc.
                                                   Ex.': 6I6(05) (44) ',Journal medical.
                                     (065)  Institutions ayant un caractere commercial, industriel ou
                                            ,
                                              financier (Maisons de sante,  instituts  et cliniques  en
                                              general).
                                     (069)  p'ersonnes s'interessant  ou s'occupant de  pathologie in­
                                              terne. (Caracteres, situations, devoirs, etc.) Speciali­
                                              sation. Pratique medicale.
                                     (07)  Methodes d'enseignement. Ecoles.
                                     (071)  Enseignement et etudes aux divers degres.
                                     (072)  Etablissements de recherches  ou d'essais. Laboratoires.
                                              Instituts scientifiques. Cours speciaux,
                                  616 (3) a (9)  Les maladies medicales dans les differents pays (classe­
                                              ment g'eographique). Ex. :
                                                  616.932 (44) Le cholera en France.
                                  616 «  .... »  Les maladies medicales aux differentes epoques (classe­
                                              ment chronologique). Ex.  :
                                                  616,932  « 1866» Le cholera de 1866-.
                                616.0    PATHOLOGIE INTERNE EN GENE­
                                           RAL.
                                                   SUBDIVISIONS COMMUNES

                                        L'etude de toute maladie parficuliere donne lieu a. des travaux qui peuvent se grou­
                                       per d'une manierc homologue. C'est pourquoi I'on  a admis  en regie generate que Ie
                                       nombre classificateur de toute affection (medicate  ou chirurgicale]  au de tout ensemble
                                       d'affections peut  se combiner  avec les nombres de certaines subdivisions  communes,
                                       empruntees a 6J6.0 et qui sont les memes a travers toute la classification de la medecine,
                                       de la chirurgie et de lao gynecclogie.
                                        Deux cas peuvent se presenter, selon qu'il s'agit de Iaire Ie classement, soit d'apree
                                       un l}1?gaue ou un systeme, soit d'apres une maladie.
                                                                          .    .
                                        I" ORGANE ou SYSTEME. On peut avoir:  Poumor.  Affections tuberculeuses du
                                       poumon,  --  ou tumeurs du poumon,  -c.ou scleroses du pournon ..  --  ou inflammations du
                                            etc. On doit douc etablir  un premier ciassement par lesions d'un systeme
                                       poumon ,
                                       (systeme nerveux] 011 d'un organe [poumonl.
                                        Pour la division des maladies  se ra.pportant ?l  un systcmo "ou ?l  un organc,  011  a
                                       adopte Ies divisions suivantes, dont' detail plus  loin:  les chiffres, qui constituent les
                                       nombres classificateurs correspondants a ces divisions, sont precedes de deux zeros  .
                                            . OOI  Traumatismes. Lesions traumatiques  .
                                            • 002  Infections. Lesions microbiennes  .
                                            • 003  Lesions anatonriques  .
                                            • 004  Scleroses  .
                                            • 005  Hemorrhagies  .
                                            • 006  Tumeurs .
                                            • 007  Atrophies. Intoxications .
                                            . 008  Troubles fonctionnyls.·
                                            .009  Autres affections propres a l'organe.














                                   PATHOLOGIE INTERNE

                           Ainsi, pour prendre des exemples , 51 l'on a: A1i.zladt"es de l'estomac 6ro.33, on formera
                         Ie nombre c1assificateur T,t1nC1(.rS de i'estornac 616.33.006.
                           Maladies du POlt1JlO')l etant classees it 616.24,.on c1assera fltimorrhrzgies pulmollaircs
                                                       .
                         a 616.24.005.
                           Toutefois, s'il s'agit de chirurgie, Ie classement se fera plutot a 617 qu'a 6r6. Ainsi,
                         Ie rein etant classe au point de vue chirurgical a. 617.558. I, on classera T"altmatismes
                         d'lt ret'1l a 617.558.1.001.
                           2° MALADIE. Dans l'autre cas,
                                                au lieu d'un ensemble d'affections prop res a. un
                         /
                         organe, il s'agit de telle  ou telle affection deeerminee : chuque affection est subdivisee
                         symetr'iquement grace aux nombres classificateurs qui suivent et qui, pour Ies distinguer
                         de ceux que nous venons d'indiquer,
                                              ne sont precedes que d'un seul zero .
                              . 01  Anatomie, histologie, physiologie pathologiques .
                              • 02  Eticlogie. Pathogen ie. Bacteriologie  .
                              . 03  Symptomatologie ou evolution clirrique, Semeiclogie  .
                              . 04  Complications et determinations de l'a-ffection d'apres Ie siege,
                              .0S  Formes diverses .
                              • 06  Pronostic .
                              . 07  Diagnostic.
                              ,0B  Traitement.
      1                   Ainsi, laP1te1l.1J'tonieetant 616.241, on classeraSymp/6mes de La jmelf11l0Jlie a616.241.03.
                         et Etiologle de La j>nett1Jl01tle a 616.241.02. Albuminuria etant 616.614, it faudra i ns­
                         crire le Traltement de l'alb1t·miI1l('1?';e a 6I6.634.oB.
                          Il s'ensuit qu'un certain nombre de questions seront indiquees avec les deux subdivi­
                         sions  communes. Par exemple: Diagnostic des tn mercrs de i'estomac  sera. claese a
                         616.33.006.07· Les .ilf..7.ladies dlt ceroeaa etant 616.83, Ies Traneurs die cer-ueau: seront
                         classees a 616.83.006 et les Symptomes des tranenrs d1l cerooaa a 6r6.83.006.03.
                          Cette classification se prete a tous les developpernents necessaires. Quelques exemples
                         permettront de mieux en saisir Ie mecanisme:
                             6r7.558.4 Al'aladies de 1'1lreth?'e.
                             617.558·4·oB T1?aifem'eltt des maladies de 1'1lretl",'c.
                             617.558.4.0037.<?8S4  Traitemeu.t des caLculs de l'1wetll1'ej>a?" I'dleciricitd.
                             616.927.0232 Fcevre typlto'ldc du.e d l'ingestion d'lutitres.
                             617.528.00635.087232 Traitenunu des nty xdrnes dllnaso-j;lla1?Y1lX j;?lr Ie 1JU.!1?Cltre.
                          L'avantage de cette classification est qu'en reunissant toutes les indications de 006.35,
                         par exemple (rnyxome},  ou de 087.232 (mercure]  on  pourra, independarnment de la
                         division par systems ou par crgane, classer a Al'yxomes tout ce qui  sera classe a .006.35
                         ou a A£erClt1'C tout ce qui sera classe a. .oB7.232. Par consequent une seule indexation
                         pennettra de faire trois classements analytiques de Ia mente notice bibliographique. La
                         meme fiche repetee trois fois pourra etre classee a la bibliographie de trois questions
                         difterentes.
                          II faut toutefois remarquer que, par Ie fait d'uu c1assement identique pour la patho­
                         log ie interne  et la  pathologie externe,  on  sera parfois  embarrasse de savoir  s'il
                         s'agit de medecine  ou de chirurgie. Mais I'usage commun indique si I'on doit indexer
                         tel au tel travail a 6I7 ou 616. En principe dai.lleur-s c'est une difficul te insoluble; car on
                         ne suit, a la limite des deux arts, ce qui reI eve de I'un au de I'autre;  comme par exem­
                         pIe lu pleuresie purulente, Ie cancer de I'estomac, la nephrite tuberculeuse,  etc  . Mais
                         dans la, pratique la division est assez acile.
                          Pour certaines maladies tres importantes, I'indexation est donnee par des chiffres non
                         signifiants, c'est-a-dire qui  ne sont pas empruntes nux subdivisions communes. Ainsi pour
                         la pneumonie, par exemple,  on eut pu  l'indexer a 616.24.002 Infections du. PtJII1ILOJl.  •
                         .Mais elle a son indexation ebablie par  avauce a 6r6.241;  ce qui n'a  aucun inconve­
                         nient, si l'on  se refere  au  lexique decimal  annexo a la classification.
                                                                   ceux que [lOUS
                          Ajoutons que la classification, par des nombres aussi compl iques que
                         donnons plus hau t comme exemples, n'est pas ind ispensable dans  un grand nombre de
                         cas. Mais, quand,  sur  une question, Ia bibliographie est tres abondunte, it vaut mieux
                         pcuvoir disposer d'une indexation poussee tres loin.














                               616.00           PATHOLOGIE INTERNE

                                6r6.00 Divisions par organes.

                                    • 001  Lesions traumatiques diverses .
                                    . 0011  Brulures, Gelures .
                                    . 0012  Choc electrique.  Insolations  .
                                    . 0013  Contusions. Commotions  .
                                            Plaies. Traumatismes
                                    . 0014                   .
                                    . 0015  Fractures  .
                                    . 0016  Dislocations. Luxations  .
                                    . 0019  Autres traumatismes  .
                                    • 002  Infections. Lesions microbiennes  .
                                    :0021   Infections aigiies.
                                    . 0022          chroniques  .
                                    . 0023           suppurees  .
                                    . 0024          gangreneuses  .
                                    • 0025           tuberculeuses  .
                                    . 0026           syphilitiques  .
                                    . 0027          actinomycosiques  .
                                    . 0028           hydatiques  .
                                            Autres infections
                                    . 0029               .
                                    . 003  Lesions anatomiques  .
                                    . 0031  Adherences. Symphyses  .
                                    ,0032   Epanchemeuts.
                                    . 0033  Anomalies  .
                                    . 0034  Fistules. Dilatations. Retrecissements  .
                                    .0035   Anevrysmes.
                                    . 0036  Corps etrang ers .
                                    . 0037  Concretions; calculs  .
                                    . 0038  Degenerescences  .
                                    . 0039  .Autres lesions anatomiques  .
                                           Scleroses.
                                            Les subdivisions sont speciales a chaque org'ane  .
                                    • 005  Hemorrhag ies  .
                                    • 006  Tumeurs  .
                                    . 0061  Tumeurs cong enitales  .
                                    . 0062
                                             Kystes dermoides .
                                    . 0063  Tumeurs benignes  .
                                    .00631    Angiomes,
                                     . 00632  Osteomes .
                                     . 00633  Myomes  .
                                     . 00634  Chondrcmes  .
                                     .00635   Myxomes  .
                                     . 00636   Lipomes.
                                     . 00637  Fibromes  .












                                   PATHOLOGIE INTERNE              616.0221.23

                   616.00638    Kystes.
                      . 00639   Autres tumeurs  benignes  .
                      . 006391    Condylomes  .
                      . 006392    Papillornes  .
                      . 006393   Molluscum .
                      . 006394   Polypes  .
                      . 0064  Tumeurs malignes  .
                      . 0064 I  Adenomes  .
                      . 00642   Sarcomes  .
                      . 00643   Endotheliornes  .
                      . 00644   Cylindromes  .
                      . 00645   Epitheliomes  .
                      . 00646   Cancers  .
                      . 00646 I  Encephaloides  .
                      . 006463   Squirrhes  .
                      . 006464   Carcinornes  .
                      . 00647   Lymphornes  .
                      . 00648   Melanornes .
                      . 00649   Autres tumeurs malignes  .
                      . 006491   Autres tumeurs vegetantes  .
                      . 006492   Papillornes malins  .
      "
                      .007  Hypertrophies.  Atrophies.  Intoxications.  Maladies  d'une
                              partie de l'organe consrdere .
                      • 008  Troubles fonctionnels  .
                      . 009  Autres affections propres ,3, I'crgane ccnsidere.
                              Les deux divisions .008  et .oog donnen t lieu a des divisions propres a chaque
                               organe, et elles different d'organe a organe, Le cas echeant, elles sont indi­
                               quees dans la table generate, ala pathologie de chaque organe.
                  6i6.o    Divisions par   maladies ou affections    .
                      . 01  Anatomie, Physiologie  et Histologie pathologiques  .
                      . 01I  Anatomie et histologie pathologiques.
                                S'il est necessaire, on pourra pousser Ia subdivision plus loin, et se ?eferer
                                  au classement anatcmique -Sr r  . Ainsi Anatomic  pathologl?q1ie  de /'111-
                                  tes#?t dans lafidvrc t)!}ltoi'de s'ecrira 616.g27.0II .34 .
                      . 012  Physiologie pathologique,
                                Dans la plupart des cas, Ia Physiologie pathologique sera plutct indexee
                                  aux chapitres .008. Troubles /cmcit'ollue/s 01.1 .02 Etlologie qu'a  .oJ2.
                      :012.3   Regime alimentaire.
                      • 02  Etiologie. Pathog eni e. Bacterio logi e  .
                      . 022  Bacteriologie  .
                      . 022I   Structure et biologie des microbes .
                      . 0221.1  .Structure et morpholog ie  .
                      . 0221.2   Biologie bacterienne  .
                      . 0221.22   Respiration. (Aero bies: Anaero bies)  .
                      . 0221.23   Conditions de culture  .













                               616.(')221.231   PATHOLOGIE INTERNE

                                 616.0221.231    Cultures en milieux liquides. Technique,
                                   . 0221.232    Cultures en milieux solides. Technique  .
                                                Produits de secretion des microbes. Toxines. Pto­
                                   .022I.24
                                                 maines.
                                   . 0221.24r    Chimie des toxines  .
                                                 Effets
                                   . 0221.242          physiologiques, Pathologie experimentale  .
                                   . 0221,.243   Antitoxines  .
                                   . 0221.246    Toxines dans les secretions  .
                                   . 0221.25    Variations specifiques  .
                                   ,0221.26     Reproduction.
                                   . 0221.27    Influence des milieux sur les microbes  .
                                                -
                                   . 0221.271    Pression barometrique  .
                                   • 0221.272    Electricite  .
                                   . 0221.273    Temperature  .
                                   . 0221.274    Lurniere .
                                   . 0221.275    Sons et vibrations .
                                                .
                                   . 0221.276    Poisons et substances chimique's  .
                                   . 0221. 276. I  Hydratation et dessiccation  .
                                   . 0221.276.3    Action des sels mineraux  .
                                   . 0221.276.4         de l'oxygene  .                             I
                                   . 0221.276.6          des antiseptiques  .
                                   . 0221.276.61
                                                    Antiseptiques mineraux .                        \
                                   .0221.276.62                 organiques.
                                   . 0221.276.63    Comparaison des antiseptiques  .                I
                                   . 0221.277    Des agents mecaniques  .
                                   . 0221.278    Des autres agents physiques  .
                                   . 0221.278.1    Des rayons X  .
                                   . 0221.28    Mouvements  .
                                   .0221.29     Autres phenomenes chimiques et physiologiques  de
                                                 la vie des microbes.
                                   . 0221.292.   Composition chimique  .
                                   . 0221.294    Production de pigments  .
                                   . 0221.297    Phosphorescer:ce  .
                                    . 0221.4  Devcloppement  .
                                   . 0221.5   Habitudes. Fonctions generales  .
                                   . 0221.6   Pathologie des microbes ..
                                                              '
                                   .0221.61     Attenuation.
                                   .0221.613     Attenuation par la chaleur.
                                   . 0221.614              par la lumiere  .
                                   . 0221.616              par les agents chimiques  .
                                    . 0221.616.1           par la dessiccation  .
                                    . 0221.616.4           par 1'9xygene  .
                                    . 0221.616.6           par les antiseptiques  .
                                    . 0221.62  •  Immunite .
                                    .0221.Eb2    Experiences sur les animaux.
                                    • 0221.623   Immunite par les serums .













                                   PATHOLOGIE INTERNE
                                                                      616.037
                   616.0221.624     Immunite par les antitoxines.
                      . 0221.63   Microbes normaux  .
                      . 0221.632
                                    Experimentation sur les anim aux .
                      .0221.633    Associations  bacteriennas,
                      . 0221.638    Bacteriotherapia  .
                      .0222    Microbes en general.
                      . 0223   Microcoques  .
                      . 0225
                                        et microbes voisins .
                      . 0225.1   Diplocoques. Pneumocoques  .
                      • 0225.2   Microcoques tetrag enes  .
                      • 0225.3  Sarcines  .
                      • 0225·4  Zooglees  .
                      . 0225.6  Staphylocoques  .
                      . 0225·7   Streptocoques  .
                      .0225·9   Coccobacteries.
                      . 0226   Bacteriacees. Proteus
                                                .
                     . 0227    Bacilles  (fprme allongee)  .
                     . 0228          (forme spiralee)  .
                      0229                         .
                     .        Distribution des 'microbes
                     .  0229.1  Microbes de la nature inanimee .
                     . 0229.2           en  biologie  .
                     • 0229.21    Microbes saprogenes  .
                     • 0229·2II
                                   Fermentations' .
                     . 0229.212
                                   Putrefaction .
                     . 0229.22    Microbes chromog enes .
                     . 0229.5   Microbes non  pathog enes  .
                     .  0229.6          pathog enes .
                     ,0229.8            chez les animaux.
                     . 0229·9   Microbes dans les diverses parties du
                                                              corps  .
                                 A diviser cam me 6II Anatomie .
                     . 023  Etiologts  g enerale (individuelle)  des  maladies.  Hygiene
                             privee. Prophylaxie.
                                 A diviser comme
                                           ?I3 Hygiene privee .
                     . 024  Etiologie g enerale. Prophylaxie publique,
                                 A diviser comme 614 Hygiene publique,
                     . 0247   Rapport etiologique avec les affections  chirurgicales  .
                                 A diviser ccmrue 617 Chirurgie.
                              Rapport etiologique  avec les affections  gynecologiques
                                et
                                  pediatriques ..
                                 A diviser comme 618 Gynecologie et Pediatrie .
                     . 03  Symptcmes  . Evolution clinique. Serneio log ie .
                     . 031
                            Incubation .
                     . 032  Debut .
                     • 033  Etat .
                     . 036  Marche  .
                     . 037  Duree.












                                                 PATHOLOGIE INTERNE
                               6I6.038


                                 6I6.038   Terminaison.
                                    . 039  Autres sympt6mes  .
                                                Divisions propres a chaque maladic .
                                    . 04  Complications.
                                             Les complications sont divisees conune 61 I Anatomie. Ex.:
                                                 61 r.aa Anatomie du coeur .
                                                 .• 041".2 Complications du cote du cceur,
                                                 616.927.°41.2  Affections du coeur dans la fievre typhofde.
                                    . 05  Formes speci ales  .
                                    . 05I  Generalites. Cas rares et inusites  .
                                    . 052  Affections aig iies ou chroniques  .
                                    . 052I   Affections aigiies  ..
                                    . 0522           chroniques  .
                                    . 053  Affections suivant les ages  .
                                    . ,,53I  N on veau-ne et fcetus  .
                                    . 0532   Premiere annee  .
                                    . 0533   Premiere enfance  .
                                    . 0534   Deuxieme enfance  .
                                    . 0535   Adolescence  .
                                    . 0536   Age adulte  .
                                    . 0537   Vieillesse  .
                                    . 054  Affections suivant les races  .
                                    . 055           suivant les sexes  .
                                    . 059  Autres formes speciales  .
                                              Les divisions sont propres a chaque rnaladie.
                                    . 06  Pronostic  .
                                          Diagnostic.
                                            Examen physique  a l'aide d'instruments  .
                                    . 07I
                                    .07II    Exploration  en general.
                                    . 07I2   Exploration par  la  vue. Scopie. Eclairage electrique  .
                                     . 07I3  Catheterisrue explorateur.  Toucher  .
                                     . 07I4  Bougirage. Dilatation .
                                     .07I5   Inj ection d' air.
                                     . 07I8  Mesure deI'acuite sensorielle  .
                                             Autres precedes  d'examen -.
                                     . 07I9
                                            Photographie. Radioscopie  .
                                     . 072
                                     . 672I   Photographies  .
                                     . 0724   Radiographies  .
                                     .073   Examen fonctionnel.  Etude des sympt6mes  groupes par
                                              appareils.
                                                A diviser  comme 6 [I Anatomie ..
                                            Auscultation. Percussion. Palpation  .
                                     . 074
                                     . 074I   Auscultation  .
                                     . 0742   Percussion  .
                                     . 0743   Palpation  .
                                     . °75  Thermometrie  .












                                       PATHOLOGIE INTERNE                616.0899


                        6r6.076   Urologie clinique.
                          . 0761   Reaction de l'urine .
                          . 0762   Uree .
                          . 0765   Acide urique  .
                          . 0766   Produits azotes  .
                          . 0767   Matieres colorantes  .
                          . 0769   Autres produits urinaires  .
                          . 079   Pro cedes divers de diagnostic  .
                          . 0791   Diagnostic cJinique  .
                          . 0792             bacteriologique  .
                          . 0794             par Ie sang  .
                           . 0795            des maladies simulees  .
                           . 0797            des affections des parties d'un organe  .
                           . 0798            avec les maladies des autres organes  .
                          . 0799   Instrument de diagnostic speciaux a une maladie  .
                           . 08  'I'herapeutique  .
                          . 082   Thcrapeutique experimentale  .
                           . 083  Opotherapie, Serotherapie  .
                           . 0836  Opotherapie  .
                          . 0837   Serotherapie  .
                           . 087  Medicaments divers. Eaux minerales  .
                                     A divi ser comme 615.7 Medicaments groupes d'apres leurs effets  .
                           . 088  Medications diverses.
                                     A diviser comme 615.8 Medications diverses. Ex.  :
                                       615.8.18 -Hydrotherapie.
                                       610.8.08.838 Traitement des maladies  nerve uses par l'hydrotherapi e.
                           .089   Traitement chirurgical.
                           . 0891   Petites operations (petite chirurgie)  .
                           . 0892   Ponctions' .
                           . 0893   Incisions  .
                          -        Sutures. Organo-raphies.
                           .0894
                           . 0895   Organo-tomies  .
                           . 0896   Organo-stomies  .
                           . 0897   Organo-ectomies (ablations, resections)  .
                           . 0898   Organo-pexies (plasties)  .
                           . 0899   Autres operations  .
                                     Les divisions sont prop res a chaque maladie.




                                                                                                   ,






                           6I6.I            PATHOLOGIE INTERNE



                           PATHOLOGIE INTERNE                en PARTICULIER.
                           616.1    Maladies du    syterne  circulatoire  .

                               . II   Maladies du  pericarde  .
                               . 12   Maladies du creur.
                               • 12.008     Troubles fonctionnels cardiaques  .
                               . I2.008I      Modifications du rythme et des bruits
                                                                           .
                               • 12.008II      Modifications du rythme en general.
                               . 12.008I2      Arythmie  .
                               . I2.008I4      Palpitations  .
                               .I2.008I5       Tachycardie
                               .I2.008I6       Modifications dans le choc du cceur.
                               .I2.008I7                   dans les traits en general.
             I
                               . I2.00818      Souffles cardiaques  .
             I·                . I2.008I9             precordiaux  .
                               . 12.0083      Troubles  mecaniques de la fonction  cardiaque        I.
            I.                                                                    .
            II                 . I2.0085             dus a l'age
                                                             .
                               . I2.0086             dus a l'affaiblissement du cceur.  Asystolie  .
                               • 12.0088
                                                     d'origine nerveuse .
                               . I2.0088I      Cardialgie  .
                               . 12.00882      Angine de poitrine  .
                               . I21    Maladies du cceur dans son ensemble
                                                                        .
                               . I2I.I5     Cyanose  .
                               • 122    Affections du cceur gauche
                                                               .
                               . I23             du cceur droit  .
                               .124     Ventricules en  general.
                               .1'25    Oreillettes en  general.
            II
                               . 126
                                        Endocarde .
                               .I26.3     Valvules en general.
                               . I26·4    Valvules auriculo-ventriculaires
            ,Ii                                                    .
                               . I26·42     Valvules mitrales
                                                          .
                               .I26·42I      Retreclssement mitral.
                               . 126.422     Insuffisance mitrale  .
                               .I::26·423    Affections mitrales cornbinees avec cl'autres affec­
             II                                tions valvulaires.
             I'
                               • I26·46     Valvules  tricuspides  .
             I'                • I26·46I     Retrecissement tricuspide  .
                               .126.462      Insuffisance  tricuspide.  /
                               .I26·463     -  Affections tricuspides  cornbinees  avec d'autres
                                               affections valvulaires.
                               . I26.5    Valvules de l'aorte et de l'artere pulmonaire  .
             II                . I26.52     Valvules  aortiques .
                               • I26.52I
                                             Retrecissernent aortique
                                                                 .
                               • 126.522     Insuffisance aortique  .

             Iii












                                       PATHOLOGIE INTERNE             616.153.0593

                       616.126.523      Affections de I'orifice 'aortique cornbinees  avec
                                          d'autres affections valvulaires.
                          . 126.56     Valvules pulmonaires  .
                          . 126.561     Retrecissement pulmonaire  .
                          .126.562      Insuffisance pulmonaire.
                                                                         /
                          .126.563      Affections de l'orifice pulmonaire combinees avec
                                          d'autres affections valvulaires.
                          . 127    Myocarde  .
                          . 13   Arteres  .
                          . 134    Anevrysmes  .
                          . 14   Veines  .
                          . IS   Sang. Maladies du sang  .
                          . 15.05     Formes des maladies du sang  .
                          . 15.051     Maladies du sang dans les divers vaisseaux  .
                          . 15.058     Alterations du sang apres la mort .
                          .15.059      Maladies du sang dans ses differentes parties.
                          . 151    Serneiologie du sang  .
                          . 151.1    Modifications des proprietes physiques du sang .
                          . 151.13
                                      Fluidite .
                          • 15I.14     Densite  .
                          . 151.16    Quantite  .
                          . 151.164     HypoglobuIie  .
                          . 151.166     H
                                          yperg 10bulie .
                                               -
                          .151.17     Coloration.
                          . 151.19    Modifications dans les elements .
                         .151.2      Modifications des proprietes chimiques du sang;
                         .151.21      Composition chimique.'
                         . 151.22     Alcalinite .
                         . 151.23     Matier es grasses du sang  .
                         . 151.24     ,  Albumines pathologiques du sang  .
                         . 151.25     Matieres azotees cristalhsables pathologiques
                                                                          .
                         . 151.26     Substances chimiques inorganiques (anormales)  .
                         .151.27      Gaz du sang au point de vue pathologique.:
                         .151.28      Substances chimiques du sang dans les etats patho-
                                        logiques.
                         . 151.34     Ecoulements de serosite  .
                         .15L35       Accumulations du sang:
                         . 151.36     H emorr hagies
                                                  .
                         . 151.37     Pus dans Ie sang  .
                         . 151.38     Bile dans le sang
                                                    .
                         . 153    Anemic .
                         . 153.05      Formes de I'anemie .
                         .153.6522       Anemic chronique.
                         . 153.0593       Chloro-anemie .












                           616.153.0594      PATHOLOGIE INTERNE


                             616.153.0594       Anernie pernicieuse.
                               .  154    Chlorose  .
                                . 156    Hemophilic  .
                                . 157    Leucocytose  .
                                . 158    Leucemie. Leucocythemic  .
                                159
                                .        Maladies du sang dans son ensemble  .
                                . 159.1    Intoxications du sang  .
                                . 159.26    Parasitologie du sang  .
                                .159.261      Parasites animaux en general.
                                . 159.263     Protozaires et radies  .
                                .159.263. IS      Infusoires.
                                . 159.263.16      Flag elles .
                                . 159.265     Articules  .
                                .159.265.1      Verso
                                . 159.265.2     Entozoaires .
                                . 159.265.3     Trematodes  .
                                . 159.265.4     Cestodes .
                                .159.265.7      Insectes.
                                . 159.265.9     Autres parasites animaux elu sang  .
                                :159.269      Parasites veg etanx.
                                . 159.27     Putrefaction et decomposition elu sang  .
                                . 159.28     Destruction du sang  .

                            6I6.2    Maladies de   l'appareil respiratoire.
                                . 21   Nez.  Naso-pharynx  .
                                ·22    Larynx.
                                      .
                                . 23   Trachee et bronches  .
                                . 231    Trachee .
                                . 233    Bronches en  general  .
                                . 234    Grosses bronches .
                               '.235     Petites bronches.
                                . 236    Appareil broncho-pulrnonaire  .
                                . 239            trachelo-bronchi que  .
                                . 24   Poumons .
                                .  241   Pneumonie .
                                ,242     Congestion.
                                .  243   Hernorrhagies  .
                                244
                                .        Abces .
                                . 245    Grangrene  .
                                . 246    Phtisie  .
                                           Voir aussi 6I6.995 Tuberculose  .
                                . 247    Embolie et anevrysme de lartere pulmonaire.













                                       PATHOLOGIE INTERNE


                       6r6.248     Emphyserne. Asthme.
                          .  249.  Autres affections du poumon  .
                          . 25    Plevres .
                          .  254   Pneumothorax  .
                          . 255     Hemothorax .
                          . 256    Hydropneumothorax  .
                          . 257    Pyopneumothorax  .
                          . 258    Hemopneumothorax  .
                          . 26   Affections du diaphragme  .
                          . 27             du mediastin  .
                          . 29             de la totalite de l'appareil respiratoire .

                       616.3   Maladies du    systerne digestif.
                                     Voir aussi 617.6 Dents  .
                          . 31    Bouche.  Langue. -Joues. Amygdales. Angines.
                                    Oreillons.
                                     On ecrira par combinaison avec les subdivisions communes:
                                        T'raitcmc1ti de l'augine s)'/Jkllitique 6I6.3.rS.0026.o8.
                                       C()mpllcatiolls las/ieu/aires des ordllolls 6.r6.JI7.2.Ot/68.
                                        Ulcd1?cdiolls tr/ocrcotauses de la laug"uc cli.c.:r las cufants
                                         6I6.SI •. 002S.0SS •.
                          . 3r r
                                   Levres .
                          . 3r2    Bouche. Stomatites  .
                          . 3r 3   joues  .
                          .  314   Langue  .
                          . 315    Vofite palatine. Voile du palais. Amygdales Angines  .
                          . 3r6    Gencives et machoire  .
                          . 317    Glandes salivaires  .
                          . 317.2    Oreillons  .
                          .3r9     Autres organes.
                          . 32   Pharynx. CEsophage  .
                          . 33   Estomac  .
                                     Yoir aussi 6r6.39[ Dyspepsie.
                          . 33.008    Troubles fonctionnels  .
                          . 33.0081     Vomissements  .
                          . 33.0082     Anorexie  .
                          . 33.0083     Gastralgies  .
                          . 34   Intestin  .
                          .34r     Intestin grele en general.
                          . 341.008     Troubles fonctionnels .
                          . 341.0081      Douleurs  .
                          . 341.0082      Coliques  .













                           616.341.0083      PATHOLOGIE INTERNE


                             616.341.0083      Constipation.
                                . 341.0084     Diarrhee .
                               .  342    Duodenum  .
                                343
                               .         Jejunum  .
                               .  344    Ileon .
                               .345      Caecum.
                               .  346   A ppendice ileo-crecal  .
                               .347      Gros intestin en general.
                               .  348    Colon, Siliaque  .
                               .35     Rectum et anus.
                               . 35.008   Troubles fonctionnels  .
                               .35.0081     Douleur.
                               .35.0082     Tenesme rectal.
                                                             -"
                               .36.    Foie et voies biliaires.
                                          On ecrira par combinaison  avec les subdivisions communes:
                                             Complications car dtaqnes de la cirrhosc alcooliqlte dnfoie {Sc/tjyose)
                                              6I6.36.o01·01I2•
                                            Recherclte  des Idgments  blliai??es de "urine dans les coliqm!S
                                             lu!jafiques (calmls) 6I6.36.oo37.0767
                               . 36.008    Troubles fonctionnels  .
                               . 36.0084     Congestion  .
                               . 36.0085     Ictere .
                               . 36.0086'    Insuffisance hepatique  .
                               .36.0087      Asystolie hepatique.:
                               . 37   Pancreas  .
                               . 38   Peritoine. Epiploon. Mesentere. Ascite  .
                               . 381    Peritoine  .
                               . 381.7    Ascite .
                               . 381.8    , Peritonisme  .
                               . 382    Epiploon  .
                               .383     Mesentere.
                               . 39    Maladies  dietetiques  .
                                391
                               .        Dyspepsies  .
                               .  392   Scorbut .
                                393             .
                               .         Inanition
                               .  394   Indigestion  .
                           616.4    Maladies du    systerne lymphatique     .
                               . 41    Rate  .
                               . 42    Lymphatiques. Canal thoracique  .
                                421
                               .        Systeme lyrnphatique en general.













                                       PATHOLOGIE INTERNE                 6r6.547


                       616,422     Vaisseaux  lymphatiques en general.  .
                          .  423   Citerne de Pecquet  .
                          424           thoracique  .
                          .        Canal
                          .  425   Grande veine lymphatique  .
                          . 43   Thymus  .
                          ·44    Corps thyrolde.
                          .  45  Capsules surrenales  .
                                        Infection tuberculeuse. Maladie d'Addison.
                      616.5   Dermatologie.
                                                                              \.
                          .5!    Affections
                                           inflammatoires, diffuses, papuleuses,
                                   squameuses.
                          . 5rr    Erythemes  .
                          . 512    Dermatites  .
                          .5r3     Pityriasis,
                          .  514   Urticaire .
                          . 515    Prurigo  .
                          . 5r6    Lichen .
                          .517     Psoriasis.'
                          . 518    Ichthyose  .
                          . 519    Autres affections
                                                 .
                          . 52
                                 Affections catarrhales, vesiculeuses, pustuleuses
                                                                               .
                          . 52!    Eczema  .
                          . 522    Impetigo  .
                         . 523     Herpes  .
                         ,
                          .524     Zona.
                       I
                         .525      Hydroa.
                         . 526     Acne  .
                         . 527     Pemphigus  .
                         . 528     Ecthyma  .
                         .  529    Autres affections  .
                         . 53    Affections des glandes sebacees
                                                              .
                         .55     Hypertrophies. Atrophies. Comes. Verrues.

                         .  541    Keratolysis'  .
                         .  542    Scleroses. Scleroderrnie  .
                         :544     Atrophies  .
                         .  545   Verrues.
                         .  546   Cernes .
                         .  547   Hypertrophie  .













                                              PATHOLOGIE INTERNE


                                          Elephantiasis.
                                          Autres affections.
                                        N eoforrnations. Changements  de  pigmentation.
                                          Taches de rousseur.  ?lbinisme.
                                 . 56   Affections des  glandes  sudoriferes .
                                 . 57   Maladies parasitaires  de la peau  .
                                 . 57.0025     Tuberculose cutanee. Lupus  .
                                 . 58   Autres affections de la peau  .
                                 . 581   . Engelures  .
                                 . 582    Congelations et gelures  .
                                 . 583    Gercures  .
                                 . 59   Affections des diverses parties de la  peau  .
                                         I
                                 . 59!    Epiderme  .
                                 . 592    Derme .
                                 .  593   Muscles de la peau  .
                                 .  594  . Follicules pileux. ·Poils. Cheveux .

                             6I6.6    Maladies du    systerne genito-urinaire.
                                            Pour Iee maladies des or-ganes gen ituux, voir aussi 617.558.1.
                                 .61    Reins et ureteres  .
                                 . 62  . Vessie  .
                                 . 63   Troubles urinaires  .
                                 . 631    Diabete sucre .
                                 . 632           insipide  .
                                 . 633    Glycosurie  .
                                 . 634    Albuminurie  .
                                 .. 635   Polyurie  .
                                 . 636    Hematurie ..  -
                                 .637     Hemoglobinurie  .
                                 . 638    Urernie  .
                                 . 639    Autres troubles.
                                 . 639.1    Chylurie  .
                                 . 639.2    Pyurie  .
                                 .64     Urethre  .
                                 . 65    Prostate  .
                                 . 66    Penis  .
                                 . 67    Scrotum.













                                   PATHOLOGIE INTERNE                  616.82

                   6I6.68    Cordon  spermatique et  testicules.

                      . 69   Troubles fonctionnels des organes de la generation
                                                                           .
                      .  691   Spermatorrhee  .
                      .  692   Impuissance  .
                      .  693   Satyriasis  .
                      .  694   Priapisme ..
                  6r6·7   Maladies des    organes locomoteurs.
                      ·7I   ,  as.
                      . 71 I
                               Osteomalacie .
                   ..
                      .714     Acromegalic  .
                     . 72    Articulations .
                                Voir auasi 616,991.3 Rhumatismes.
                     . 73    Colonne vertebrale .
                     ·74     Muscles.
                     . 75    Tendons. Aponevrcses
                                                  .
                     .  76   Gaines des tendons  .
                     ·77     Tissu  conjonctif.

                 6r6.8    Maladies du    systerne  nerveux.
                     . 8.03    Semeiologie generale  .
                     . 8.039     Semeiologie speciale  .
                     .  8.039.1   Signes classes par organes  .
                     .  8.0392    Troubles fonctionnels en general  .
                      8.0393                        .
                     .                    de la motilite
                     .  8.0394            de la sensibilite .
                     .8.0395              des reflexes.
                      8,,0396             trophiques  .
                     .
                     . 8.0397             de l'intellig ence  .
                      8.0399                   .
                     .            Autres troubles
                     . 8I   Troubles de la circulation cerebro-spinale  .
                     . 8Il    Congestion cerebrale .
                                       •
                     .812     Anernie.
                     .  814   Apoplexie  .
                     .815     Hemorrhagic.
                     . 816    Embolies  .
                     . 817    Thrombose et phlebite  .
                      819                                   .
                     .        Troubles circulatoires de la moelle
                                        I
                     .82    Meninges.



                                                                                                   -


                                                                                                   I
                                                                                                  i


                              616.821          PATHOLOGIE INTERNE


                               616.821     Dure-rnere.
                                  . 822    Pie-mere .
                                  . 823    Arachnoide .
                                  .  824    Liquide cephalo-rachidien  .
                                  .83     Maladies it substratum anatomique  du cerveau et
                                            de la moelle.
            I
                                  .831      Encephale,
            ,                      . 831.1    Cerveau  .
            ,                     . 831. II    Circonvolutions  .
                                  . 831.12     Hemispheres  .
                                  . 831.13     N oyaux centraux .
                                  . 831. 14    Couches optiques  .
                                   . 831. IS   Corps opto-stries  .
                                   . 831. 16   Ventricules Iateraux .
                                   .831.17               moyens.
                                                  .
                                   . 831.18     Pedoncules  .
                                   . 831.2    Cervelet  .
                                   . 831.3    Protuberance .
                                   . 831.4    Glande pineale  .
                                   .831.5           pituitaire .•
                                   . 831.7    Bulbe rachidien .
                                       "
                                   .832     Moelle."
                                   . 832.004   Scleroses  .
                                   . 832.0042    Sclerose en plaques  .
                                   . 832.0044           laterale  .
                                   . 832.0046    Maladie de Friedreich .
                                   . 832.0047    Maladie de Little  .
                                          "
                                   .832.0048     Sclerose diffuse  .
                                   . 832.0049    Autres scleroses.
                                   . 832.5    Syringomyelie  .
                                   . 832.6    Hematomyelie  .
                                   . 832·7    Affections des diverses parties de la moelle .
                                   . 832.71     Substance grise  .
                                   . 832.72     Cordons anterieurs  .
                                   .832.73             posterieurs.
                                   . 832.734      Tabes. Ataxie locomotrice  .
                                   . 832·74     Cordons Iateraux .
                                   .832.75      N oyaux medullaires.  •
                                   . 832.76     Racines  .
                                   .832·77      Queue  de cheval.
                                   .832.79      Autres parties.
                                   . 832·9     Autres maladies de la moelle  .
                                    .832.91    _  Paralysie ascendante aigiie.
                                    . 832.g3    Paralysie  infantile .
                                   ".84    Maladies fonctionnelles du cerveau et de la moelle.
                                                                                                   ",






     ,
     I




                                    PATHOLOGIE INTERNE             616.851.595

                    616.841     Vertiges.
                       .842     Paralysies en general.
                       .  843   N eurasthenie .
                       844              spinale  .
                       .        Irritation
                       .845     Eclampsie.
                       .  846   Convulsions .
                       .  847   Nareolepsie  .
                       .848     Insomnie.
                       .  849   Troubles divers classes nominalement .
                       . 849·4    Troubles de la motilite  .
                       . 849.41     Akinesie  .
                       .849.42     Astasie. Abasie  .
                       . 849.43    Tremblernents.
                       . 849.43.012
                                       Physiologie pathologique du tremblement .
                       .  849.432    Tremblernent  alcoolique  .
                       .849.433                 mercuriel.
                      . 849.434
                                                senile .
                       . 849·44    Tics .
                       . 849.45    Paralysies  .
                      . 849.46     Hemiplegies  .
                       . 849·47     Dipleg ies  .
                       . 849.48
                                   Parapleg ies .
                      . 849·49     Autres troubles de lit motilite
                                                          .
                      . 849.5    Troubles de la sensibihte
                                                     .
                      . 849.52     Therrno-anesthesies et  thermo-hyperesthesies  .
                                                                       .
                      .849.54      Anesthesies,
                      . 849.55     Hyperesthesies  .
                      . 849.56     Synesthesie  .
                      . 849.6    Troubles des reflexes
                                                  .
                      . 849·7            trophiques  .
                      . 849.8            de  !'intelligence  .
                      .849.81      Delire.  _
     II
                      . 849.82     Aboulie .
                      . 849.83
                                   Amnesic .
                      . 849.86     Coma .
                      .849.88      Sommeil.
                      . 849.89     Autres troubles .
                      . 85    Nevroses .
                      . 851    Choree  .
                      . 851.59     Diverses formes ·de choree .
                      . 851.591
                                     Hemichoree .
                      . 851.592      Paramyoclonus  .
                      . 851.593      Choree vraie gesticulatoire  .
                      . 851.594            molle .
                      . 851.595            fausse  electrique (Choree de  Bergeron)  .

    "













                              616.851.596      PATHOLOGIE INTERNE

                         ,                       Choree fibrillaire de Morvan.
                                616.851.596
                                   . 851.597.          de Hutchinson  .
                                   . 851.598           de Fubini .
                                   . 851.599     Autres formes  .
                                   . 852    Hysteric  .
                                   .853     Epilepsie.
                                   . 853.59    Formes diverses de I'epilepsie  .
                                   . 853.591     Epilepsie Iarvee  .
                                   . 853.592             partielle  .
                                   . 853.593     H ystero-epilepsie  .
                                   . 853.594     Epilepsie corticale .
                                   .853.595              procursive.
                                   . 853.596             tardive  .
                                   .853.597              nocturne.
                                   . 853.598             psycho-sensorielle  .
                                   . 853.599     Autres formes .
                                   .854     Tetanie. Trismus. Tetanos symptomatique.  Contrac­
                                              tures.
                                   . 854.1    Tetanic .
                                   . 854.2    Trismus .
                                   . 854.3    Tetanos symptomatique  .
                                   . 854.4    Contractures  .
                                   . 855    Troubles du langage  .
                                   . 855.1    Aphasie  .
                                   . 855.2    Agraphie  .
                                   . 855.3    Cecite verbale .
                                   . 855·4    'Surdite verbale  .
                                   .855.6     Beg aiement;
                                   . 855·9    Autres troubles  .
                                   . 855.91     Echolalie .
                                   . 855.92     Coprolalie  •
                                   . 855·94    . Dysphemie  .
                                   . 855.96     Alexie .
                                   . 856    Anesthesies et hyperesthesies  .
                                   • 856.1    Anesthesie g eneralisee  .
                                   . 856.2             partielle  .
                                   . 856.3             tactile .
                                   . 856.5             thermique  .
                                   . 856.6    Hernianesthesie .
                                   . 856.8    Hyperesthesie  .
                                   . 856·9    Autres formes .
                                   . 856.92     Cenesthesie .
                                   . 856.93     Synesthesie  •
                                        .
                                   . 857    Migraine et cephalalgie  .
                                   • 857.49     Rapport avec la goutte et les autres diatheses  .
                                   • 858    Paralysie agitante  .












                                       PATHOLOGIE INTERNE
                                                                       616.878.29

                       616.859     Autres nevroses,
                          .859.1     Mal de mer.

                          . 859.2      Voir aussi 612. 886.2 Physiologie ..
                                     Mal de voiture .
                          . 859.3•    -
                                         de theatre .
                          . 859.4     -  de  montagne  .
                                     .
                                       Voir aussi  I Physiologie.
                                             ?I2.275.
                          8,59.5             .
                          .          Catalepsie
                         . 859.6     Maladie de Basedow  .
                         . 859.7     Erythrornelalgie  .
                         . 859.8     Maladie de Raynaud
                                                     .
                          . 859.9
                                     Autres nevroses .
                         . 859·9I
                                      Nostalg ie .
                         . 859.94     Crarnpe des ecrivains  .
                         .86     Nevroses  d'origine toxique.
                         . 861    Alcoolisme  .
                                     Voir aussi 615.711.21 Tberapeutique
                                                          .
                         . 862    Tremblements rnercuriques.
                                    Voir aussi 615.732.6 Therapeutiqiie .
                         . 863    Nevroses par substances  organiques  .
                         . 864             par auto-intoxieation  .
                         . 865.   Eclampsie.
                                    Voir aussi 616.845 Eclampsie d'origine fonctionnelle
                                                                   .
                         .  87  Maladies des  nerfsperipheriques  .
                         .  871   Analgesics  .
                         .  872   Neyrites  .
                         . 873    Crampes  .
                         .  878   Troubles fonctionnels.
                         . 878.1    N evralgies  .
                         . 878.15     Nevralg ie de la 5e paire  .
                         • 878.19
                                              des autres nerfs .
                         • 878.195
                                       N evralg ie des nerfs rachidiens .
                         • 878.195.4     N evralgie intercostale
                                                           .
                         .878.195.9               sciatique.
                         . 878.2    Paralysies  .
                         . 878.21     Paralysie de la Ire paire  .
                         .878.22                  2e
                         .878.23                  3e
                         .878.24                  4e
                         .878.25                  5e
                         .878.26                  6e
                         .878.27                  7e
                         .878.28                  8e                                     I
                         • 878.29    Paralysie des autres nerfs  .












                                             PATHOLOGIE INTERNE


                              616.878.295      Paraly?ie  de la ge paire.
                                .878.292                   10e
                                .8f8.293                   lIe
                                .878.294                   12e
                                ·Q78.295       Paralysie des autres nerfs.
                                ·?78.295.1       Plexus cervical superficiel.
                                . S78.295.2                 profond  .
                                . 878.295.3      N erfs intercostaux .
                                . 88   Grand sympathique  .
                                ,881     Ganglions cervicaux._
                                .. 882            thoraciques  .
                                . 883             abdominaux  .
                                . 886    Innervation de l'iris  .
                                .887                du cc:eur.
                                .888                du tube digestif.
                                . 888.1     CEsophage  .
                                . 888.2     Estomac  .
                                 . 888.3    Intestin .
                                 .  889   Innervation des vaisseaux. Troubles vaso-moteurs  .
                                . 89    Maladies mentales. Psychoses. Psychiatric •.
                                          Voir pour les asiles d'alienes 613.56;  pour les rapports medico-Iegaux et les
                                         .
                                           expertises 614,.23;  pour la psychologie normale 6X2.82I.
                                 ;891     Folie en  general.
                                 . 891.1    Rapports de la folie avec le genie  .
                                 :-891.2    Rapports de la folie avec le crime.
                                 .891.3     Biographies d'alienes et autres au point de vue mental.
                                              Voir aussi 343.9 Anthropologie criminelle.
                                 . 892    Paralysie generals  .
                                 . 893    Confusion mentale  .
                                 .  894-  Degenerescence mentale .
                                 . 895    Delire aigu  .
                                 . 896    Folie  periodique  .
                                 • 897    Delire de  persecution  .
                                 .  899   Autres maladies mentales  .
                                 :899.1     Manie.
                                 . 899.3    Demence .
                                                   -
                                 .899.5     Phobies.
                                 . 899·7    Obsessions .
                                 . 899.8    Impulsions  .
                                 . 899·9    Autres maladies mentales .
                                 . 899.95     Imbecillite .
                                 . 899·97     Idiotie .
                                 . 899·99    . Autres maladies mentales .













                                      PATHGLOGIE INTERNE

                       -
                    ·6r-6·9   Maladies   generales et infections.
                         . 91   Fievres infectieuses .
                        .
                         ·9Il     Fievres  eruptives en general.
                         .  912   Variole .
                         . 913    Vaccine  .
                         914      Varicelle .
                         .
                         .915     Rougeole.
                         .916     Rubeole,
                         .  917   Scarlatine .
                         .  918   Suette militaire  .
                         919      Autres fievres eruptives  .
                         .
                         . 92   Fievre en
                                         general. Autres fievres .
                         . 92.008    Troubles fonctionnels  .
                         . 92.008.1
                                            circulatoires .
                         '92.008.2          respiratoires.
                         . 92.008.3
                                            de nutrition .
                         . 92.008.32
                                      Dyspepsies et anorexies  .
                         . 92.008.33  Amaigrissement. Perte de  poids  .
                         . 92.008.6  Urine dans les fievres  .
                         '92.008:8  . Troubles nerveux.
                         '92.008.81      Delires febriles.
                         921      Dengue  .
                         .
                         .  922   Typhus  .
                         923      Peste .
                         .
                         924      Fievres a rechute et de famine ..
                         .
                         .  925   Meningite cerebro-spinale epidemique  .
                         926      Fievre continue .
                         .
                         .  927         typhoide  .
                         .928          jaune,
                         .  929  Autres fievres  .
                         .  93  Autres maladies infectieuses .
                         .  931   Diphterie  .
                         .  932   Cholera  asiatique  .
                         . 933           nostras  .
                        .  934    Diarrhee  epidernique  .
                         .  935   Dysenterie  .
                         . 936
                                  Malaria .
                         . 937    Beriberi  .
                         .  938   Influenza et  grippe  .
                         .939     Autres affections infectieuses.­
                         ·94    Maladies  septiques.
                         .  941   Phagedenisrne  .



            r                                                 f








                                                    PATHOLOGIE INTERNE



                                       942
                                      .         Erysipele  .
            I·                        . 943    Pyohemie ..
                                      ·944      Septicemie,
                                      .945      Pourriture d'hopital.
                                      .  948    Purpura infectieux  .
                                                Maladies microbiennes diverses.
                                      ·949
                                      . 949.1     Streptococcie  .
            I
                                      .  949.2    Staphylococcie  .
            1                          .949.3     Colibacillose.  .
                                                  Pneumococcie
                                       . 949.5
                                       . 949.6    Gonococcose  .
                                       .95    Maladies veneriennes, hydrophobie,  etc.
                                       .951     Syphilis en general.
                                       . 952    Blennorrhagie  .
                                       . 953    Rage. Hydrophobie  .
                                       .954     Morve.                                                ,
                                       .955     Horse-Pox, (Vaccine equine).
                                       .  956   Charbon. Sang de rate. Fievre splenique  •
                                       .957     Chancre mou  (Bubons),
                                       .958     Farcin  .
                                       . 959    Autres affections.
                                       . 96   Maladies parasitaires  .
                                       .961     Parasites animaux en general.
                                       .962     Entozoaires  .
                                       . 963    Trematodes. Vers  (Fascioles  et Douves)  .
                                       .  964   Cestodes. Tenia. Hydatides  .
                                       . 965    Nematodes. Vers ronds et linguilormes.  Trichine .
                                       .  966   Acanthocephales  .
                                       .  967   Insectes parasites.  Larves  .
                                       . 968    Ectozoaires.
                                       ·968.I     Moustiques, cousins, punaises, puces, pous.         ,
                                       .968.5     Araignees parasites; mites; tics  .
                                       . 968.8    Parasites suceurs; sangsues.
                                       .  969   Parasites vegetaux  : mycoses  diverses  .
                                       .969.1     Leptothrix buccalis  .
                                       . 969.2    Muguet  .
                                       . 969.3    Aspergillus  .
                                       . 969.7    Actinomycose.
                                       ·97    Action des poisons.
                                                Voir Saturnisme 615.739.r5; Nicotisme 615.782.22; .Alcoolisme 615·7rLI2  .

                                       .  99  Autres maladies generales diatnesiques  .
                                                Diatheses. Maladies dystrophiques.  Rhurnatisme.
                                       . 99I






             I
            U













                                     PATHOLOGIE INTERNE                 616,998


                      616·991.1     Arthritisme.
                        ·991.2      Herpetisme.
                        ·991.3     Rhumatisme.
                        ·991.7     Obesite.
                        ·991.8     Goutte.
                                   Autres maladies dystrophiques.
                        ·991.9
                                 Tumours en general  et tumeurs congenitales
                         992
                        .                                              .
                        .  993   Tumeurs benignes  .
                        . 993.1    Angiomes  .
                        . 993.2    Osteornes .
                                                                                             -
                        . 993.3    Fibro-myomes et myornes  .
                        . 993.4     Chondrornes  .
                        . 993.5    Myxomes  .
                        . 993.6     Lipornes  .
                        . 993.7     Fibromes purs  .
                        . 993.8     Kystes  .
                        . 993.9    Autres tumeurs benignes  .
                        . 993.91     Condylornes  .
                        . 993.92     Papillornes benins  .
                        ...993.93    Molluscum  .
                        . 993.94     Polypes  .
                                 Tumeurs malignes.
                        ·994
                        . 994.  I  Adenomas  .
                        . 994.2    Sarcomes .
                        . 994.3     Endotheliornes  .
                        ·994·4     Cylindrornes,  deciduornes.
                        . 994.5    Epitheliomes  .
                        . 994.6     Cancers .
                        . 994.61     Encephaloides  .
        I               . 994.63     Squirrhes  .
        ,
                        . 994.64     Carcinomes .
                        ·994·7     Lymphomes.
                                   .
                        . 994.8     Melanomes,  melanoses  .
                                    Autres tumeurs malignes.
                        ·994·9
                        . 994.91     Tum?urs vegetantes  .
                        '994.92      Papillomes malins.
                        .  995   Tuberculose .
                        .  996   Scrofules, rachitisme  .
                        ·997     Myxeedeme, cretinisme.
                        .998     Lepre.

































































































                                    MANUELS POUR L' USAGE
                      DES REPERTOIRES       BIBLIOGRAPHIQUES SPECIAUX




                       L'Institut  a prepare  une collection de MANUELS pour l'usage et la
                     formation des repertoires bibliographiques de chaque science particuliere,
                     Ces manuels comprennent,  outre la partie des tables de classification
                     bibliographique propres a la science envisagee,  un expose general  des
                     principes  de la classification, des regles pour la redaction des notices
                     bibliograp.hiques,  des regles  pour  la publication  des  recueils biblio­
                     graphtques  et la formation des repertoires  sur fiches,  des regles pour
                     la cooperation  au Repertoire bibliographique  universel  et enfin des
                     conseils pratiques  pour l'organisation  des bibliotheques,  la formation
                     de  leurs catalogues  et le  classement  des  ouvrages  sur  les  rayons.
                     Ces manuels sont destines  aux specialistes de chaque branche des  con­
                     naissances. Ils reproduisent, sous une forme pratique, les divers docttlnents
                     deja parus ailleurs, pour la preparation  et l'emploi des recueils et des
                     repertoires bibliographiques speciaux,
                       Les divers manuels de la collection  se vendent  separement. Chaque
                     manuel forme UD. numero special desJpublications de l'Institut Interna­
                     tional de Bibliographie.


                                       ONT PARU A CE JOUR:

                     Publication no 26.  -  Manuel  pour l'usage  du  Repertoil'e bibliographique  des
                       Sciences  Physiques [025.4: 53].         Prix:  2 francs.
                     Publication  nO  40.  -=- Manuel  PWY l'usage  des  Repel'toires bibliographiques
                       [025·4]·                                 Prix: 2 francs.
                     Publication nO  4I.  -? Manuel pour l'usage  du  Repertoire bibliographique  des
                                                    .
                       Sciences Agricoles [025'4: 63].              : 5 francs.
                                                                f.rix
                     Publication no 45.  -  Manuel  POUI' l'usage d2t'Repertoire bibliogl'aphique  des
                       Sciences Photographiques [625·4 :)7].    Prix: 2 francs.

                     Publication no  48.  -  Manuel pour l'usage  du  Repertoil'e bibliographique  de la
                       Locomotion et des Sports [025·4: 629.1J + [025.4: 79].
                                                                Prix:  2 francs.










































                                          L'AUXILIAIRE BIBI,.IOGRAPHIQUE
                               IMPRIMERIE DE L'I),<STITUT INTERNATIONAL DE BIBLIOGRAPHIE
                                           RUE VEYDT, 70, BRUXEI,LES.

