






















                              C O N G R È S  M O I V O I A L
                                        D E S
               A S S O C I A T I O N S  I N T E R N A T I O N A L E S  N°23
               ^         Deuxième  session  :  GAND-BRUXEIAES,  15-18  juin  1913
                   Organisé  par 'Union  des Associations  Internationales
                              l
                         Office  central  :  Bruxelles,  31MS,  rue  de  la  Régence
                                                                       2  e  Section
               Actes  du  Congrès.  —  Documents    préliminaires.




                         Statut    Juridique     des   Associations

                                      Internationales



                      Le  Statut  international  des  Associations  Charitables
                   à  la  Conférence diplomatique  d'assistance  des  étrangers
                                       (Paris  1912-1913)

                                               P A R

                                   CYR.  VAN    O V E R B E R G H


                                           [ 3 4 7 . 4 7 1 - 6 ]



                     Un   fait  nouveau  d'une  portée  internationale  considé-
                   rable  s'est  produit  à  la  Conférence  d'assistance  aux  étrangers,
                   conférence  diplomatique des  États,  réunie  à  Paris,  en  novembre
                   dernier.  Le  protocole  des  débats  vient  de  parvenir  aux  inté-
                   ressés  ;  et,  suivant  une  entente  formelle, l  est  permis,  à  partir
                                                          i
                   de  ce  moment,  d'en  saisir  l'opinion  publique.
                     Le  fait  nouveau  qui intéresse  toutes  les  Associations  Interna-
                   tionales,  c'est  le  vote  unanime  par  les  représentants  des  vingt
                   Puissances,  réunies  en  Conférence  diplomatique,  d'un  vœu  en
                   faveur  d'un  projet  de  convention  relatif  à  la  création  d'un
                   statut  international  des  associations  et  établissements  constitués
                   en  vue  de  l'assistance aux  étrangers.
                     Nous  en  examinerons  sommairement  les  origines, a  teneur
                                                                      l
                   et  la  portée.























                                                                                                                                    -  3  —

                     On  verra  que  cette  manifestation  d'internationalisme,  dans                     pays  d'origine ;  elles  seront  autorisées  à  posséder,  à  recevoir  des
                  une  des  matières  les  plus  délicates  et  les  plus  difficiles du  Droit,          dons  et  des  legs (1). »
                                     i
                  marque  un  progrès mportant  des  idées  internationales.                                Entre  la  publication de  cette  conclusion  et  le  Congrès  de  Co-
                                                                                                          penhague  se  produisit  un  fait  capital  :  la  réunion  à  Bruxelles,
                                                                                                          du  premier  Congrès  Mondial  "des  Associations  Internationales,
                                     I .  —  L E S  O R I G I N E S                                       où  fut  discuté  avec  tant  d'éclat,  le  statut  international.
                                                                                                            Les  comités  internationaux  de  bienfaisance,  représentés  à
                    A  raison  de  la  facilité  des  communications  et  de  l'internatio-               ce  Congrès, avaient  été  vivement  frappés  par  les arguments et  les
                  nalisation  du  marché  du ravail,  le  nombre  des  étrangers  aug-                    conclusions  de  ces  débats.
                                          t
                  mente  d'année  en  année  dans  la  plupart  des  États  civilisés.                      La  veille  du  Congrès  de  Copenhague,  la  délégation  française
                  D'où  l'augmentation  presque  proportionnelle  des  indigents                          déposait  l'amendement  suivant  : «  Les  Gouvernements prendront
                  étrangers  et  la  nécessité  de  secourir  à  leur  indigence.  Cette                  de  concert,  les  mesures  nécessaires  pour  déterminer  par  un
                                                       l
                  obligation  de  secours  incombe-t-elle  à 'État  de  résidence  ou  à                  statut  international,  les  droits  particuliers et  les  obligations  spé-
                  l'État  d'origine  5  Grosse  question  sur  laquelle  les  spécialistes                ciales  des  associations  ou  établissements  de  bienfaisance,  chargés
                  discutèrent  longtemps  sans  s'entendre.  Le  Congrès international                    d'assurer  à  l'étranger  du  secours  à  leurs  nationaux.  Ces  établis-
                  de  Copenhague  de  1910,  vota  à  l'unanimité  une  résolution  d'ac-                 sements  seront  créés  par  l'État  dont  les  indigents sont  en cause
                  cord.  Le  gouvernement  danois  accepta  de  mettre  en  branle  la                    et  agréés  par l'État  où  ils doivent  fonctionner. Ils pourront,  avec
                  diplomatie.  Finalement,  vingt  États  se  réunirent  en  novembre                     l'autorisation  de  chacun  de  ces  gouvernements,  accepter  les  dons
                  1912  à  Paris,  et  adoptèrent  provisoirement la  plupart  des  vœux                  et  les  legs  qui leur seront  faits. »
                  du  Congrès  de  Copenhague.                                                              Le  rapporteur  général  qui  lui-même  avait  été  un  des  secré-
                    U n  de  ces  vœux  visait  la  forme  juridique  à  reconnaître  aux                 taires  généraux  du  Congrès  de  Bruxelles,  fit  au  Congrès  de  Co-
                  soicétés  pour  l'assistance  des  nationaux  établis  sur'le  territoire               penhague,  et  d'accord  avec  le  Comité  international,  les  déclara-
                  étranger.  En  voici  le  texte  :  « Les  sociétés  pour  l'assistance  des            tions  suivantes  :
                  nationaux  établies  sur  territoire  étranger  doivent  être  encoura-                   «  Maintenant 'en  viens  à  une  question  très  importante  :  la
                                                                                                                         j
                  gées  le  plus  possible  par  le  Gouvernement  du pays où  elles  sont                question  des  sociétés  pour  l'assistance  des  nationaux  établis  sur
                  établies  et  par  le  pays  d'origine ; elles  seront  autorisées  à  pos-             territoire  étranger.  M.  le  délégué  de  Norvège  m'a  demandé  des
                  séder,  à  recevoir  des  dons  et  des  legs  suivant  un  statut  interna-            explications  spéciales  sur  le  complément  que,  d'accord  avec  les
                  tional  adapté  à  leur  but  ; elles jouiront  des  mesures  de  faveur  en            délégués  de  France  et  de  Suisse,  nous  proposons  d'ajouter  à a
                                                                                                                                                                    l
                  matière  d'impôts  ;  elles  pourront prétendre  à  la  collaboration                   cinquième  résolution  :  «Elles  (les  sociétés),  seront  autorisées  à
                  des  agents  diplomatiques  et  elles  recevront  les  subsides  néces-                 »  posséder,  à  recevoir  des  dons  et  des  legs,  suivant  un  statut
                  saires  à  l'accomplissement  de  leur  mission. »                                      »  international  spécial  adapté  à  leur  but,  etc.  » Voici  ce  que  je puis
                    Comment   en  arriva-t-on à  l'idée  de  statut international?                        vous  dire  à  ce  sujet  :
                    A  la  suite  des  nombreuses  séances  préparatoires  au  Congrès
                  de  Copenhague,  tenues  par  le  Comité  international pour  l'étude                     »  Nous  avons  eu  au  mois  de  mai,  à  Bruxelles,  un  Congrès
                  de  l'assistance  aux  étrangers, le  rapporteur  général  avait  intro-                international  d'un  genre  un  peu  spécial,  qui peut-être, a échappé
                  duit  dans  ses  conclusions  le  texte  suivant,  comme  base  de  dis-                à  l'attention  du  grand  public,  mais  qui  a  vivement  préoccupé
                  cussion  :  « Les  sociétés  pour  l'assistance  des  nationaux  établies               tous ceux  qui s'intéressent  au mouvement  international  des  idées,
                  sur  le  territoire  étranger,  seront  encouragées  le  plus  possible
                  par  le  Gouvernement  du  pays  où  elles  sont  établies  et  par  le                   (1)  L'assistance  aux  étrangers,  par  C Y R .  V A N  O V E R B E R G H .  Bruxelles.
                                                                                                          Dewitt,  1912,  p. 245.























                                            —  4  —                                                                                —   5  —

                  le  Congrès  Mondial  des  Associations  Internationales.  C'est  là                      Sous  cet  aspect,  le  statut  international fut ntroduit  par  le
                                                                                                                                                       i
                  un  fait  nouveau  dans  l'histoire de  l'humanité.  Je  ne  parle  ici                 Gouvernement  danois  auprès  des  Puissances.
                  que  des  sociétés  constituées  en  vue  de  buts  non  économiques.  I l                A  la  Conférence  diplomatique de  Paris,  deux  projets  se  trou-
                  en  existe  plus  de  200.  Savez-vous  combien  nous  avons  pu  en                    vèrent  en  présence.  L'un  émanait  de  la  délégation  française,
                  réunir  à Bruxelles?  132  !  Toutes  ont  été  heureuses  de  se  trouver              l'autre  de  la  délégation  belge.
                  à  ce  rendez-vous  pour  délibérer  sur  leurs  intérêts  communs  et                    Le  premier  se  contentait de  déclarer  : « Les  sociétés  de  bienfai-  ~
                  elles  ont  constitué  entr'elles  des  liens  permanents,  entre  autres              sance,  ayant  pour  but  d'assister  les  étrangers  pourront être  cons-
                  sous la forme  d'un  Office  Central.  E h  bien, voici des  institutions               tituées  conformément  aux  lois, soit  de 'Etat où  elles sont  créées,
                                                                                                                                             l
                  dans  lesquelles  les  différents  pays  adhérents  ont  chacun  le  même              soit  de  l'Etat  dont  elles  doivent  secourir  les  nationaux  ;  ainsi
                  droit.  Ce  sont  des  groupements  constitués  en  vue  de  sauvegarder               légalement  constituées,  elles  fonctionneront et  s'organiseront
                  des  intérêts  déterminés  très  élevés  : science,  philanthropie, etc.,              librement  sous  réserve  de  l'application  des  lois  de  police  et  de
                  et  dans  lesquels  les  différentes  nations  sont  absolument  sur  le               sûreté  du  pays  où  elles  ont  leur  siège  et  bénéficieront  des  avan-
                  même  pied d'égalité.  Comment  ces  sociétés  font-elles pour  vivre?                 tages  ci-après. »
                  Car  elles  vivent,  ne  fût-ce  que  d'une  vie  précaire.  Si  elles  sont              Cette  conception  qui  n'avait  avec  le  statut  international
                  en Belgique, elles  s'adaptent  à  nos  institutions  belges. Si elles ont             qu'une  bien  vague  parenté,  fut  combattue  et  évitée  par  la
                  leur siège  en  Suisse, elles  se  conforment aux  lois suisses ; de  même             Conférence.
                  en  Allemagne,  etc.  Mais  tous  ces  droits divers  sont  faits pour  les               Le  projet  belge  disait  nettement  dans  son  article  premier  :
                                                                          q
                  sociétés  nationales  et  non  pour  les  sociétés  internationales, ui,               «  Les  Puissances  contractantes  accorderont  la  reconnaissance
                  en  effet,  pour  vivre  sont  forcées  de  prendre  la  forme  de  sociétés           légale,  chacune  dans  les  limites  de  sa  juridiction,  aux  associa-
                  nationales.  De  là  des  difficultés,  des  heurts.  On  s'est  donc  réuni           tions  et  établissements  étrangers  d'assistance  qui  remplissent
                  à  Bruxelles  ;  des  hommes  éminents  sont  venus  de  tous  les  points             les  conditions  ci-après  »...
                  du  monde  —  je  ne  nommerai que  M. Clunet,  le  savant  président                     Après  une  brillante  discussion,  cette  conception  fut  adoptée
                  de  la  Société  de  Droit  international,  qui  a  son  siège  à  Paris,  et          à  l'unanimité.  Voilà  le  fait  saillant  qui intéresse  tous  les interna-
                  M.  Picard, le jurisconsulte  belge  universellement  connu, —  pour                   tionalistes.
                  chercher  une  forme  juridique  nouvelle,  appropriée  aux  besoins                     Sous  les  auspices  des  diplomates  et  des  spécialistes,  le  statut
                                                       l
                  nouveaux,  et  cette  forme  nouvelle  ils 'ont  trouvée.  On  a  fait,                international  est  officiellement  introduit,  par  une  Conférence
                  en somme,  ce  qu'on appelle  en  droit,  un  « statut international  »...             officielle,  auprès  de  chacun  des  Gouvernements  représentés  à
                    »  J'ai voulu vous  donner  ces  explications  pour  vous  faire voir                Paris,  à  savoir  :  l'Allemagne,  les  Etats-Unis d'Amérique,  la
                                                                    i
                  que pour  ces  sociétés  d'assistance  établies  à l'étranger, l y  a  aussi           République  argentine,  l'Autriche,  la  Hongrie,  la  Belgique,  le
                  à  faire  quelque  chose  de  pareil.  E t  c'est out  simplement  ce  que             Danemark,   l'Espagne,  la  France, a  Grande-Bretagne,  la  Grèce,
                                                        t
                                                                                                                                         l
                  nous  avons  voulu  dire  dans  l'ajoute  à la proposition  cinquième.                 l'Italie,  le  Japon,  le  Luxembourg,  la  Norvège,  les  Pays-Bas,  la
                  A  nous  de  chercher  et  de  trouver la  forme la  meilleure au  point               Roumanie, la  Russie,  la  Suède  et la  Suisse.
                  de  vue  juridique  et  qui  puisse  le  mieux  s'adapter  aux  besoins
                  nouveaux.  Nous  voulons  signaler  le  problème  aux  diplomates,
                  aux  gouvernements,  aux  spécialistes,  à  l'opinion  publique  (1).  >)                       I I .  —  L E  S T A T U T  I N T E R N A T I O N A L
                    Avec  ces  commentaires,  l'idée  du  statut  international  fit  son
                  entrée  dans  le  vœu  du  Congrès  de  Copenhague,  qui  le  vota  à                    «  La  Conférence  exprime  le  vœu  de  voir  étudier  par  les  diffé-
                  l'unanimité.                                                                           rents  Gouvernements  représentés  à  la  Conférence  de  Paris,
                                                                                                         le  projet  ci-après  de  statut  international  des  associations  et
                                                                                                         établissements  constitués  en  vue  de  l'assistance  aux  étrangers.
                    (1)  Idem,  p.  217-218.























                                             —  6  —                                                                                -  7  —


                    i>  Entre  les  Puissances  signataires  de  la  présente  Convention                versité  de  Turin,  on  est  frappé  de  la  précision  rare  des  textes
                                                           i
                  et  celles  qui, ultérieurement,  y  adhéreront, l  est  convenu  ce  qui              officiellement  adoptés.
                                                                                                            Une  analyse  sommaire  de  cette  évolution  des  idées  au  sein  de
                  suit  :
                                                                                                         la  Conférence  sera  de  la  plus  haute  utilité  pour  les  Associations
                    •»ARTICLE  PREMIER.  —  Les  Puissances  contractantes  accorde-                     Internationales  qui  auront  à  mettre  sur  pied  une  œuvre  sem-
                  ront a  reconnaissance  légale  aux  associations  et  établissements                  blable  ou similaire.
                       l
                  constitués  en  vue  de  l'assistance  aux  étrangers  qui  rempliront
                  les  conditions  ci-après.                                                               A R T I C L E  PREMIER.  —  Entre  le  texte  de  la  proposition belge
                                                                                                                           i
                    »ART.  2.  —  Les  statuts  de  ces  établissements  et  associations                et  le  texte  adopté, l n'y  a  qu'une  seule  différence  : la  Conférence
                                                                                                                                              j
                  contiendront  les  règles  essentielles  et  les  organes  nécessaires  à              a  biffé  les  mots  :  « dans  les  limites de  sa uridiction  ».
                  leur  fonctionnement.                                                                    Pourquoi?  Parce  qu'ainsi  étaient  soulevées  toutes  les  ques-
                   '  «ART.  3.  —  S'il  y  a  lieu,  la publication,  l'enregistrement  et             tions  se  rattachant  à  la  notion  de  juridiction,  peu  précise,
                  l'approbation  des  statuts  se  font  conformément  aux  lois,  règle-                comme   on  sait,  en  droit  international.  De  plus,  quelques  déléga-
                  ments  et  usages du pavs  où  l'association  ou l'établissement  a  spn               tions  étaient  tentées  de  soulever,  si  le  terme  était  conservé  dans
                                                    •                                                    le  texte,  le  problème  si  difficile  de  l'extension  de  la  convention
                  siège.                                                                                 aux  colonies.
                     «ART.  4.  —  Ces  associations  et  établissements  jouiront  de  la                 La  Conférence  a  été  unanime  pour  écarter  ces  causes  acces-
                  capacité  juridique,  notamment  du  droit  d'ester  en  justice,  de                  soires  de  dissentiments,  qui  auraient  pu imiter  dès  le  début  la
                                                                                                                                                l
                  recevoir  des  cotisations  et  des  subventions.                                      sympathie  de  plusieurs  Etats.
                    » Ils  pourront  posséder  les  immeubles  nécessaires  à  la  réalisa-                Comme   les  mêmes  termes  se  retrouvent  dans  divers  projets
                  tion  de  leur  but  charitable  et  de  leur  administration  ;  ils  pour-           de  statut  international des  Associations  Internationales, la leçon
                  ront  recevoir  des  libéralités,  sous  réserve  de  l'autorisation  du               a  son  importance,  bien  que  pour  celles-ci,  i l 'y  ait  pas  identité
                                                                                                                                                   n
                  Gouvernement   du  pays  où  l'association  ou  l'établissement  à                     de  motifs.
                  son  siège  quand  cette  autorisation  est  exigée  par  les  lois  de  ce
                   pays.                                                                                   ART.  2.  —  Le  grand  débat  se  produisit  à  propos  de  l'article
                     » R T .  5.  —  Les  immunités  et  diminutions d'impôts  accordées                 deuxième.  Pour  le  comprendre  i l  importe d'avoir  le  texte  belge
                      A
                   aux  associations  et  établissements  qui  secourent  les  nationaux                 sous  les  yeux.  I l était  formulé  ainsi  :
                   leur  sont  applicables.                                                                a  Les  statuts  de  chacun  de  ces  établissements  et  associations
                     » R T .  6. —  Les  associations  ne  pourront être  dissoutes  et  les             régleront  :
                      A
                   établissements  supprimés  —  en  dehors  des  motifs tirés  de l'ordre                 » °  La  dénomination  adoptée  ;
                                                                                                             i
                   public,  —  que pour violation  de la loi ou  des  statuts.                             »  2  Le  siège  social  ;
                     » Si  l'association  ou  l'établissement  n'a  pas  pris  de  décision                »  3  0 0  L'objet  ;
                   relativement  à 'attribution  de  son  patrimoine ou  à  défaut  des                    »  4  Les  diverses  catégories  de  membres  et  les  conditions
                                 l
                                                                                                               0
                   dispositions  contenues  dans  les  actes  de  libéralité,  l'actif  sera             d'entrée  et  de sortie ;
                               l
                   attribué  par 'Etat  d'origine  à  des  associations  ou  établissements
                   similaires. »                                                                           »  5  0  Les  droits,  les  obligations  et  les  responsabilités  de  mem-
                                                                                                         bres  ;  sauf  dispositions  spéciales  des  statuts,  les  membres  ne
                     Lorsqu'on  consulte  les  travaux  préparatoires  et  notamment                     seront  tenus,  du  chef  de  leur  souscription,  qu'au  montant  de
                   le  projet  belge,  les  discussions  de  la  Conférence  et  le  rapport  de         leur  cotisation ;
                   M.  Brondi,  délégué  pour 'Italie  et  professeur  de  droit  à  l'Uni-                 »  6 ° L'organisation  de  la  direction  de  l'association  ou  de
                                           l























                                             —   8  —                                                                               -  9  —
                   l'établissement  et  de a  gestion  des  biens,  les  modes  dénomina-                 ment  ».  Aux  défenseurs  de  la  première  objection, l fut  répondu  :
                                       l
                                                                                                                                                       i
                   tion  et  les  pouvoirs  des  personnes  chargées  de  cette  direction et             « Votre droit  de  police  restera  entier ; nous  demandons  seulement
                   de  cette  gestion,  notamment  la  désignation  du  membre  aux                       pour  les  associations  qui  s'en  tiendront  à  leur  but  de  charité,  le
                   poursuites  et  diligences  duquel s'exerce le roit d'ester en justice ;               droit  de  vivre  et  de  se  développer  chez  vous  suivant  un  statut
                                                         d
                   à  défaut  de  pareille  désignation,  le  trésorier  est  le  membre  com-            défini,  accepté  par  les  diverses  nations. »  Aux  tenants  de  la
                   pétent  ;                                                                             seconde  objection, on  fit  observer  qu'à  raison  de  la  diversité  des
                     »  7°  Les  conditions  et  les  formes  de a  modification aux  sta-               législations  en  matière  de  personnification civile, a  plupart  des
                                                        l
                                                                                                                                                        l
                   tuts,  ainsi que  celles de la dissolution et,  dans  ce  cas  notamment,             nations  contractantes  devraient  modifier plus  ou  moins  leur oi
                                                                                                                                                                   l
                   la  destination u  patrimoine.  »                                                     intérieure  ;  que  telle  était  la  conséquence  ordinaire  des  conven-
                                 d
                                                                                                         tions  internationales ;  et  qu'adopter  le  traité  international était
                                                       l
                     Souvenez-vous  du  texte  adopté  par a  Conférence  :  « Les  sta-                 souvent  le  moyen  le  plus  aisé  pour  introduire  dans  un  pays  de
                   tuts  de  ces  établissements  et  associations  contiendront les  règles             régime  parlementaire,  une  réforme  utile  et  progressive  :  l'inter-
                   essentielles  et  les  organes  nécessaires  à  leur  fonctionnement.  »              nationalisation  d'une  mesure  fait  naître  l'opportunité.
                     Entre  ces  deux  textes  se  place  un  échange  de  vues  et  des  dé-               Ces  raisons  ne  furent pas  suffisantes  pour  emporter  l'adhésion
                   clarations  du plus haut  intérêt.                                                    des  délégations  objectantes.  L'inopportunité  d'apporter  dea
                     La  délégation  autrichienne  soutint  que  les  conditions  des                    modifications  à  la  législation  sur  les  associations  et  le  défaut
                   statuts  étant  plus  sévères  que  celles  qui  étaient  exigées  des                d'instructions  nouvelles  de  leur  Gouvernement,  les  poussèrent
                   associations  charitables  par  les lois autrichiennes, elle  ne  pouvait              finalement  à l'abstention.
                   donner  son  adhésion.                                                                   Afin  de  bien souligner  le  caractère  de  cette abstention  qui  est
                     I l  lui fut  répondu  qu'en  principe, l'article  2  du  projet  belge             de  pure  opportunité,  et  aussi  dans  le  but  de  réserver  l'avenir,
                   ne  visait  dans  son  essence que  les  conditions essentielles  à  la  vie          la  délégation  italienne,  d'accord  avec  la  délégation  belge,  pro-
                   d'une  association  et  qu'en  fait,  à  supposer  que  l'une  ou  l'autre            posa  de  réduire  l'article 2  à  son  expression  la  plus  simple  :  « Les
                   condition  ne  fut  vraiment  pas  nécessaire,  le  délégué  pour  l'Au-              statuts  ne  devront  contenir  que  les  règles  essentielles  et  les  or-
                   triche  était  prié  d'introduire  un  amendement.                                    ganes  nécessaires  à  leur  fonctionnement.
                     L'examen  contradictoire  de  la  loi  autrichienne  montra  que                       Ainsi  chaque  nation  resterait  libre  dans  l'appréciation  des
                                    q
                   la  seule  condition ui n'était  pas  prévue  in  terminis  était  la  pre-           conditions essentielles  de a  vie  d'une  association.  Elle  applique-
                                                                                                                                 l
                   mière  : la  dénomination  adoptée.                                                   rait  donc  le  statut  suivant  sa  conception nationale  de  l'associa-
                     Les  défenseurs  du  projet  belge  se  montrèrent  disposés  à  tran-              tion  à personnification civile.
                   siger,  soit  en  donnant  une  signification  encore  plus  large  au                   C'était  du  coup  mettre  à  néant  toutes  les  objections  résultant
                   terme  proposé,  soit  en  retranchant  cette  condition purement                     des  législations  nationales.  La  pointe  de  pénétration  du  statut
                   et  simplement.                                                                       international  était  effilée  à  souhait.  Rien  ne  l'empêcherait
                     Certaines  délégations  présentèrent  d'autres  objections  :  l'une                plus  de  pénétrer  aisément  dans  l'organisation  juridique  des
                   disait  en  substance  :  « Nous  voulons  conserver  la  plénitude  de               États.
                   notre  pouvoir de  police  à l'égard  des  étrangers  qui, sous  prétexte                La  genèse  de  cette  disposition, on  en  conviendra,  est  du  plus
                   de  sociétés  de  bienfaisance  pourraient  être  un  danger  pour                    haut  enseignement  pour  ceux  qui  poursuivent  l'introduction
                   l ' E t a t » ;  l'autre  ajoutait  :  «Si  nous  approuvons  la  convention,         du  statut  international  des Associations  Internationales, quoique,
                   les  nations  adhérentes  devront  s'engager  à  réformer  leur  législa-             encore  une  fois, l 'y  ait pas  identité  de  motifs.
                                                                                                                          n
                                                                                                                        i
                   tion  intérieure  dans  ce  sens ;  or,  mon  paj's,  à  raison  des  circons-
                   tances  spéciales,  ne  peut  prendre  pareil  engagement  actuelle-                    A R T .  3.  —  Le  projet  belge  s'exprimait  ainsi  :  « La publication
                                                                                                         et l'enregistrement  —  et, s'il  y  a lieu, l'approbation,  —  du statut,























                                             —   l o -                                                                            —  11  —

                   se font  conformément  aux  lois  et  usages  du  pays  de  résidence. »               »  C'est  après,  un  motif,  dirais-je,  d'eurythmie  législative  et
                     La  discussion  montra la  nécessité  de  ne  pas  faire  de  différence           juridique  qui le  suggère,  car  ce  serait  une  vraie  inelegantia  juris,
                   entre  les  diverses  formalités.  Toutes  trois  furent  mises  sur  la             que  des  associations  ou  des  établissements,  jouant  le  même  rôle
                   même  ligne,  en parfaite adaptation  à la  législation  territoriale.               social  et  visant  substantiellement  aux  mêmes  buts,  se  trouvas-
                     Le  rapport  de  M.  Brondi  justifie  ainsi  cette  mesure  :  « Une              sent  dans  une  condition  différente,  eu  égard  aux  contributions
                   partie  assez  ample  est  laissée  aux  divers  droits territoriaux,  car           publiques.
                   selon l'article 3, la publication,  l'enregistrement  et l'approbation,                »  C'est  enfin  un  calcul  bien  adroit  qui  le  conseille,  car  aussi
                   s'il  y  a  lieu,  des  statuts  se  font  conformément  aux  lois  et  usages       l'État  de  résidence  des  indigents  a  tout  intérêt  à  ôter  les
                   du  pays  de  résidence.  Tout  cela paraît  parfaitement convenable  ;              entraves  et  à  créer  un  milieu  favorable  au  fécond  épanouisse-
                   l'assomption  de  ces  divers  points  et  arguments  dans  une  con-                ment  de  ces  institutions. »
                   vention  internationale unificatrice se  heurterait dans  des  innom-
                   brables  difficultés  touchant  à  des  conditions  de  fait  et  de  droit,            ART.  6.  —  C'est la reproduction du projet belge sauf  une  modi-
                   qu'il  faudrait  complètement  changer.  D'ailleurs,  cette  matière                  fication  au  second  paragraphe.
                   se  rattache  aussi,  en  partie,  à  des  questions  de  procédure  et  de             Le  projet  belge  disait  :  « Si  l'association  ou  l'établissement
                   forme,  qui. peu vent  à  juste  titre  revendiquer  une  nature  terri-             n'a  pas  pris de  décision  relativement  à 'attribution  de  son  patri-
                                                                                                                                             l
                   toriale. »                                                                            moine,  l'actif  sera attribué  par l'État  d'origine  à  des  associations
                                                                                                         ou  établissements  similaires.  »
                     ART.  4.  —  Les  débats  sur  cet  article furent  brefs.
                                i
                     Aussi  bien, l  est  la  reproduction exacte  du  projet  belge,  sauf                On  constate  aussitôt  que  l'amélioration  est  de  pure forme.
                   un  point.                                                                            Elle  résulte  d'un  échange  de  vues  entre  les  délégations  d'Angle-
                       l
                   ¡  A a  fin  du  paragraphe  2,  le  projet  belge  disait  :  « avec,  s'il  y       terre,  de  France  et  de  Belgique.
                   a  lieu  dans  les  deux  cas,  l'autorisation  du  Gouvernement  du                    M .  Hébrard  de  Villeneuve,  président  de  la  Conférence,  fit
                   pays  où  l'association  ou l'établissement  a  son siège. »                          observer  que,  dans l'esprit des  auteurs  de  l'article,  l'intervention
                     Le  projet  français  donnait  une  solution  semblable.                            de  l'État  d'origine  a  été  prévue  pour  éviter que le patrimoine  des
                                                                                                                                                               l
                     Sur  l'observation  de  certaines  délégations  des  pays  où  sem-                 œuvres  de  bienfaisance  ne  fût  attribué,  dans certains cas,  à 'État
                   blable  autorisation  n'est  pas  requise  pour  les  nationaux,  l'ar-               de  résidence.  H  cita  notamment l'exemple  de  la législation  fran-
                   ticle  prit  sa  forme  la  plus  générale  : « Sous  réserve  de l'autorisa-         çaise,  qui  dans  l'article  713  du  Code  civil  décide  que  les  biens
                   tion  du  Gouvernement  du  pays  où  l'association  ou  l'établisse-                 « vacants  et  sans maître  » sont  attribués  à  l'État.
                   ment  a  son  siège  quand  cette  autorisation  est  exigée  far  la  loi  de          Sur  la  disposition  intercalaire  « ou  à  défaut  de  dispositions
                                                                                                                                                f
                   ce  -pays.  »  Nouvelle  manifestation  de  l'esprit  d'adaptation  aux               contenues  dans  les  actes  de  libéralité  », on ut toujours unanime.
                                                                                                                                                     i
                   droits  territoriaux,  qui  animait la  Conférence.                                   Pour  les  uns,  cela  allait  de  soi. Pour  les  autres, l était  préférable
                                                                                                         d'insérer  une  clause semblable  afin  d'éviter  Te malentendu.  '
                     A R T .  5.  —  Sur  les  faveurs  fiscales,  tous  les  projets  et  motions
                   furent  unanimes.                   »
                                B
                     Le  rapport rondi  les  défend  en  ces  termes  :                                    I I I .  L A  P O R T É E  D U  S T A T U T  I N T E R N A T I O N A L
                     «  La  justification  de  telle  disposition  est  très  claire  et  très
                   simple.                                                                                 La  portée  du  statut  international,  qui vient  d'être  analysé  est
                                                                                                                                        l
                     »  Ce  sont  d'abord  des  raisons  d'humanité,  qui  imposent  la                  marquée  par  deux  documents  de a  Conférence  de  Paris  : le  rap-
                   renonciation  à  ce  léger  profit  de  la part  de l'État,  où  résident  de         port  de  M.  Brondi  et  le  discours  final  de  l'auteur  du  projet,  en
                   telles  institutions  bienfaisantes.                                                  séance  plénière.























                                            —  12  —                                                                              —  13  —

                     «  La  disparité  du  point  de  vue  (à la  Commission  de  la bienfai-             «Jetant,  dit le  Protocole,  un dernier coup  d'œil sur les  résultats
                                                                                                                                               t
                   sance  privée),  dit  M.  Brondi,  et  les  diverses  appréciations  mani-           des  travaux  de  la  Commission,  l'orateur, out  en  regrettant  que
                   festées  dans  cette  discussion  ont  clairement  démontré  que  la                 le  projet  de  statut  international  n'ait  pu  être adopté dès mainte-
                   question n'était  pas  mûre  pour permettre  des  conclusions  résolu-               nant,  signale  les  progrès  que  le  simple  vœu  de  statut  internatio-
                   tives...  C'est pour  cela que  M . van  Overbergh  a  cru  convenable               nal  peut  réaliser.  Ce  vœu  fait  sortir  l'idée  du  domaine des hypo-
                                                                                                                            i
                                                                                                                i
                   de  reprendre  le  projet  dans  une  autre  forme,  c'est-à-dire  de  le            thèses  ; l a  reçu  ici, l va  recevoir  définitivement  par  le  vote  de
                   présenter,  avec  les  amendements  et  les  compléments  introduits                 l'assemblée  une  consécration  en  quelque  sorte  officielle,  puisqu'il
                   au  cours  des  diverses  séances,  comme  objet  d'étude  pour  les                 sera  soumis  avec  faveur  à  l'examen  des  divers  Gouvernements
                   différents  Gouvernements,  au  lieu  de  le  présenter  comme  un                   et  qu'il  aura  pour  défenseurs  les  représentants  les  plus  autori-
                   ensemble  d'accords  à  conclure  ; et  dans  cet  ordre d'idées, la  Com-           sés  de  chaque  pays.  Ce  statut est le  premier  essai d'unification
                   mission  propose  à  la  Conférence  qu'elle  veuille  bien  exprimer                des  législations  dé  bienfaisance.  I l est en même temps  un  modèle-
                   le  vœu  de  voir  étudier,  par  les  différents  Gouvernements  repré-             tvpe  pour  les  conventions  particulières  entre  les  Etats,  relatives
                   sentés  à  la  Conférence  de  Paris,  le  dit  projet  de  convention               aux  sociétés  d'assistance.  I l peut enfin  être  pris en  considération
                   relative  à  la  création  d'un  statut  international des  associations             par  les  divers Etats  au  moment  où les  modifications et leur  légis-
                   et  établissements  constitués  en vue de  l'assistance  aux  étrangers.             lation  interne viendraient  à  être  discutées...
                     » Cette étude  de la part  des  divers  Gouvernements  contribuera                   » L'orateur  émet  le vœu  que le double effort des  Gouvernements
                                                                                                              l
                   à  préciser  toujours davantage  les  termes  de a  question,  à  éclair-            et  de 'initiative  privée  ait  pour  effet  de  développer  cette  forme
                                                            l
                   cir  les  divergences  et. les  points  de  contact  et  d'entente  et  à            élémentaire  du  statut  international  ;  grâce  aux  travaux  de  la
                   établir  si  et  dans  quelle  mesure  existe  un  substrat  d'idées  com-           Commission  d'assistance  privée  et  à  la  critique  savante  qu'a
                   munes,  sur  lesquelles  l'on  puisse  compter  pour  la  réalisation                subi  ce  projet  de statut,  celui-ci  s'est  épuré,  quintessencié,  sim-
                   pratique  du  projet. »                                                              plifié,  avec  une  pointe  de  pénétration  si  aiguë  qu'il  paraît  ca-
                                                                                                        pable  d'entrer  sans  causer  de  douleur  presque,  dans  les  divers
                     E t  voici le  commentaire, non contredit et  applaudi de l'auteur                 organismes  juridiques  nationaux.  I l  convient  naturellement
                   du  projet  :                                                                        d'agir  sur  l'opinion  publique ;  et  nous  attendons  beaucoup  à  ce
                                                                                                                                             d
                     »  Basé  sur  les  travaux  du  Congrès  de  Copenhague,  un projet                point  de  vue  du  Comité  international u  Congrès  d'assistance
                   de  statut  international  des  associations  de  bienfaisance  avait                publique  et  privée,  qui  tiendra  sans  doute  à  remettre  la  ques-
                                                                                                                     d
                   été  déposé  devant  la  Commission.  Le  projet  fut  discuté  de  ma-              tion  à  l'ordre u  jour  du Congrès  de  Londres  (1915). »
                  nière  approfondie.  A u  vote,  cinq  délégations  firent  une  réserve                Aux  yeux  des  amis  du  statut  international des  associations,
                  générale  ; leurs instructions ne  leur  permettaient pas  d'accepter                 la  Conférence  de  Paris  1912-1913,  aura  bien mérité.  Grâce  à  elle,
                  un  projet  sur  les  associations,  qui  amènerait  des  modifications               la  question  est  sortie  de  la  période  des  congrès  et  des  académies
                  à  leurs  législations  nationales.  Dans  l'espoir  d'un  meilleur                   pour  entrer  dans  le  domaine  diplomatique  et  réaliste.  Voici
                            l
                  résultat  à a  suite  d'un examen  ultérieur  et  de  nouvelles  instruc-             vingt  Gouvernements  saisis  par  un  vœu  solennel  d'une  Confé-
                  tions plus  favorables  de la part  de  ¿es  cinq  Etats, les  délégations            rence officielle.  E t  voyez  dans  quelles  conditions  favorables  :
                  ralliées  au  projet,  désireuses  d'aboutir  à  l'adoption u  statut                   Les  représentants  de  ces  Puissances  ont  été  convaincus  de  la
                                                                     d
                  international  par  tous  les  Etats  représentés  à  la  Conférence,                 possibilité  de  réaliser  l'idée  qui, en  théorie,  emporte  les  sympa-
                  résolurent  de  surseoir  à  la  proposition de réalisation  immédiate  :             thies  générales.  Voilà  autant  d'avocats  du  statut  international,
                  c'est  dans  ces  conditions et  avec  cet  espoir  que  l'auteur  du  pro-           auprès  des  Gouvernements  les plus puissants  du monde.
                  jet  le  retira,  le  représentant  aussitôt  sous la  forme d'un vœu  qui              Pour a  première  fois  l'idée  a  affronté  et  avec  succès, la  coali-
                                                                                                               l
                  consistait  à  soumettre  le  projet  à  l'étude  de  tous  les  Etats  repré-        tion  des  intérêts  nationaux.
                  sentés,  sans  aucune  exception... »























                                             —  14  —                                                                             —   15  —

                     I l  a  été  prouvé  à  l'évidence  et  admis,  que  les  objections  se            complications  des  questions  religieuses  et  confessionnelles,  que
                   réduisent  à  des  arguments  d'opportunité  politique.                               vous  ne  trouvez  pas  pour  les  premières.
                     De  la  discussion  courtoise  et  approfondie,  i l  est  apparu  que                E n  vérité, si  le  Statut  international  de  la  Conférence  de  Paris
                   l'idée  pouvait  s'adapter  aisément  à  toutes  les  exigences  des                  aboutit  avant  celui  des  Associations  Internationales,  ce  n'est
                                                                                                                                                          l
                   droits  territoriaux  existants,  malgré  leurs  divergences.                         pas  à  la  facilité  plus  grande  de  l'œuvre  qu'il  faudra 'attribuer.
                     L'opinion  générale  de la  Conférence  était  que  l'idée  avait  pour               Quelle  que  soit  au  surplus  la  destinée  des  deux  espèces  de
                   elle la  raison, la  possibilité  de  réalisation  et l'avenir.                       statuts  internationaux, l restera  que  les  discussions  du  Congrès
                                                                                                                               i
                     I l  sera  du  plus  haut  intérêt  de  poursuivre la  marche en avant              Mondial  des  Associations  Internationales  de  Bruxelles  de  1910,
                   du  projet  de  statut  international  ;  le  voici  soumis  aux  Puis-               rendirent  les plus grands  services  à  ceux  qui  édifièrent  le  Statut
                   sances par  la  voie  officielle ; quelles  seront  les  objections?                  international  des  Associations  charitables.  Puissent  les  travaux
                     Nous  attendons  ce  référendum  avec  confiance.                                   préparatoires  du  Statut  international  des  Associations  chari-
                                                                                                         tables  à  la  Conférence  diplomatique  de  Paris  rendre  à  son  tour
                     Notez  bien  que  si le  statut  international  cueille  la  victoire sur           quelque  service  à  ceux  qui  édifieront  le  statut  international des
                   le  terrain  de  la  bienfaisance,  i l devra  paraître  irrésistible  sur  les       Associations  Internationales au  Congrès  mondial  de  1913  !
                   autres  domaines  et  notamment  sur  celui  de  l'Association nter-
                                                                          I
                   national  à  but  non  lucratif.
                     Ici,  en  effet,  les  difficultés  sont  bien  plus  grandes.  Rappelez-
                   vous  l'état  presqu'anarchique  du  droit  en  matière  de  bienfai-
                   sance.  Autant  de  pays,  autant  de  législations  différentes.  De
                   même  pour  le  vêtement  juridique  de  l'association  de  charité  :
                   un  véritable  habit d'Arlequin.  Et,  pour  comble  de complication,
                   chacune  de  ces  particularités  apparaît  comme  une  plante  du  sol,
                   consacrée  par  l'usage  et  d'autant  plus  chère,  sinon  plus  véné-
                   rable.  Connaissez-vous  un  orgueil plus  têtu  que  celui  de  la  cou-
                   tume  ancestrale,  notamment  en  matière  de  charité?  I l  semble,
                   dans  certains  milieux, que  ce  soit  un  sacrilège  de  toucher  même
                  . à  l'abus.
                     Or,  c'est  sur  ce  terrain  qu'il  s'agit  d'opérer  pour  implanter le
                   statut  international  des  associations  charitables.  Mesurez  la
                   difficulté  !
                     Au. contraire  pour  l'Association  Internationale à  but  lucratif.
                   Ici  c'est  du  terrain  neuf,  du  terrain  vierge.  Le  besoin  est
                   nouveau.  L'institution  est  récente.  Le  préjugé  n'est  que  juri-
                   dique,  et  encore  ce  droit  a  v u  ses  racines  théoriques  ébranlées
                   peu  à  peu  par  la  science  contemporaine.  De  la vient  que  la  cam-
                   pagne  en  faveur  d'un statut  international  des Associations  Inter-
                   nationales  paraît  un  jeu  d'enfant  à  côté  de  celle  du  statut  inter-
                   national  des  Associations  de  charité.
                     Ajoutez  que  pour  cette  dernière,  dans  certains  pays, l i  y  a  les

