{
    "txt": "archive/ALGOLIT_utf8/ARC-MUND-PUB-BULLETIN-IIB-1-1895-1896.txt", 
    "name": "ARC-MUND-PUB-BULLETIN-IIB-1-1895-1896", 
    "blobs": [
        [
            37, 
            64, 
            10, 
            3, 
            42, 
            65.5
        ], 
        [
            47, 
            70, 
            15, 
            6, 
            54.5, 
            73
        ], 
        [
            21, 
            73, 
            12, 
            3, 
            27, 
            74.5
        ], 
        [
            50, 
            78, 
            4, 
            3, 
            52, 
            79.5
        ], 
        [
            33, 
            82, 
            15, 
            3, 
            40.5, 
            83.5
        ], 
        [
            28, 
            90, 
            30, 
            3, 
            43, 
            91.5
        ], 
        [
            59, 
            90, 
            3, 
            3, 
            60.5, 
            91.5
        ], 
        [
            63, 
            90, 
            11, 
            3, 
            68.5, 
            91.5
        ], 
        [
            48, 
            96, 
            9, 
            3, 
            52.5, 
            97.5
        ], 
        [
            25, 
            114, 
            75, 
            6, 
            62.5, 
            117
        ], 
        [
            26, 
            142, 
            60, 
            10, 
            56, 
            147
        ], 
        [
            26, 
            153, 
            82, 
            4, 
            67, 
            155
        ], 
        [
            26, 
            158, 
            83, 
            33, 
            67.5, 
            174.5
        ], 
        [
            130, 
            159, 
            37, 
            13, 
            148.5, 
            165.5
        ], 
        [
            119, 
            163, 
            12, 
            3, 
            125, 
            164.5
        ], 
        [
            129, 
            214, 
            17, 
            3, 
            137.5, 
            215.5
        ], 
        [
            141, 
            219, 
            5, 
            3, 
            143.5, 
            220.5
        ], 
        [
            112, 
            223, 
            12, 
            3, 
            118, 
            224.5
        ], 
        [
            138, 
            223, 
            15, 
            3, 
            145.5, 
            224.5
        ], 
        [
            141, 
            228, 
            4, 
            3, 
            143, 
            229.5
        ], 
        [
            123, 
            232, 
            15, 
            3, 
            130.5, 
            233.5
        ], 
        [
            32, 
            238, 
            83, 
            3, 
            73.5, 
            239.5
        ], 
        [
            118, 
            239, 
            17, 
            3, 
            126.5, 
            240.5
        ], 
        [
            136, 
            239, 
            16, 
            3, 
            144, 
            240.5
        ], 
        [
            153, 
            239, 
            11, 
            3, 
            158.5, 
            240.5
        ], 
        [
            114, 
            264, 
            76, 
            6, 
            152, 
            267
        ], 
        [
            131, 
            297, 
            7, 
            3, 
            134.5, 
            298.5
        ], 
        [
            141, 
            297, 
            14, 
            3, 
            148, 
            298.5
        ], 
        [
            121, 
            303, 
            67, 
            4, 
            154.5, 
            305
        ], 
        [
            117, 
            309, 
            110, 
            40, 
            172, 
            329
        ], 
        [
            32, 
            366, 
            197, 
            74, 
            130.5, 
            403
        ], 
        [
            168, 
            431, 
            50, 
            3, 
            193, 
            432.5
        ], 
        [
            32, 
            436, 
            79, 
            3, 
            71.5, 
            437.5
        ], 
        [
            150, 
            437, 
            50, 
            3, 
            175, 
            438.5
        ], 
        [
            32, 
            457, 
            182, 
            64, 
            123, 
            489
        ], 
        [
            148, 
            467, 
            9, 
            3, 
            152.5, 
            468.5
        ], 
        [
            31, 
            538, 
            80, 
            28, 
            71, 
            552
        ], 
        [
            122, 
            538, 
            87, 
            45, 
            165.5, 
            560.5
        ], 
        [
            124, 
            601, 
            77, 
            42, 
            162.5, 
            622
        ], 
        [
            120, 
            662, 
            79, 
            44, 
            159.5, 
            684
        ], 
        [
            124, 
            722, 
            10, 
            3, 
            129, 
            723.5
        ], 
        [
            143, 
            722, 
            11, 
            3, 
            148.5, 
            723.5
        ], 
        [
            146, 
            727, 
            5, 
            3, 
            148.5, 
            728.5
        ], 
        [
            0, 
            728, 
            3, 
            3, 
            1.5, 
            729.5
        ], 
        [
            6, 
            728, 
            6, 
            3, 
            9, 
            729.5
        ], 
        [
            117, 
            731, 
            27, 
            3, 
            130.5, 
            732.5
        ], 
        [
            132, 
            739, 
            3, 
            3, 
            133.5, 
            740.5
        ], 
        [
            136, 
            739, 
            3, 
            3, 
            137.5, 
            740.5
        ], 
        [
            140, 
            739, 
            15, 
            3, 
            147.5, 
            740.5
        ], 
        [
            159, 
            739, 
            4, 
            3, 
            161, 
            740.5
        ], 
        [
            140, 
            745, 
            19, 
            3, 
            149.5, 
            746.5
        ], 
        [
            117, 
            750, 
            87, 
            7, 
            160.5, 
            753.5
        ], 
        [
            163, 
            764, 
            3, 
            3, 
            164.5, 
            765.5
        ], 
        [
            168, 
            764, 
            7, 
            3, 
            171.5, 
            765.5
        ], 
        [
            9, 
            769, 
            3, 
            3, 
            10.5, 
            770.5
        ], 
        [
            121, 
            770, 
            68, 
            7, 
            155, 
            773.5
        ], 
        [
            9, 
            790, 
            3, 
            3, 
            10.5, 
            791.5
        ], 
        [
            120, 
            819, 
            12, 
            3, 
            126, 
            820.5
        ], 
        [
            136, 
            819, 
            17, 
            3, 
            144.5, 
            820.5
        ], 
        [
            158, 
            819, 
            16, 
            3, 
            166, 
            820.5
        ], 
        [
            128, 
            826, 
            15, 
            3, 
            135.5, 
            827.5
        ], 
        [
            151, 
            826, 
            15, 
            3, 
            158.5, 
            827.5
        ], 
        [
            118, 
            832, 
            70, 
            19, 
            153, 
            841.5
        ], 
        [
            119, 
            870, 
            83, 
            12, 
            160.5, 
            876
        ], 
        [
            63, 
            876, 
            3, 
            3, 
            64.5, 
            877.5
        ], 
        [
            118, 
            880, 
            84, 
            43, 
            160, 
            901.5
        ], 
        [
            37, 
            885, 
            52, 
            5, 
            63, 
            887.5
        ], 
        [
            34, 
            891, 
            83, 
            33, 
            75.5, 
            907.5
        ], 
        [
            33, 
            943, 
            83, 
            44, 
            74.5, 
            965
        ], 
        [
            119, 
            943, 
            83, 
            44, 
            160.5, 
            965
        ], 
        [
            121, 
            1004, 
            86, 
            43, 
            164, 
            1025.5
        ], 
        [
            33, 
            1005, 
            86, 
            42, 
            76, 
            1026
        ], 
        [
            121, 
            1063, 
            83, 
            21, 
            162.5, 
            1073.5
        ], 
        [
            50, 
            1069, 
            24, 
            6, 
            62, 
            1072
        ], 
        [
            32, 
            1077, 
            83, 
            30, 
            73.5, 
            1092
        ], 
        [
            121, 
            1123, 
            87, 
            47, 
            164.5, 
            1146.5
        ], 
        [
            47, 
            1129, 
            18, 
            6, 
            56, 
            1132
        ], 
        [
            36, 
            1132, 
            10, 
            3, 
            41, 
            1133.5
        ], 
        [
            66, 
            1132, 
            19, 
            3, 
            75.5, 
            1133.5
        ], 
        [
            55, 
            1136, 
            15, 
            3, 
            62.5, 
            1137.5
        ], 
        [
            31, 
            1141, 
            85, 
            29, 
            73.5, 
            1155.5
        ], 
        [
            31, 
            1186, 
            82, 
            16, 
            72, 
            1194
        ], 
        [
            119, 
            1190, 
            105, 
            41, 
            171.5, 
            1210.5
        ], 
        [
            124, 
            1197, 
            12, 
            3, 
            130, 
            1198.5
        ], 
        [
            34, 
            1246, 
            181, 
            71, 
            124.5, 
            1281.5
        ], 
        [
            35, 
            1334, 
            170, 
            40, 
            120, 
            1354
        ], 
        [
            36, 
            1357, 
            178, 
            50, 
            125, 
            1382
        ], 
        [
            36, 
            1423, 
            172, 
            60, 
            122, 
            1453
        ], 
        [
            36, 
            1469, 
            83, 
            15, 
            77.5, 
            1476.5
        ], 
        [
            34, 
            1499, 
            86, 
            58, 
            77, 
            1528
        ], 
        [
            121, 
            1500, 
            86, 
            27, 
            164, 
            1513.5
        ], 
        [
            122, 
            1527, 
            86, 
            31, 
            165, 
            1542.5
        ], 
        [
            33, 
            1574, 
            85, 
            26, 
            75.5, 
            1587
        ], 
        [
            119, 
            1574, 
            80, 
            6, 
            159, 
            1577
        ], 
        [
            119, 
            1584, 
            86, 
            16, 
            162, 
            1592
        ], 
        [
            32, 
            1600, 
            174, 
            35, 
            119, 
            1617.5
        ], 
        [
            119, 
            1623, 
            88, 
            11, 
            163, 
            1628.5
        ], 
        [
            34, 
            1651, 
            174, 
            47, 
            121, 
            1674.5
        ], 
        [
            33, 
            1714, 
            87, 
            60, 
            76.5, 
            1744
        ], 
        [
            120, 
            1714, 
            87, 
            23, 
            163.5, 
            1725.5
        ], 
        [
            121, 
            1738, 
            89, 
            37, 
            165.5, 
            1756.5
        ], 
        [
            32, 
            1792, 
            181, 
            72, 
            122.5, 
            1828
        ], 
        [
            37, 
            1880, 
            177, 
            62, 
            125.5, 
            1911
        ], 
        [
            36, 
            1959, 
            170, 
            63, 
            121, 
            1990.5
        ], 
        [
            118, 
            1959, 
            87, 
            13, 
            161.5, 
            1965.5
        ], 
        [
            36, 
            2039, 
            171, 
            73, 
            121.5, 
            2075.5
        ], 
        [
            119, 
            2105, 
            76, 
            6, 
            157, 
            2108
        ], 
        [
            36, 
            2129, 
            89, 
            44, 
            80.5, 
            2151
        ], 
        [
            131, 
            2132, 
            37, 
            6, 
            149.5, 
            2135
        ], 
        [
            126, 
            2135, 
            4, 
            3, 
            128, 
            2136.5
        ], 
        [
            128, 
            2142, 
            34, 
            26, 
            145, 
            2155
        ], 
        [
            151, 
            2158, 
            12, 
            3, 
            157, 
            2159.5
        ], 
        [
            35, 
            2190, 
            73, 
            65, 
            71.5, 
            2222.5
        ], 
        [
            120, 
            2190, 
            83, 
            64, 
            161.5, 
            2222
        ], 
        [
            38, 
            2272, 
            184, 
            57, 
            130, 
            2300.5
        ], 
        [
            73, 
            2272, 
            19, 
            3, 
            82.5, 
            2273.5
        ], 
        [
            35, 
            2346, 
            76, 
            54, 
            73, 
            2373
        ], 
        [
            134, 
            2353, 
            19, 
            6, 
            143.5, 
            2356
        ], 
        [
            156, 
            2356, 
            11, 
            3, 
            161.5, 
            2357.5
        ], 
        [
            121, 
            2364, 
            83, 
            8, 
            162.5, 
            2368
        ], 
        [
            121, 
            2373, 
            81, 
            27, 
            161.5, 
            2386.5
        ], 
        [
            35, 
            2400, 
            73, 
            8, 
            71.5, 
            2404
        ], 
        [
            121, 
            2400, 
            92, 
            9, 
            167, 
            2404.5
        ], 
        [
            34, 
            2425, 
            82, 
            13, 
            75, 
            2431.5
        ], 
        [
            34, 
            2426, 
            174, 
            66, 
            121, 
            2459
        ], 
        [
            34, 
            2463, 
            80, 
            29, 
            74, 
            2477.5
        ], 
        [
            38, 
            2509, 
            169, 
            56, 
            122.5, 
            2537
        ], 
        [
            121, 
            2518, 
            53, 
            6, 
            147.5, 
            2521
        ], 
        [
            40, 
            2584, 
            176, 
            59, 
            128, 
            2613.5
        ], 
        [
            38, 
            2662, 
            188, 
            62, 
            132, 
            2693
        ], 
        [
            38, 
            2742, 
            191, 
            56, 
            133.5, 
            2770
        ], 
        [
            36, 
            2817, 
            167, 
            42, 
            119.5, 
            2838
        ], 
        [
            163, 
            2857, 
            4, 
            3, 
            165, 
            2858.5
        ], 
        [
            118, 
            2858, 
            97, 
            11, 
            166.5, 
            2863.5
        ], 
        [
            37, 
            2863, 
            76, 
            3, 
            75, 
            2864.5
        ], 
        [
            118, 
            2867, 
            22, 
            6, 
            129, 
            2870
        ], 
        [
            37, 
            2870, 
            77, 
            3, 
            75.5, 
            2871.5
        ], 
        [
            37, 
            2892, 
            173, 
            49, 
            123.5, 
            2916.5
        ], 
        [
            43, 
            2902, 
            43, 
            10, 
            64.5, 
            2907
        ], 
        [
            54, 
            2902, 
            10, 
            3, 
            59, 
            2903.5
        ], 
        [
            90, 
            2907, 
            5, 
            3, 
            92.5, 
            2908.5
        ], 
        [
            35, 
            2960, 
            179, 
            56, 
            124.5, 
            2988
        ], 
        [
            35, 
            3034, 
            178, 
            54, 
            124, 
            3061
        ], 
        [
            39, 
            3107, 
            172, 
            54, 
            125, 
            3134
        ], 
        [
            41, 
            3179, 
            172, 
            21, 
            127, 
            3189.5
        ], 
        [
            42, 
            3200, 
            168, 
            33, 
            126, 
            3216.5
        ], 
        [
            84, 
            3218, 
            20, 
            3, 
            94, 
            3219.5
        ], 
        [
            44, 
            3230, 
            48, 
            3, 
            68, 
            3231.5
        ], 
        [
            40, 
            3251, 
            166, 
            58, 
            123, 
            3280
        ], 
        [
            40, 
            3307, 
            179, 
            35, 
            129.5, 
            3324.5
        ], 
        [
            40, 
            3361, 
            168, 
            77, 
            124, 
            3399.5
        ], 
        [
            39, 
            3456, 
            168, 
            29, 
            123, 
            3470.5
        ], 
        [
            39, 
            3487, 
            192, 
            18, 
            135, 
            3496
        ], 
        [
            39, 
            3524, 
            171, 
            55, 
            124.5, 
            3551.5
        ], 
        [
            38, 
            3598, 
            172, 
            74, 
            124, 
            3635
        ], 
        [
            39, 
            3691, 
            188, 
            69, 
            133, 
            3725.5
        ], 
        [
            38, 
            3778, 
            186, 
            57, 
            131, 
            3806.5
        ], 
        [
            39, 
            3853, 
            165, 
            41, 
            121.5, 
            3873.5
        ], 
        [
            40, 
            3892, 
            165, 
            46, 
            122.5, 
            3915
        ], 
        [
            39, 
            3956, 
            167, 
            44, 
            122.5, 
            3978
        ], 
        [
            41, 
            4000, 
            173, 
            13, 
            127.5, 
            4006.5
        ], 
        [
            36, 
            4031, 
            189, 
            81, 
            130.5, 
            4071.5
        ], 
        [
            38, 
            4130, 
            172, 
            60, 
            124, 
            4160
        ], 
        [
            147, 
            4130, 
            10, 
            3, 
            152, 
            4131.5
        ], 
        [
            35, 
            4209, 
            175, 
            65, 
            122.5, 
            4241.5
        ], 
        [
            37, 
            4292, 
            190, 
            71, 
            132, 
            4327.5
        ], 
        [
            37, 
            4381, 
            182, 
            64, 
            128, 
            4413
        ], 
        [
            39, 
            4463, 
            170, 
            76, 
            124, 
            4501
        ], 
        [
            37, 
            4558, 
            173, 
            73, 
            123.5, 
            4594.5
        ], 
        [
            37, 
            4653, 
            179, 
            57, 
            126.5, 
            4681.5
        ], 
        [
            123, 
            4659, 
            5, 
            3, 
            125.5, 
            4660.5
        ], 
        [
            129, 
            4659, 
            6, 
            3, 
            132, 
            4660.5
        ], 
        [
            158, 
            4659, 
            16, 
            3, 
            166, 
            4660.5
        ], 
        [
            36, 
            4728, 
            171, 
            54, 
            121.5, 
            4755
        ], 
        [
            67, 
            4785, 
            3, 
            3, 
            68.5, 
            4786.5
        ], 
        [
            37, 
            4806, 
            180, 
            53, 
            127, 
            4832.5
        ], 
        [
            78, 
            4842, 
            26, 
            3, 
            91, 
            4843.5
        ], 
        [
            38, 
            4878, 
            181, 
            57, 
            128.5, 
            4906.5
        ], 
        [
            38, 
            4953, 
            171, 
            63, 
            123.5, 
            4984.5
        ], 
        [
            37, 
            5035, 
            182, 
            62, 
            128, 
            5066
        ], 
        [
            39, 
            5116, 
            171, 
            51, 
            124.5, 
            5141.5
        ], 
        [
            37, 
            5186, 
            174, 
            63, 
            124, 
            5217.5
        ], 
        [
            36, 
            5268, 
            170, 
            75, 
            121, 
            5305.5
        ], 
        [
            37, 
            5361, 
            183, 
            55, 
            128.5, 
            5388.5
        ], 
        [
            35, 
            5435, 
            183, 
            60, 
            126.5, 
            5465
        ], 
        [
            35, 
            5514, 
            173, 
            47, 
            121.5, 
            5537.5
        ], 
        [
            36, 
            5558, 
            168, 
            8, 
            120, 
            5562
        ], 
        [
            119, 
            5584, 
            81, 
            6, 
            159.5, 
            5587
        ], 
        [
            35, 
            5585, 
            158, 
            15, 
            114, 
            5592.5
        ], 
        [
            34, 
            5600, 
            173, 
            52, 
            120.5, 
            5626
        ], 
        [
            33, 
            5670, 
            195, 
            63, 
            130.5, 
            5701.5
        ], 
        [
            35, 
            5752, 
            171, 
            56, 
            120.5, 
            5780
        ], 
        [
            174, 
            5806, 
            3, 
            3, 
            175.5, 
            5807.5
        ], 
        [
            34, 
            5827, 
            179, 
            50, 
            123.5, 
            5852
        ], 
        [
            33, 
            5896, 
            85, 
            48, 
            75.5, 
            5920
        ], 
        [
            121, 
            5896, 
            98, 
            48, 
            170, 
            5920
        ], 
        [
            32, 
            5963, 
            181, 
            52, 
            122.5, 
            5989
        ], 
        [
            144, 
            5963, 
            3, 
            3, 
            145.5, 
            5964.5
        ], 
        [
            32, 
            6034, 
            180, 
            82, 
            122, 
            6075
        ], 
        [
            34, 
            6135, 
            95, 
            53, 
            81.5, 
            6161.5
        ], 
        [
            118, 
            6135, 
            81, 
            15, 
            158.5, 
            6142.5
        ], 
        [
            36, 
            6207, 
            172, 
            50, 
            122, 
            6232
        ], 
        [
            35, 
            6275, 
            170, 
            49, 
            120, 
            6299.5
        ], 
        [
            36, 
            6322, 
            175, 
            16, 
            123.5, 
            6330
        ], 
        [
            34, 
            6356, 
            169, 
            38, 
            118.5, 
            6375
        ], 
        [
            34, 
            6377, 
            74, 
            3, 
            71, 
            6378.5
        ], 
        [
            34, 
            6382, 
            85, 
            18, 
            76.5, 
            6391
        ], 
        [
            35, 
            6400, 
            178, 
            19, 
            124, 
            6409.5
        ], 
        [
            34, 
            6437, 
            174, 
            58, 
            121, 
            6466
        ], 
        [
            34, 
            6513, 
            181, 
            52, 
            124.5, 
            6539
        ], 
        [
            61, 
            6583, 
            11, 
            3, 
            66.5, 
            6584.5
        ], 
        [
            120, 
            6583, 
            85, 
            25, 
            162.5, 
            6595.5
        ], 
        [
            35, 
            6588, 
            84, 
            31, 
            77, 
            6603.5
        ], 
        [
            35, 
            6609, 
            171, 
            40, 
            120.5, 
            6629
        ], 
        [
            37, 
            6667, 
            172, 
            51, 
            123, 
            6692.5
        ], 
        [
            37, 
            6716, 
            175, 
            37, 
            124.5, 
            6734.5
        ], 
        [
            37, 
            6719, 
            80, 
            3, 
            77, 
            6720.5
        ], 
        [
            34, 
            6770, 
            182, 
            56, 
            125, 
            6798
        ], 
        [
            36, 
            6843, 
            15, 
            3, 
            43.5, 
            6844.5
        ], 
        [
            67, 
            6843, 
            13, 
            3, 
            73.5, 
            6844.5
        ], 
        [
            34, 
            6847, 
            75, 
            9, 
            71.5, 
            6851.5
        ], 
        [
            123, 
            6854, 
            12, 
            3, 
            129, 
            6855.5
        ], 
        [
            137, 
            6854, 
            15, 
            3, 
            144.5, 
            6855.5
        ], 
        [
            155, 
            6854, 
            4, 
            3, 
            157, 
            6855.5
        ], 
        [
            160, 
            6854, 
            15, 
            3, 
            167.5, 
            6855.5
        ], 
        [
            34, 
            6857, 
            62, 
            14, 
            65, 
            6864
        ], 
        [
            120, 
            6858, 
            90, 
            25, 
            165, 
            6870.5
        ], 
        [
            93, 
            6868, 
            3, 
            3, 
            94.5, 
            6869.5
        ], 
        [
            37, 
            6875, 
            58, 
            4, 
            66, 
            6877
        ], 
        [
            120, 
            6881, 
            89, 
            10, 
            164.5, 
            6886
        ], 
        [
            37, 
            6885, 
            8, 
            3, 
            41, 
            6886.5
        ], 
        [
            46, 
            6885, 
            14, 
            3, 
            53, 
            6886.5
        ], 
        [
            35, 
            6889, 
            42, 
            4, 
            56, 
            6891
        ], 
        [
            78, 
            6889, 
            13, 
            4, 
            84.5, 
            6891
        ], 
        [
            120, 
            6889, 
            89, 
            30, 
            164.5, 
            6904
        ], 
        [
            93, 
            6890, 
            3, 
            3, 
            94.5, 
            6891.5
        ], 
        [
            38, 
            6895, 
            10, 
            3, 
            43, 
            6896.5
        ], 
        [
            52, 
            6895, 
            12, 
            3, 
            58, 
            6896.5
        ], 
        [
            67, 
            6895, 
            5, 
            3, 
            69.5, 
            6896.5
        ], 
        [
            73, 
            6895, 
            9, 
            3, 
            77.5, 
            6896.5
        ], 
        [
            83, 
            6895, 
            12, 
            3, 
            89, 
            6896.5
        ], 
        [
            35, 
            6902, 
            60, 
            16, 
            65, 
            6910
        ], 
        [
            36, 
            6938, 
            178, 
            58, 
            125, 
            6967
        ], 
        [
            11, 
            7005, 
            3, 
            3, 
            12.5, 
            7006.5
        ], 
        [
            36, 
            7013, 
            181, 
            57, 
            126.5, 
            7041.5
        ], 
        [
            35, 
            7088, 
            183, 
            68, 
            126.5, 
            7122
        ], 
        [
            38, 
            7174, 
            168, 
            26, 
            122, 
            7187
        ], 
        [
            38, 
            7200, 
            181, 
            53, 
            128.5, 
            7226.5
        ], 
        [
            34, 
            7270, 
            173, 
            58, 
            120.5, 
            7299
        ], 
        [
            36, 
            7279, 
            4, 
            3, 
            38, 
            7280.5
        ], 
        [
            41, 
            7279, 
            16, 
            3, 
            49, 
            7280.5
        ], 
        [
            58, 
            7279, 
            12, 
            5, 
            64, 
            7281.5
        ], 
        [
            73, 
            7279, 
            19, 
            3, 
            82.5, 
            7280.5
        ], 
        [
            58, 
            7286, 
            21, 
            3, 
            68.5, 
            7287.5
        ], 
        [
            35, 
            7347, 
            85, 
            22, 
            77.5, 
            7358
        ], 
        [
            121, 
            7348, 
            90, 
            48, 
            166, 
            7372
        ], 
        [
            35, 
            7371, 
            84, 
            8, 
            77, 
            7375
        ], 
        [
            35, 
            7380, 
            178, 
            37, 
            124, 
            7398.5
        ], 
        [
            120, 
            7436, 
            97, 
            57, 
            168.5, 
            7464.5
        ], 
        [
            34, 
            7437, 
            80, 
            8, 
            74, 
            7441
        ], 
        [
            34, 
            7443, 
            83, 
            37, 
            75.5, 
            7461.5
        ], 
        [
            34, 
            7481, 
            84, 
            14, 
            76, 
            7488
        ], 
        [
            36, 
            7513, 
            173, 
            66, 
            122.5, 
            7546
        ], 
        [
            36, 
            7599, 
            85, 
            17, 
            78.5, 
            7607.5
        ], 
        [
            123, 
            7599, 
            74, 
            49, 
            160, 
            7623.5
        ], 
        [
            124, 
            7605, 
            15, 
            4, 
            131.5, 
            7607
        ], 
        [
            47, 
            7617, 
            50, 
            8, 
            72, 
            7621
        ], 
        [
            119, 
            7617, 
            4, 
            5, 
            121, 
            7619.5
        ], 
        [
            37, 
            7626, 
            62, 
            22, 
            68, 
            7637
        ], 
        [
            119, 
            7637, 
            24, 
            5, 
            131, 
            7639.5
        ], 
        [
            37, 
            7640, 
            4, 
            3, 
            39, 
            7641.5
        ], 
        [
            120, 
            7668, 
            85, 
            24, 
            162.5, 
            7680
        ], 
        [
            36, 
            7669, 
            78, 
            16, 
            75, 
            7677
        ], 
        [
            36, 
            7686, 
            86, 
            37, 
            79, 
            7704.5
        ], 
        [
            122, 
            7693, 
            72, 
            5, 
            158, 
            7695.5
        ], 
        [
            120, 
            7699, 
            58, 
            24, 
            149, 
            7711
        ], 
        [
            35, 
            7742, 
            168, 
            51, 
            119, 
            7767.5
        ], 
        [
            120, 
            7742, 
            82, 
            12, 
            161, 
            7748
        ], 
        [
            41, 
            7752, 
            19, 
            7, 
            50.5, 
            7755.5
        ], 
        [
            150, 
            7800, 
            3, 
            3, 
            151.5, 
            7801.5
        ], 
        [
            37, 
            7822, 
            62, 
            11, 
            68, 
            7827.5
        ], 
        [
            124, 
            7822, 
            71, 
            10, 
            159.5, 
            7827
        ], 
        [
            119, 
            7825, 
            4, 
            3, 
            121, 
            7826.5
        ], 
        [
            119, 
            7831, 
            85, 
            34, 
            161.5, 
            7848
        ], 
        [
            35, 
            7835, 
            81, 
            37, 
            75.5, 
            7853.5
        ], 
        [
            35, 
            7857, 
            4, 
            6, 
            37, 
            7860
        ], 
        [
            35, 
            7866, 
            4, 
            3, 
            37, 
            7867.5
        ], 
        [
            37, 
            7891, 
            168, 
            67, 
            121, 
            7924.5
        ], 
        [
            48, 
            7896, 
            5, 
            3, 
            50.5, 
            7897.5
        ], 
        [
            54, 
            7896, 
            30, 
            5, 
            69, 
            7898.5
        ], 
        [
            64, 
            7902, 
            12, 
            3, 
            70, 
            7903.5
        ], 
        [
            119, 
            7953, 
            81, 
            3, 
            159.5, 
            7954.5
        ], 
        [
            36, 
            7977, 
            166, 
            23, 
            119, 
            7988.5
        ], 
        [
            37, 
            7994, 
            76, 
            6, 
            75, 
            7997
        ], 
        [
            37, 
            8000, 
            175, 
            43, 
            124.5, 
            8021.5
        ], 
        [
            36, 
            8063, 
            176, 
            58, 
            124, 
            8092
        ], 
        [
            36, 
            8064, 
            81, 
            9, 
            76.5, 
            8068.5
        ], 
        [
            38, 
            8141, 
            82, 
            20, 
            79, 
            8151
        ], 
        [
            122, 
            8145, 
            14, 
            3, 
            129, 
            8146.5
        ], 
        [
            139, 
            8145, 
            24, 
            6, 
            151, 
            8148
        ], 
        [
            166, 
            8145, 
            10, 
            3, 
            171, 
            8146.5
        ], 
        [
            119, 
            8152, 
            87, 
            36, 
            162.5, 
            8170
        ], 
        [
            40, 
            8159, 
            21, 
            3, 
            50.5, 
            8160.5
        ], 
        [
            37, 
            8207, 
            176, 
            65, 
            125, 
            8239.5
        ], 
        [
            119, 
            8270, 
            33, 
            7, 
            135.5, 
            8273.5
        ], 
        [
            32, 
            8296, 
            183, 
            61, 
            123.5, 
            8326.5
        ], 
        [
            119, 
            8375, 
            80, 
            24, 
            159, 
            8387
        ], 
        [
            32, 
            8380, 
            35, 
            7, 
            49.5, 
            8383.5
        ], 
        [
            69, 
            8380, 
            22, 
            5, 
            80, 
            8382.5
        ], 
        [
            58, 
            8386, 
            12, 
            3, 
            64, 
            8387.5
        ], 
        [
            32, 
            8390, 
            79, 
            5, 
            71.5, 
            8392.5
        ], 
        [
            119, 
            8397, 
            85, 
            29, 
            161.5, 
            8411.5
        ], 
        [
            32, 
            8400, 
            83, 
            30, 
            73.5, 
            8415
        ], 
        [
            32, 
            8449, 
            173, 
            50, 
            118.5, 
            8474
        ], 
        [
            41, 
            8450, 
            41, 
            5, 
            61.5, 
            8452.5
        ], 
        [
            33, 
            8518, 
            171, 
            50, 
            118.5, 
            8543
        ], 
        [
            117, 
            8519, 
            88, 
            18, 
            161, 
            8528
        ], 
        [
            78, 
            8566, 
            24, 
            3, 
            90, 
            8567.5
        ], 
        [
            144, 
            8567, 
            3, 
            3, 
            145.5, 
            8568.5
        ], 
        [
            34, 
            8590, 
            79, 
            22, 
            73.5, 
            8601
        ], 
        [
            118, 
            8590, 
            79, 
            14, 
            157.5, 
            8597
        ], 
        [
            165, 
            8590, 
            12, 
            3, 
            171, 
            8591.5
        ], 
        [
            118, 
            8594, 
            6, 
            3, 
            121, 
            8595.5
        ], 
        [
            147, 
            8610, 
            3, 
            3, 
            148.5, 
            8611.5
        ], 
        [
            118, 
            8615, 
            78, 
            9, 
            157, 
            8619.5
        ], 
        [
            62, 
            8643, 
            3, 
            3, 
            63.5, 
            8644.5
        ], 
        [
            145, 
            8643, 
            3, 
            3, 
            146.5, 
            8644.5
        ], 
        [
            33, 
            8664, 
            169, 
            70, 
            117.5, 
            8699
        ], 
        [
            44, 
            8670, 
            28, 
            7, 
            58, 
            8673.5
        ], 
        [
            70, 
            8670, 
            13, 
            5, 
            76.5, 
            8672.5
        ], 
        [
            37, 
            8753, 
            167, 
            47, 
            120.5, 
            8776.5
        ], 
        [
            152, 
            8759, 
            16, 
            5, 
            160, 
            8761.5
        ], 
        [
            69, 
            8792, 
            45, 
            3, 
            91.5, 
            8793.5
        ], 
        [
            116, 
            8800, 
            97, 
            9, 
            164.5, 
            8804.5
        ], 
        [
            37, 
            8828, 
            189, 
            79, 
            131.5, 
            8867.5
        ], 
        [
            61, 
            8828, 
            10, 
            3, 
            66, 
            8829.5
        ], 
        [
            36, 
            8926, 
            157, 
            50, 
            114.5, 
            8951
        ], 
        [
            145, 
            8926, 
            11, 
            3, 
            150.5, 
            8927.5
        ], 
        [
            35, 
            8995, 
            173, 
            50, 
            121.5, 
            9020
        ], 
        [
            34, 
            9064, 
            170, 
            55, 
            119, 
            9091.5
        ], 
        [
            60, 
            9064, 
            11, 
            3, 
            65.5, 
            9065.5
        ], 
        [
            33, 
            9138, 
            84, 
            46, 
            75, 
            9161
        ], 
        [
            118, 
            9138, 
            97, 
            55, 
            166.5, 
            9165.5
        ], 
        [
            34, 
            9185, 
            81, 
            9, 
            74.5, 
            9189.5
        ], 
        [
            78, 
            9200, 
            3, 
            3, 
            79.5, 
            9201.5
        ], 
        [
            33, 
            9222, 
            186, 
            57, 
            126, 
            9250.5
        ], 
        [
            33, 
            9299, 
            179, 
            54, 
            122.5, 
            9326
        ], 
        [
            37, 
            9372, 
            177, 
            51, 
            125.5, 
            9397.5
        ], 
        [
            37, 
            9443, 
            184, 
            54, 
            129, 
            9470
        ], 
        [
            42, 
            9449, 
            10, 
            3, 
            47, 
            9450.5
        ], 
        [
            55, 
            9449, 
            24, 
            7, 
            67, 
            9452.5
        ], 
        [
            76, 
            9449, 
            15, 
            3, 
            83.5, 
            9450.5
        ], 
        [
            35, 
            9517, 
            173, 
            58, 
            121.5, 
            9546
        ], 
        [
            36, 
            9594, 
            80, 
            6, 
            76, 
            9597
        ], 
        [
            120, 
            9595, 
            80, 
            5, 
            160, 
            9597.5
        ], 
        [
            36, 
            9600, 
            168, 
            48, 
            120, 
            9624
        ], 
        [
            35, 
            9667, 
            169, 
            55, 
            119.5, 
            9694.5
        ], 
        [
            149, 
            9687, 
            34, 
            4, 
            166, 
            9689
        ], 
        [
            117, 
            9713, 
            97, 
            9, 
            165.5, 
            9717.5
        ], 
        [
            36, 
            9742, 
            175, 
            46, 
            123.5, 
            9765
        ], 
        [
            35, 
            9748, 
            5, 
            3, 
            37.5, 
            9749.5
        ], 
        [
            41, 
            9748, 
            15, 
            3, 
            48.5, 
            9749.5
        ], 
        [
            59, 
            9748, 
            14, 
            5, 
            66, 
            9750.5
        ], 
        [
            77, 
            9748, 
            17, 
            3, 
            85.5, 
            9749.5
        ], 
        [
            35, 
            9808, 
            177, 
            61, 
            123.5, 
            9838.5
        ], 
        [
            36, 
            9888, 
            171, 
            74, 
            121.5, 
            9925
        ], 
        [
            41, 
            9982, 
            76, 
            52, 
            79, 
            10008
        ], 
        [
            119, 
            9982, 
            76, 
            54, 
            157, 
            10009
        ], 
        [
            40, 
            10054, 
            194, 
            65, 
            137, 
            10086.5
        ], 
        [
            36, 
            10139, 
            190, 
            58, 
            131, 
            10168
        ], 
        [
            36, 
            10154, 
            4, 
            3, 
            38, 
            10155.5
        ], 
        [
            41, 
            10154, 
            17, 
            3, 
            49.5, 
            10155.5
        ], 
        [
            37, 
            10159, 
            26, 
            6, 
            50, 
            10162
        ], 
        [
            37, 
            10216, 
            172, 
            66, 
            123, 
            10249
        ], 
        [
            51, 
            10301, 
            15, 
            3, 
            58.5, 
            10302.5
        ], 
        [
            71, 
            10301, 
            10, 
            3, 
            76, 
            10302.5
        ], 
        [
            48, 
            10305, 
            51, 
            5, 
            73.5, 
            10307.5
        ], 
        [
            36, 
            10306, 
            189, 
            51, 
            130.5, 
            10331.5
        ], 
        [
            36, 
            10331, 
            69, 
            7, 
            70.5, 
            10334.5
        ], 
        [
            37, 
            10377, 
            162, 
            23, 
            118, 
            10388.5
        ], 
        [
            119, 
            10386, 
            81, 
            14, 
            159.5, 
            10393
        ], 
        [
            37, 
            10400, 
            165, 
            37, 
            119.5, 
            10418.5
        ], 
        [
            120, 
            10427, 
            95, 
            10, 
            167.5, 
            10432
        ], 
        [
            36, 
            10457, 
            171, 
            55, 
            121.5, 
            10484.5
        ], 
        [
            39, 
            10531, 
            173, 
            53, 
            125.5, 
            10557.5
        ], 
        [
            40, 
            10532, 
            61, 
            9, 
            70.5, 
            10536.5
        ], 
        [
            49, 
            10532, 
            10, 
            3, 
            54, 
            10533.5
        ], 
        [
            39, 
            10603, 
            170, 
            56, 
            124, 
            10631
        ], 
        [
            39, 
            10612, 
            77, 
            5, 
            77.5, 
            10614.5
        ], 
        [
            40, 
            10678, 
            180, 
            50, 
            130, 
            10703
        ], 
        [
            38, 
            10747, 
            177, 
            70, 
            126.5, 
            10782
        ], 
        [
            36, 
            10836, 
            183, 
            64, 
            127.5, 
            10868
        ], 
        [
            35, 
            10919, 
            179, 
            59, 
            124.5, 
            10948.5
        ], 
        [
            38, 
            10998, 
            170, 
            55, 
            123, 
            11025.5
        ], 
        [
            38, 
            11045, 
            78, 
            5, 
            77, 
            11047.5
        ], 
        [
            38, 
            11051, 
            176, 
            16, 
            126, 
            11059
        ], 
        [
            38, 
            11086, 
            174, 
            58, 
            125, 
            11115
        ], 
        [
            169, 
            11089, 
            7, 
            16, 
            172.5, 
            11097
        ], 
        [
            127, 
            11090, 
            11, 
            3, 
            132.5, 
            11091.5
        ], 
        [
            35, 
            11163, 
            179, 
            37, 
            124.5, 
            11181.5
        ], 
        [
            36, 
            11163, 
            78, 
            6, 
            75, 
            11166
        ], 
        [
            117, 
            11190, 
            87, 
            10, 
            160.5, 
            11195
        ], 
        [
            35, 
            11200, 
            187, 
            24, 
            128.5, 
            11212
        ], 
        [
            39, 
            11243, 
            175, 
            57, 
            126.5, 
            11271.5
        ], 
        [
            37, 
            11320, 
            167, 
            57, 
            120.5, 
            11348.5
        ], 
        [
            38, 
            11395, 
            185, 
            46, 
            130.5, 
            11418
        ], 
        [
            132, 
            11412, 
            15, 
            3, 
            139.5, 
            11413.5
        ], 
        [
            151, 
            11412, 
            13, 
            3, 
            157.5, 
            11413.5
        ], 
        [
            35, 
            11461, 
            167, 
            45, 
            118.5, 
            11483.5
        ], 
        [
            120, 
            11469, 
            76, 
            7, 
            158, 
            11472.5
        ], 
        [
            34, 
            11487, 
            54, 
            7, 
            61, 
            11490.5
        ], 
        [
            38, 
            11525, 
            172, 
            56, 
            124, 
            11553
        ], 
        [
            133, 
            11530, 
            15, 
            3, 
            140.5, 
            11531.5
        ], 
        [
            151, 
            11530, 
            19, 
            3, 
            160.5, 
            11531.5
        ], 
        [
            45, 
            11548, 
            10, 
            3, 
            50, 
            11549.5
        ], 
        [
            57, 
            11548, 
            16, 
            3, 
            65, 
            11549.5
        ], 
        [
            74, 
            11548, 
            15, 
            3, 
            81.5, 
            11549.5
        ], 
        [
            57, 
            11553, 
            4, 
            3, 
            59, 
            11554.5
        ], 
        [
            62, 
            11553, 
            15, 
            3, 
            69.5, 
            11554.5
        ], 
        [
            37, 
            11600, 
            173, 
            55, 
            123.5, 
            11627.5
        ], 
        [
            37, 
            11674, 
            172, 
            50, 
            123, 
            11699
        ], 
        [
            124, 
            11681, 
            15, 
            3, 
            131.5, 
            11682.5
        ], 
        [
            143, 
            11681, 
            11, 
            3, 
            148.5, 
            11682.5
        ], 
        [
            157, 
            11681, 
            12, 
            3, 
            163, 
            11682.5
        ], 
        [
            37, 
            11743, 
            179, 
            55, 
            126.5, 
            11770.5
        ], 
        [
            35, 
            11817, 
            169, 
            58, 
            119.5, 
            11846
        ], 
        [
            36, 
            11894, 
            173, 
            57, 
            122.5, 
            11922.5
        ], 
        [
            35, 
            11969, 
            169, 
            31, 
            119.5, 
            11984.5
        ], 
        [
            35, 
            12000, 
            170, 
            32, 
            120, 
            12016
        ], 
        [
            35, 
            12000, 
            79, 
            9, 
            74.5, 
            12004.5
        ], 
        [
            35, 
            12010, 
            74, 
            11, 
            72, 
            12015.5
        ], 
        [
            36, 
            12051, 
            176, 
            58, 
            124, 
            12080
        ], 
        [
            38, 
            12128, 
            173, 
            50, 
            124.5, 
            12153
        ], 
        [
            120, 
            12136, 
            57, 
            9, 
            148.5, 
            12140.5
        ], 
        [
            37, 
            12196, 
            175, 
            52, 
            124.5, 
            12222
        ], 
        [
            36, 
            12267, 
            177, 
            53, 
            124.5, 
            12293.5
        ], 
        [
            35, 
            12339, 
            178, 
            49, 
            124, 
            12363.5
        ], 
        [
            35, 
            12407, 
            180, 
            49, 
            125, 
            12431.5
        ], 
        [
            35, 
            12415, 
            4, 
            3, 
            37, 
            12416.5
        ], 
        [
            41, 
            12415, 
            13, 
            3, 
            47.5, 
            12416.5
        ], 
        [
            55, 
            12415, 
            21, 
            5, 
            65.5, 
            12417.5
        ], 
        [
            77, 
            12415, 
            5, 
            3, 
            79.5, 
            12416.5
        ], 
        [
            83, 
            12415, 
            10, 
            3, 
            88, 
            12416.5
        ], 
        [
            61, 
            12421, 
            12, 
            3, 
            67, 
            12422.5
        ], 
        [
            36, 
            12476, 
            179, 
            56, 
            125.5, 
            12504
        ], 
        [
            33, 
            12567, 
            134, 
            43, 
            100, 
            12588.5
        ], 
        [
            141, 
            12578, 
            6, 
            3, 
            144, 
            12579.5
        ], 
        [
            151, 
            12585, 
            9, 
            3, 
            155.5, 
            12586.5
        ], 
        [
            161, 
            12585, 
            3, 
            3, 
            162.5, 
            12586.5
        ], 
        [
            151, 
            12601, 
            5, 
            3, 
            153.5, 
            12602.5
        ], 
        [
            136, 
            12607, 
            7, 
            3, 
            139.5, 
            12608.5
        ], 
        [
            55, 
            12616, 
            96, 
            24, 
            103, 
            12628
        ], 
        [
            31, 
            12622, 
            136, 
            107, 
            99, 
            12675.5
        ], 
        [
            56, 
            12622, 
            6, 
            3, 
            59, 
            12623.5
        ], 
        [
            65, 
            12622, 
            6, 
            3, 
            68, 
            12623.5
        ], 
        [
            74, 
            12622, 
            6, 
            3, 
            77, 
            12623.5
        ], 
        [
            84, 
            12622, 
            6, 
            3, 
            87, 
            12623.5
        ], 
        [
            134, 
            12633, 
            3, 
            3, 
            135.5, 
            12634.5
        ], 
        [
            106, 
            12642, 
            11, 
            3, 
            111.5, 
            12643.5
        ], 
        [
            118, 
            12642, 
            5, 
            3, 
            120.5, 
            12643.5
        ], 
        [
            124, 
            12642, 
            5, 
            3, 
            126.5, 
            12643.5
        ], 
        [
            130, 
            12642, 
            5, 
            3, 
            132.5, 
            12643.5
        ], 
        [
            136, 
            12642, 
            7, 
            3, 
            139.5, 
            12643.5
        ], 
        [
            144, 
            12642, 
            5, 
            3, 
            146.5, 
            12643.5
        ], 
        [
            150, 
            12642, 
            5, 
            3, 
            152.5, 
            12643.5
        ], 
        [
            156, 
            12642, 
            5, 
            3, 
            158.5, 
            12643.5
        ], 
        [
            162, 
            12642, 
            5, 
            3, 
            164.5, 
            12643.5
        ], 
        [
            87, 
            12652, 
            5, 
            3, 
            89.5, 
            12653.5
        ], 
        [
            93, 
            12652, 
            5, 
            3, 
            95.5, 
            12653.5
        ], 
        [
            99, 
            12652, 
            6, 
            3, 
            102, 
            12653.5
        ], 
        [
            106, 
            12652, 
            5, 
            3, 
            108.5, 
            12653.5
        ], 
        [
            112, 
            12652, 
            5, 
            3, 
            114.5, 
            12653.5
        ], 
        [
            118, 
            12652, 
            4, 
            3, 
            120, 
            12653.5
        ], 
        [
            123, 
            12652, 
            7, 
            3, 
            126.5, 
            12653.5
        ], 
        [
            131, 
            12652, 
            5, 
            3, 
            133.5, 
            12653.5
        ], 
        [
            137, 
            12652, 
            5, 
            3, 
            139.5, 
            12653.5
        ], 
        [
            143, 
            12652, 
            5, 
            3, 
            145.5, 
            12653.5
        ], 
        [
            149, 
            12652, 
            5, 
            3, 
            151.5, 
            12653.5
        ], 
        [
            155, 
            12652, 
            5, 
            3, 
            157.5, 
            12653.5
        ], 
        [
            77, 
            12661, 
            17, 
            6, 
            85.5, 
            12664
        ], 
        [
            95, 
            12661, 
            5, 
            3, 
            97.5, 
            12662.5
        ], 
        [
            101, 
            12661, 
            6, 
            3, 
            104, 
            12662.5
        ], 
        [
            108, 
            12661, 
            5, 
            3, 
            110.5, 
            12662.5
        ], 
        [
            114, 
            12661, 
            4, 
            3, 
            116, 
            12662.5
        ], 
        [
            119, 
            12661, 
            17, 
            6, 
            127.5, 
            12664
        ], 
        [
            137, 
            12661, 
            6, 
            3, 
            140, 
            12662.5
        ], 
        [
            144, 
            12661, 
            5, 
            3, 
            146.5, 
            12662.5
        ], 
        [
            150, 
            12661, 
            4, 
            3, 
            152, 
            12662.5
        ], 
        [
            155, 
            12661, 
            5, 
            3, 
            157.5, 
            12662.5
        ], 
        [
            161, 
            12661, 
            5, 
            3, 
            163.5, 
            12662.5
        ], 
        [
            141, 
            12668, 
            5, 
            6, 
            143.5, 
            12671
        ], 
        [
            80, 
            12676, 
            6, 
            3, 
            83, 
            12677.5
        ], 
        [
            70, 
            12681, 
            5, 
            3, 
            72.5, 
            12682.5
        ], 
        [
            76, 
            12681, 
            22, 
            8, 
            87, 
            12685
        ], 
        [
            98, 
            12681, 
            5, 
            3, 
            100.5, 
            12682.5
        ], 
        [
            104, 
            12681, 
            4, 
            3, 
            106, 
            12682.5
        ], 
        [
            109, 
            12681, 
            4, 
            3, 
            111, 
            12682.5
        ], 
        [
            114, 
            12681, 
            4, 
            3, 
            116, 
            12682.5
        ], 
        [
            118, 
            12681, 
            18, 
            10, 
            127, 
            12686
        ], 
        [
            119, 
            12681, 
            5, 
            3, 
            121.5, 
            12682.5
        ], 
        [
            137, 
            12681, 
            4, 
            3, 
            139, 
            12682.5
        ], 
        [
            142, 
            12681, 
            5, 
            3, 
            144.5, 
            12682.5
        ], 
        [
            148, 
            12681, 
            7, 
            3, 
            151.5, 
            12682.5
        ], 
        [
            72, 
            12686, 
            4, 
            3, 
            74, 
            12687.5
        ], 
        [
            99, 
            12686, 
            4, 
            3, 
            101, 
            12687.5
        ], 
        [
            104, 
            12686, 
            7, 
            3, 
            107.5, 
            12687.5
        ], 
        [
            112, 
            12686, 
            5, 
            3, 
            114.5, 
            12687.5
        ], 
        [
            109, 
            12693, 
            5, 
            4, 
            111.5, 
            12695
        ], 
        [
            115, 
            12693, 
            4, 
            4, 
            117, 
            12695
        ], 
        [
            120, 
            12693, 
            7, 
            4, 
            123.5, 
            12695
        ], 
        [
            128, 
            12693, 
            5, 
            4, 
            130.5, 
            12695
        ], 
        [
            134, 
            12693, 
            5, 
            4, 
            136.5, 
            12695
        ], 
        [
            140, 
            12693, 
            4, 
            4, 
            142, 
            12695
        ], 
        [
            145, 
            12693, 
            5, 
            4, 
            147.5, 
            12695
        ], 
        [
            151, 
            12693, 
            5, 
            4, 
            153.5, 
            12695
        ], 
        [
            106, 
            12698, 
            10, 
            4, 
            111, 
            12700
        ], 
        [
            79, 
            12699, 
            4, 
            3, 
            81, 
            12700.5
        ], 
        [
            84, 
            12699, 
            4, 
            3, 
            86, 
            12700.5
        ], 
        [
            89, 
            12699, 
            4, 
            3, 
            91, 
            12700.5
        ], 
        [
            94, 
            12699, 
            5, 
            3, 
            96.5, 
            12700.5
        ], 
        [
            100, 
            12699, 
            5, 
            3, 
            102.5, 
            12700.5
        ], 
        [
            117, 
            12699, 
            4, 
            3, 
            119, 
            12700.5
        ], 
        [
            122, 
            12699, 
            5, 
            3, 
            124.5, 
            12700.5
        ], 
        [
            128, 
            12699, 
            5, 
            3, 
            130.5, 
            12700.5
        ], 
        [
            134, 
            12699, 
            5, 
            3, 
            136.5, 
            12700.5
        ], 
        [
            140, 
            12699, 
            4, 
            3, 
            142, 
            12700.5
        ], 
        [
            100, 
            12708, 
            40, 
            4, 
            120, 
            12710
        ], 
        [
            141, 
            12709, 
            5, 
            3, 
            143.5, 
            12710.5
        ], 
        [
            127, 
            12715, 
            6, 
            6, 
            130, 
            12718
        ], 
        [
            97, 
            12716, 
            5, 
            3, 
            99.5, 
            12717.5
        ], 
        [
            103, 
            12716, 
            11, 
            5, 
            108.5, 
            12718.5
        ], 
        [
            115, 
            12716, 
            5, 
            3, 
            117.5, 
            12717.5
        ], 
        [
            121, 
            12716, 
            5, 
            3, 
            123.5, 
            12717.5
        ], 
        [
            134, 
            12716, 
            5, 
            3, 
            136.5, 
            12717.5
        ], 
        [
            168, 
            12726, 
            7, 
            3, 
            171.5, 
            12727.5
        ], 
        [
            36, 
            12766, 
            102, 
            34, 
            87, 
            12783
        ], 
        [
            71, 
            12771, 
            6, 
            3, 
            74, 
            12772.5
        ], 
        [
            78, 
            12771, 
            9, 
            3, 
            82.5, 
            12772.5
        ], 
        [
            88, 
            12771, 
            6, 
            3, 
            91, 
            12772.5
        ], 
        [
            95, 
            12771, 
            6, 
            3, 
            98, 
            12772.5
        ], 
        [
            134, 
            12792, 
            5, 
            3, 
            136.5, 
            12793.5
        ], 
        [
            71, 
            12800, 
            7, 
            2, 
            74.5, 
            12801
        ], 
        [
            79, 
            12800, 
            7, 
            2, 
            82.5, 
            12801
        ], 
        [
            87, 
            12800, 
            7, 
            2, 
            90.5, 
            12801
        ], 
        [
            95, 
            12800, 
            7, 
            2, 
            98.5, 
            12801
        ], 
        [
            103, 
            12800, 
            7, 
            2, 
            106.5, 
            12801
        ], 
        [
            111, 
            12800, 
            8, 
            2, 
            115, 
            12801
        ], 
        [
            120, 
            12800, 
            7, 
            2, 
            123.5, 
            12801
        ], 
        [
            128, 
            12800, 
            7, 
            2, 
            131.5, 
            12801
        ], 
        [
            35, 
            12812, 
            159, 
            34, 
            114.5, 
            12829
        ], 
        [
            133, 
            12833, 
            4, 
            3, 
            135, 
            12834.5
        ], 
        [
            63, 
            12864, 
            11, 
            3, 
            68.5, 
            12865.5
        ], 
        [
            44, 
            12867, 
            155, 
            14, 
            121.5, 
            12874
        ], 
        [
            55, 
            12879, 
            158, 
            29, 
            134, 
            12893.5
        ], 
        [
            50, 
            12883, 
            5, 
            3, 
            52.5, 
            12884.5
        ], 
        [
            45, 
            12889, 
            9, 
            13, 
            49.5, 
            12895.5
        ], 
        [
            40, 
            12895, 
            4, 
            7, 
            42, 
            12898.5
        ], 
        [
            47, 
            12906, 
            4, 
            3, 
            49, 
            12907.5
        ], 
        [
            55, 
            12906, 
            168, 
            48, 
            139, 
            12930
        ], 
        [
            83, 
            12906, 
            19, 
            3, 
            92.5, 
            12907.5
        ], 
        [
            40, 
            12908, 
            5, 
            10, 
            42.5, 
            12913
        ], 
        [
            47, 
            12911, 
            4, 
            5, 
            49, 
            12913.5
        ], 
        [
            47, 
            12918, 
            4, 
            5, 
            49, 
            12920.5
        ], 
        [
            36, 
            12920, 
            8, 
            5, 
            40, 
            12922.5
        ], 
        [
            36, 
            12931, 
            10, 
            22, 
            41, 
            12942
        ], 
        [
            47, 
            12931, 
            4, 
            4, 
            49, 
            12933
        ], 
        [
            55, 
            12948, 
            62, 
            34, 
            86, 
            12965
        ], 
        [
            120, 
            12955, 
            77, 
            3, 
            158.5, 
            12956.5
        ], 
        [
            118, 
            12960, 
            83, 
            7, 
            159.5, 
            12963.5
        ], 
        [
            120, 
            12969, 
            78, 
            3, 
            159, 
            12970.5
        ], 
        [
            118, 
            12977, 
            92, 
            6, 
            164, 
            12980
        ], 
        [
            38, 
            13002, 
            173, 
            56, 
            124.5, 
            13030
        ], 
        [
            37, 
            13077, 
            186, 
            58, 
            130, 
            13106
        ], 
        [
            38, 
            13154, 
            164, 
            53, 
            120, 
            13180.5
        ], 
        [
            36, 
            13225, 
            182, 
            60, 
            127, 
            13255
        ], 
        [
            36, 
            13249, 
            73, 
            22, 
            72.5, 
            13260
        ], 
        [
            36, 
            13303, 
            176, 
            52, 
            124, 
            13329
        ], 
        [
            34, 
            13374, 
            176, 
            59, 
            122, 
            13403.5
        ], 
        [
            36, 
            13381, 
            62, 
            7, 
            67, 
            13384.5
        ], 
        [
            35, 
            13451, 
            172, 
            59, 
            121, 
            13480.5
        ], 
        [
            37, 
            13529, 
            129, 
            19, 
            101.5, 
            13538.5
        ], 
        [
            137, 
            13537, 
            17, 
            3, 
            145.5, 
            13538.5
        ], 
        [
            170, 
            13542, 
            9, 
            3, 
            174.5, 
            13543.5
        ], 
        [
            119, 
            13549, 
            88, 
            27, 
            163, 
            13562.5
        ], 
        [
            37, 
            13594, 
            76, 
            6, 
            75, 
            13597
        ], 
        [
            122, 
            13595, 
            80, 
            5, 
            162, 
            13597.5
        ], 
        [
            37, 
            13600, 
            169, 
            48, 
            121.5, 
            13624
        ], 
        [
            149, 
            13613, 
            35, 
            5, 
            166.5, 
            13615.5
        ], 
        [
            36, 
            13667, 
            182, 
            51, 
            127, 
            13692.5
        ], 
        [
            46, 
            13675, 
            8, 
            3, 
            50, 
            13676.5
        ], 
        [
            55, 
            13675, 
            11, 
            3, 
            60.5, 
            13676.5
        ], 
        [
            71, 
            13675, 
            14, 
            3, 
            78, 
            13676.5
        ], 
        [
            36, 
            13736, 
            83, 
            56, 
            77.5, 
            13764
        ], 
        [
            122, 
            13737, 
            90, 
            55, 
            167, 
            13764.5
        ], 
        [
            35, 
            13811, 
            178, 
            75, 
            124, 
            13848.5
        ], 
        [
            36, 
            13905, 
            170, 
            47, 
            121, 
            13928.5
        ]
    ]
}