{
    "txt": "archive/ALGOLIT_utf8/ARC-MUND-PUB-IIB-11.txt", 
    "name": "ARC-MUND-PUB-IIB-11", 
    "blobs": [
        [
            10, 
            164, 
            68, 
            52, 
            44, 
            190
        ], 
        [
            31, 
            306, 
            15, 
            3, 
            38.5, 
            307.5
        ], 
        [
            16, 
            315, 
            87, 
            34, 
            59.5, 
            332
        ], 
        [
            30, 
            357, 
            78, 
            43, 
            69, 
            378.5
        ], 
        [
            56, 
            399, 
            5, 
            3, 
            58.5, 
            400.5
        ], 
        [
            14, 
            410, 
            82, 
            41, 
            55, 
            430.5
        ], 
        [
            29, 
            459, 
            79, 
            42, 
            68.5, 
            480
        ], 
        [
            15, 
            508, 
            80, 
            44, 
            55, 
            530
        ], 
        [
            26, 
            560, 
            82, 
            43, 
            67, 
            581.5
        ]
    ]
}