{
    "txt": "archive/ALGOLIT_utf8/ARC-MUND-PUB-BULLETIN-IIB-101-CONF-INT-BIBLIO-DOC-1908.txt", 
    "name": "ARC-MUND-PUB-BULLETIN-IIB-101-CONF-INT-BIBLIO-DOC-1908", 
    "blobs": [
        [
            17, 
            19, 
            116, 
            60, 
            75, 
            49
        ], 
        [
            114, 
            111, 
            65, 
            3, 
            146.5, 
            112.5
        ], 
        [
            131, 
            118, 
            46, 
            3, 
            154, 
            119.5
        ], 
        [
            114, 
            124, 
            81, 
            30, 
            154.5, 
            139
        ], 
        [
            24, 
            174, 
            90, 
            57, 
            69, 
            202.5
        ], 
        [
            114, 
            174, 
            86, 
            57, 
            157, 
            202.5
        ], 
        [
            26, 
            250, 
            81, 
            61, 
            66.5, 
            280.5
        ], 
        [
            114, 
            251, 
            82, 
            58, 
            155, 
            280
        ], 
        [
            26, 
            329, 
            80, 
            72, 
            66, 
            365
        ], 
        [
            114, 
            330, 
            80, 
            71, 
            154, 
            365.5
        ], 
        [
            27, 
            420, 
            82, 
            72, 
            68, 
            456
        ], 
        [
            114, 
            420, 
            81, 
            72, 
            154.5, 
            456
        ], 
        [
            27, 
            512, 
            82, 
            54, 
            68, 
            539
        ], 
        [
            115, 
            512, 
            82, 
            54, 
            156, 
            539
        ], 
        [
            26, 
            585, 
            87, 
            76, 
            69.5, 
            623
        ], 
        [
            115, 
            585, 
            86, 
            77, 
            158, 
            623.5
        ], 
        [
            26, 
            681, 
            81, 
            58, 
            66.5, 
            710
        ], 
        [
            114, 
            681, 
            82, 
            58, 
            155, 
            710
        ], 
        [
            26, 
            759, 
            83, 
            66, 
            67.5, 
            792
        ], 
        [
            114, 
            759, 
            82, 
            64, 
            155, 
            791
        ], 
        [
            26, 
            844, 
            87, 
            62, 
            69, 
            875
        ], 
        [
            113, 
            844, 
            77, 
            62, 
            152, 
            875
        ], 
        [
            27, 
            923, 
            87, 
            39, 
            70, 
            943
        ], 
        [
            115, 
            923, 
            94, 
            65, 
            162, 
            956
        ], 
        [
            25, 
            1001, 
            103, 
            34, 
            77, 
            1018
        ]
    ]
}